<?xml version="1.0" encoding="UTF-8" standalone="no"?>
<!-- Created with Inkscape (http://www.inkscape.org/) -->

<svg
   xmlns:dc="http://purl.org/dc/elements/1.1/"
   xmlns:cc="http://creativecommons.org/ns#"
   xmlns:rdf="http://www.w3.org/1999/02/22-rdf-syntax-ns#"
   xmlns:svg="http://www.w3.org/2000/svg"
   xmlns="http://www.w3.org/2000/svg"
   xmlns:xlink="http://www.w3.org/1999/xlink"
   xmlns:sodipodi="http://sodipodi.sourceforge.net/DTD/sodipodi-0.dtd"
   xmlns:inkscape="http://www.inkscape.org/namespaces/inkscape"
   width="787.5"
   height="1012.5"
   id="svg2"
   version="1.1"
   inkscape:version="0.48.1 r9760"
   sodipodi:docname="page05-map-right.svg"
   inkscape:export-filename="/home/ianweller/fudcon-tempe-booklet/template-left.png"
   inkscape:export-xdpi="90"
   inkscape:export-ydpi="90">
  <defs
     id="defs4">
    <linearGradient
       id="linearGradient3913">
      <stop
         style="stop-color:#db3179;stop-opacity:1;"
         offset="0"
         id="stop3915" />
      <stop
         style="stop-color:#db3179;stop-opacity:0;"
         offset="1"
         id="stop3917" />
    </linearGradient>
    <linearGradient
       inkscape:collect="always"
       xlink:href="#linearGradient3913"
       id="linearGradient3470"
       gradientUnits="userSpaceOnUse"
       gradientTransform="matrix(1,0,0,0.85137615,938.42675,10.754709)"
       x1="399.32516"
       y1="134.862"
       x2="4.5543671"
       y2="134.862" />
  </defs>
  <sodipodi:namedview
     id="base"
     pagecolor="#ffffff"
     bordercolor="#666666"
     borderopacity="1.0"
     inkscape:pageopacity="0.0"
     inkscape:pageshadow="2"
     inkscape:zoom="0.5"
     inkscape:cx="405.78787"
     inkscape:cy="497.3772"
     inkscape:document-units="in"
     inkscape:current-layer="layer1"
     showgrid="false"
     units="in"
     inkscape:window-width="1022"
     inkscape:window-height="720"
     inkscape:window-x="-1"
     inkscape:window-y="22"
     inkscape:window-maximized="0"
     showguides="false"
     inkscape:guide-bbox="true"
     inkscape:snap-bbox="true"
     inkscape:snap-page="false"
     inkscape:snap-nodes="false">
    <sodipodi:guide
       position="0,11.25"
       orientation="0,1"
       id="guide2985" />
    <sodipodi:guide
       position="776.25,0"
       orientation="1,0"
       id="guide2987" />
    <sodipodi:guide
       position="787.5,1001.25"
       orientation="0,1"
       id="guide2989" />
    <sodipodi:guide
       position="11.25,1012.5"
       orientation="1,0"
       id="guide2991" />
    <sodipodi:guide
       orientation="1,0"
       position="753.75,824"
       id="guide3872" />
    <sodipodi:guide
       orientation="1,0"
       position="33.75,762"
       id="guide3878" />
    <sodipodi:guide
       orientation="0,1"
       position="257,928.17"
       id="guide3884" />
    <sodipodi:guide
       orientation="0,1"
       position="297,33.75"
       id="guide3970" />
    <sodipodi:guide
       orientation="0,1"
       position="287,855"
       id="guide3972" />
    <sodipodi:guide
       orientation="0,1"
       position="35.753906,953.73"
       id="guide3017" />
    <sodipodi:guide
       orientation="0,1"
       position="311,990"
       id="guide3810" />
    <sodipodi:guide
       position="0,0"
       orientation="0,787.5"
       id="guide3812" />
    <sodipodi:guide
       position="787.5,0"
       orientation="-1012.5,0"
       id="guide3814" />
    <sodipodi:guide
       position="787.5,1012.5"
       orientation="0,-787.5"
       id="guide3816" />
    <sodipodi:guide
       position="0,1012.5"
       orientation="1012.5,0"
       id="guide3818" />
    <sodipodi:guide
       orientation="0,1"
       position="341,832.5"
       id="guide3820" />
    <sodipodi:guide
       orientation="1,0"
       position="393.75,377.59502"
       id="guide3107" />
    <sodipodi:guide
       orientation="1,0"
       position="371.25,391.73716"
       id="guide3109" />
    <sodipodi:guide
       orientation="1,0"
       position="416.25,312.5412"
       id="guide3111" />
  </sodipodi:namedview>
  <metadata
     id="metadata7">
    <rdf:RDF>
      <cc:Work
         rdf:about="">
        <dc:format>image/svg+xml</dc:format>
        <dc:type
           rdf:resource="http://purl.org/dc/dcmitype/StillImage" />
        <dc:title />
      </cc:Work>
    </rdf:RDF>
  </metadata>
  <g
     inkscape:groupmode="layer"
     id="layer2"
     inkscape:label="bounding"
     sodipodi:insensitive="true">
    <rect
       style="fill:#ffffff;fill-opacity:1;stroke:none"
       id="rect3010"
       width="787.5"
       height="1012.5"
       x="0"
       y="0" />
  </g>
  <g
     inkscape:label="Layer 1"
     inkscape:groupmode="layer"
     id="layer1"
     transform="translate(0,-39.862)">
    <g
       transform="translate(-43.635324,179.32291)"
       id="g20142">
      <path
         sodipodi:type="arc"
         style="fill:#3c6eb4;fill-opacity:1;stroke:none"
         id="path20133"
         sodipodi:cx="262.5"
         sodipodi:cy="-316.25"
         sodipodi:rx="13.5"
         sodipodi:ry="13.75"
         d="m 276,-316.25 c 0,7.59392 -6.04416,13.75 -13.5,13.75 -7.45584,0 -13.5,-6.15608 -13.5,-13.75 0,-7.59392 6.04416,-13.75 13.5,-13.75 7.45584,0 13.5,6.15608 13.5,13.75 z"
         transform="matrix(0.695,0,0,0.68236363,74.444999,21.276999)" />
      <text
         sodipodi:linespacing="125%"
         id="text20135"
         y="-189.81633"
         x="256.53879"
         style="font-size:13.5px;font-style:normal;font-variant:normal;font-weight:bold;font-stretch:expanded;text-align:center;line-height:125%;letter-spacing:0px;word-spacing:0px;writing-mode:lr-tb;text-anchor:middle;fill:#ffffff;fill-opacity:1;stroke:none;font-family:Comfortaa;-inkscape-font-specification:Comfortaa Bold Expanded"
         xml:space="preserve"><tspan
           style="font-size:13.5px;font-style:normal;font-variant:normal;font-weight:bold;font-stretch:expanded;text-align:center;line-height:125%;writing-mode:lr-tb;text-anchor:middle;font-family:Comfortaa;-inkscape-font-specification:Comfortaa Bold Expanded"
           y="-189.81633"
           x="256.53879"
           id="tspan20137"
           sodipodi:role="line">#</tspan></text>
    </g>
    <g
       transform="translate(-43.635324,179.32291)"
       id="g20147">
      <path
         transform="matrix(0.695,0,0,0.68236363,74.444999,21.276999)"
         d="m 276,-316.25 c 0,7.59392 -6.04416,13.75 -13.5,13.75 -7.45584,0 -13.5,-6.15608 -13.5,-13.75 0,-7.59392 6.04416,-13.75 13.5,-13.75 7.45584,0 13.5,6.15608 13.5,13.75 z"
         sodipodi:ry="13.75"
         sodipodi:rx="13.5"
         sodipodi:cy="-316.25"
         sodipodi:cx="262.5"
         id="path20149"
         style="fill:#3c6eb4;fill-opacity:1;stroke:none"
         sodipodi:type="arc" />
      <text
         xml:space="preserve"
         style="font-size:13.5px;font-style:normal;font-variant:normal;font-weight:bold;font-stretch:expanded;text-align:center;line-height:125%;letter-spacing:0px;word-spacing:0px;writing-mode:lr-tb;text-anchor:middle;fill:#ffffff;fill-opacity:1;stroke:none;font-family:Comfortaa;-inkscape-font-specification:Comfortaa Bold Expanded"
         x="256.53879"
         y="-189.81633"
         id="text20151"
         sodipodi:linespacing="125%"><tspan
           sodipodi:role="line"
           id="tspan20153"
           x="256.53879"
           y="-189.81633"
           style="font-size:13.5px;font-style:normal;font-variant:normal;font-weight:bold;font-stretch:expanded;text-align:center;line-height:125%;writing-mode:lr-tb;text-anchor:middle;font-family:Comfortaa;-inkscape-font-specification:Comfortaa Bold Expanded">#</tspan></text>
    </g>
    <g
       transform="translate(-62.727207,184.85235)"
       id="g19987">
      <path
         transform="matrix(0.92666667,0,0,0.90981818,16.759999,45.081999)"
         d="m 276,-316.25 c 0,7.59392 -6.04416,13.75 -13.5,13.75 -7.45584,0 -13.5,-6.15608 -13.5,-13.75 0,-7.59392 6.04416,-13.75 13.5,-13.75 7.45584,0 13.5,6.15608 13.5,13.75 z"
         sodipodi:ry="13.75"
         sodipodi:rx="13.5"
         sodipodi:cy="-316.25"
         sodipodi:cx="262.5"
         id="path19985"
         style="fill:#db3279;fill-opacity:1;stroke:none"
         sodipodi:type="arc" />
      <text
         xml:space="preserve"
         style="font-size:18px;font-style:normal;font-variant:normal;font-weight:bold;font-stretch:expanded;text-align:center;line-height:125%;letter-spacing:0px;word-spacing:0px;writing-mode:lr-tb;text-anchor:middle;fill:#ffffff;fill-opacity:1;stroke:none;font-family:Comfortaa;-inkscape-font-specification:Comfortaa Bold Expanded"
         x="259.55173"
         y="-236.37578"
         id="text19978"
         sodipodi:linespacing="125%"><tspan
           sodipodi:role="line"
           id="tspan19980"
           x="259.55173"
           y="-236.37578"
           style="font-size:18px;font-style:normal;font-variant:normal;font-weight:bold;font-stretch:expanded;text-align:center;line-height:125%;writing-mode:lr-tb;text-anchor:middle;font-family:Comfortaa;-inkscape-font-specification:Comfortaa Bold Expanded">#</tspan></text>
    </g>
    <g
       id="g3180"
       transform="translate(0,-22.00008)">
      <text
         sodipodi:linespacing="125%"
         id="text3862"
         y="239.48116"
         x="33.75"
         style="font-size:28px;font-style:normal;font-variant:normal;font-weight:normal;font-stretch:normal;text-align:start;line-height:125%;letter-spacing:0px;word-spacing:0px;writing-mode:lr-tb;text-anchor:start;fill:#000000;fill-opacity:1;stroke:none;font-family:Comfortaa;-inkscape-font-specification:Comfortaa"
         xml:space="preserve"><tspan
           y="239.48116"
           x="33.75"
           id="tspan3864"
           sodipodi:role="line">Valley METRO Light Rail</tspan></text>
      <g
         id="g3170">
        <g
           id="g55655"
           transform="translate(0,1.1218208e-5)">
          <text
             sodipodi:linespacing="125%"
             id="text3868"
             y="273.78668"
             x="65.234375"
             style="font-size:16px;font-style:normal;font-variant:normal;font-weight:500;font-stretch:normal;text-align:start;line-height:125%;letter-spacing:0px;word-spacing:0px;writing-mode:lr-tb;text-anchor:start;fill:#000000;fill-opacity:1;stroke:none;font-family:Cantarell;-inkscape-font-specification:Cantarell Medium"
             xml:space="preserve"><tspan
               id="tspan48518"
               y="273.78668"
               x="65.234375"
               sodipodi:role="line"
               style="font-weight:bold;-inkscape-font-specification:Cantarell Bold">Mill Ave and 3rd St</tspan><tspan
               id="tspan48547"
               y="293.90051"
               x="65.234375"
               sodipodi:role="line"
               style="font-weight:500;-inkscape-font-specification:Cantarell Medium">0.2 mi to Courtyard, 0.3 mi to Brickyard</tspan></text>
          <g
             transform="translate(-13.136971,-18.505231)"
             id="g37349">
            <path
               sodipodi:type="arc"
               style="fill:#db3279;fill-opacity:1;stroke:none"
               id="path19985-5"
               sodipodi:cx="262.5"
               sodipodi:cy="-316.25"
               sodipodi:rx="13.5"
               sodipodi:ry="13.75"
               d="m 276,-316.25 c 0,7.59392 -6.04416,13.75 -13.5,13.75 -7.45584,0 -13.5,-6.15608 -13.5,-13.75 0,-7.59392 6.04416,-13.75 13.5,-13.75 7.45584,0 13.5,6.15608 13.5,13.75 z"
               transform="matrix(0.92666667,0,0,0.90981818,-183.85303,574.29535)" />
            <text
               sodipodi:linespacing="125%"
               id="text19978-1"
               y="292.84073"
               x="59.467285"
               style="font-size:18px;font-style:normal;font-variant:normal;font-weight:bold;font-stretch:expanded;text-align:center;line-height:125%;letter-spacing:0px;word-spacing:0px;writing-mode:lr-tb;text-anchor:middle;fill:#ffffff;fill-opacity:1;stroke:none;font-family:Comfortaa;-inkscape-font-specification:Comfortaa Bold Expanded"
               xml:space="preserve"><tspan
                 style="font-size:18px;font-style:normal;font-variant:normal;font-weight:bold;font-stretch:expanded;text-align:center;line-height:125%;writing-mode:lr-tb;text-anchor:middle;font-family:Comfortaa;-inkscape-font-specification:Comfortaa Bold Expanded"
                 y="292.84073"
                 x="59.467285"
                 id="tspan19980-6"
                 sodipodi:role="line">A</tspan></text>
          </g>
        </g>
      </g>
      <g
         transform="translate(382.5,-54.542485)"
         id="g3161">
        <text
           sodipodi:linespacing="125%"
           id="text42976"
           y="328.32916"
           x="65.234375"
           style="font-size:16px;font-style:normal;font-variant:normal;font-weight:500;font-stretch:normal;text-align:start;line-height:125%;letter-spacing:0px;word-spacing:0px;writing-mode:lr-tb;text-anchor:start;fill:#000000;fill-opacity:1;stroke:none;font-family:Cantarell;-inkscape-font-specification:Cantarell Medium"
           xml:space="preserve"><tspan
             y="328.32916"
             x="65.234375"
             sodipodi:role="line"
             style="font-weight:bold;-inkscape-font-specification:Cantarell Bold"
             id="tspan42994">University Dr and Rural Rd</tspan><tspan
             y="348.44299"
             x="65.234375"
             sodipodi:role="line"
             style="font-weight:500;-inkscape-font-specification:Cantarell Medium"
             id="tspan42998">0.5 mi to Sheraton, 0.6 mi to Mem. Union</tspan></text>
        <g
           id="g43003"
           transform="translate(-382.5,54.542495)">
          <path
             sodipodi:type="arc"
             style="fill:#db3279;fill-opacity:1;stroke:none"
             id="path42982"
             sodipodi:cx="262.5"
             sodipodi:cy="-316.25"
             sodipodi:rx="13.5"
             sodipodi:ry="13.75"
             d="m 276,-316.25 c 0,7.59392 -6.04416,13.75 -13.5,13.75 -7.45584,0 -13.5,-6.15608 -13.5,-13.75 0,-7.59392 6.04416,-13.75 13.5,-13.75 7.45584,0 13.5,6.15608 13.5,13.75 z"
             transform="matrix(0.92666667,0,0,0.90981818,185.51,555.79012)" />
          <text
             sodipodi:linespacing="125%"
             id="text42984"
             y="274.37506"
             x="428.98413"
             style="font-size:18px;font-style:normal;font-variant:normal;font-weight:bold;font-stretch:expanded;text-align:center;line-height:125%;letter-spacing:0px;word-spacing:0px;writing-mode:lr-tb;text-anchor:middle;fill:#ffffff;fill-opacity:1;stroke:none;font-family:Comfortaa;-inkscape-font-specification:Comfortaa Bold Expanded"
             xml:space="preserve"><tspan
               style="font-size:18px;font-style:normal;font-variant:normal;font-weight:bold;font-stretch:expanded;text-align:center;line-height:125%;writing-mode:lr-tb;text-anchor:middle;font-family:Comfortaa;-inkscape-font-specification:Comfortaa Bold Expanded"
               y="274.37506"
               x="428.98413"
               id="tspan42986"
               sodipodi:role="line">B</tspan></text>
        </g>
      </g>
      <text
         xml:space="preserve"
         style="font-size:16px;font-style:normal;font-variant:normal;font-weight:500;font-stretch:normal;text-align:start;line-height:125%;letter-spacing:0px;word-spacing:0px;writing-mode:lr-tb;text-anchor:start;fill:#000000;fill-opacity:1;stroke:none;font-family:Cantarell;-inkscape-font-specification:Cantarell Medium"
         x="32.734375"
         y="332.35611"
         id="text48502"
         sodipodi:linespacing="125%"><tspan
           id="tspan55607"
           style="font-weight:500;-inkscape-font-specification:Cantarell Medium"
           sodipodi:role="line"
           x="32.734375"
           y="332.35611">A one-ride fare costs $1.75 USD and may be purchased at any light rail station with cash or a</tspan><tspan
           id="tspan55637"
           style="font-weight:500;-inkscape-font-specification:Cantarell Medium"
           sodipodi:role="line"
           x="32.734375"
           y="352.35611">credit card. Take the westbound train to 44th St and Washington St for a free airport shuttle.<tspan
   id="tspan48551"
   style="font-size:16px;font-style:normal;font-variant:normal;font-weight:normal;font-stretch:normal;text-align:start;line-height:125%;writing-mode:lr-tb;text-anchor:start;fill:#3c6eb4;fill-opacity:1;font-family:Liberation Mono;-inkscape-font-specification:Liberation Mono" /></tspan><tspan
           id="tspan3211"
           style="font-weight:500;-inkscape-font-specification:Cantarell Medium"
           sodipodi:role="line"
           x="32.734375"
           y="372.3317"><tspan
             id="tspan3213"
             style="font-size:16px;font-style:normal;font-variant:normal;font-weight:normal;font-stretch:normal;text-align:start;line-height:125%;writing-mode:lr-tb;text-anchor:start;fill:#3c6eb4;fill-opacity:1;font-family:Liberation Mono;-inkscape-font-specification:Liberation Mono">www.valleymetro.org</tspan></tspan></text>
    </g>
    <g
       id="g21993"
       transform="translate(0,-13.172004)">
      <text
         xml:space="preserve"
         style="font-size:28px;font-style:normal;font-variant:normal;font-weight:normal;font-stretch:normal;text-align:start;line-height:125%;letter-spacing:0px;word-spacing:0px;writing-mode:lr-tb;text-anchor:start;fill:#000000;fill-opacity:1;stroke:none;font-family:Comfortaa;-inkscape-font-specification:Comfortaa"
         x="33.75"
         y="406.63342"
         id="text49140"
         sodipodi:linespacing="125%"><tspan
           sodipodi:role="line"
           id="tspan49142"
           x="33.75"
           y="406.63342">Conference hotels</tspan></text>
      <g
         transform="translate(0,-160.41943)"
         id="g55778">
        <text
           sodipodi:linespacing="125%"
           id="text49144"
           y="601.3584"
           x="65.234375"
           style="font-size:16px;font-style:normal;font-variant:normal;font-weight:500;font-stretch:normal;text-align:start;line-height:125%;letter-spacing:0px;word-spacing:0px;writing-mode:lr-tb;text-anchor:start;fill:#000000;fill-opacity:1;stroke:none;font-family:Cantarell;-inkscape-font-specification:Cantarell Medium"
           xml:space="preserve"><tspan
             id="tspan49148"
             y="601.3584"
             x="65.234375"
             sodipodi:role="line"
             style="font-weight:bold;-inkscape-font-specification:Cantarell Bold">Courtyard Tempe Downtown</tspan><tspan
             y="621.47223"
             x="65.234375"
             sodipodi:role="line"
             style="font-size:16px;font-style:normal;font-variant:normal;font-weight:500;font-stretch:normal;text-align:start;line-height:125%;writing-mode:lr-tb;text-anchor:start;fill:#000000;fill-opacity:1;font-family:Cantarell;-inkscape-font-specification:Cantarell Medium"
             id="tspan49207">601 S Ash Ave</tspan><tspan
             y="641.47223"
             x="65.234375"
             sodipodi:role="line"
             style="font-size:16px;font-style:normal;font-variant:normal;font-weight:normal;font-stretch:normal;text-align:start;line-height:125%;writing-mode:lr-tb;text-anchor:start;fill:#3c6eb4;fill-opacity:1;font-family:Liberation Mono;-inkscape-font-specification:Liberation Mono"
             id="tspan49209"><tspan
   style="font-size:16px;font-style:normal;font-variant:normal;font-weight:500;font-stretch:normal;text-align:start;line-height:125%;writing-mode:lr-tb;text-anchor:start;fill:#000000;fill-opacity:1;font-family:Cantarell;-inkscape-font-specification:Cantarell Medium"
   id="tspan49342">(480) 966-2800 — </tspan>ur1.ca/2qlrd</tspan></text>
        <g
           transform="translate(-13.136971,309.06644)"
           id="g49150">
          <path
             sodipodi:type="arc"
             style="fill:#db3279;fill-opacity:1;stroke:none"
             id="path49152"
             sodipodi:cx="262.5"
             sodipodi:cy="-316.25"
             sodipodi:rx="13.5"
             sodipodi:ry="13.75"
             d="m 276,-316.25 c 0,7.59392 -6.04416,13.75 -13.5,13.75 -7.45584,0 -13.5,-6.15608 -13.5,-13.75 0,-7.59392 6.04416,-13.75 13.5,-13.75 7.45584,0 13.5,6.15608 13.5,13.75 z"
             transform="matrix(0.92666667,0,0,0.90981818,-183.85303,574.29535)" />
          <text
             sodipodi:linespacing="125%"
             id="text49154"
             y="292.84073"
             x="59.467285"
             style="font-size:18px;font-style:normal;font-variant:normal;font-weight:bold;font-stretch:expanded;text-align:center;line-height:125%;letter-spacing:0px;word-spacing:0px;writing-mode:lr-tb;text-anchor:middle;fill:#ffffff;fill-opacity:1;stroke:none;font-family:Comfortaa;-inkscape-font-specification:Comfortaa Bold Expanded"
             xml:space="preserve"><tspan
               style="font-size:18px;font-style:normal;font-variant:normal;font-weight:bold;font-stretch:expanded;text-align:center;line-height:125%;writing-mode:lr-tb;text-anchor:middle;font-family:Comfortaa;-inkscape-font-specification:Comfortaa Bold Expanded"
               y="292.84073"
               x="59.467285"
               id="tspan49156"
               sodipodi:role="line">C</tspan></text>
        </g>
      </g>
      <g
         transform="translate(382.5,-234.26354)"
         id="g55814">
        <text
           xml:space="preserve"
           style="font-size:16px;font-style:normal;font-variant:normal;font-weight:500;font-stretch:normal;text-align:start;line-height:125%;letter-spacing:0px;word-spacing:0px;writing-mode:lr-tb;text-anchor:start;fill:#000000;fill-opacity:1;stroke:none;font-family:Cantarell;-inkscape-font-specification:Cantarell Medium"
           x="65.234375"
           y="675.20251"
           id="text49158"
           sodipodi:linespacing="125%"><tspan
             id="tspan49162"
             style="font-weight:bold;-inkscape-font-specification:Cantarell Bold"
             sodipodi:role="line"
             x="65.234375"
             y="675.20251">Four Points Sheraton Tempe</tspan><tspan
             style="font-weight:500;-inkscape-font-specification:Cantarell Medium"
             sodipodi:role="line"
             x="65.234375"
             y="695.31635"
             id="tspan49213">1333 Rural Rd</tspan><tspan
             style="font-size:16px;font-style:normal;font-variant:normal;font-weight:normal;font-stretch:normal;text-align:start;line-height:125%;writing-mode:lr-tb;text-anchor:start;fill:#3c6eb4;fill-opacity:1;font-family:Liberation Mono;-inkscape-font-specification:Liberation Mono"
             sodipodi:role="line"
             x="65.234375"
             y="715.31635"
             id="tspan49215"><tspan
   id="tspan49356"
   style="font-weight:500;fill:#000000;font-family:Cantarell;-inkscape-font-specification:Cantarell Medium">(480) 968-3451 — </tspan>ur1.ca/2qls0</tspan></text>
        <g
           id="g49164"
           transform="translate(-382.5,401.41578)">
          <path
             transform="matrix(0.92666667,0,0,0.90981818,185.51,555.79012)"
             d="m 276,-316.25 c 0,7.59392 -6.04416,13.75 -13.5,13.75 -7.45584,0 -13.5,-6.15608 -13.5,-13.75 0,-7.59392 6.04416,-13.75 13.5,-13.75 7.45584,0 13.5,6.15608 13.5,13.75 z"
             sodipodi:ry="13.75"
             sodipodi:rx="13.5"
             sodipodi:cy="-316.25"
             sodipodi:cx="262.5"
             id="path49166"
             style="fill:#db3279;fill-opacity:1;stroke:none"
             sodipodi:type="arc" />
          <text
             xml:space="preserve"
             style="font-size:18px;font-style:normal;font-variant:normal;font-weight:bold;font-stretch:expanded;text-align:center;line-height:125%;letter-spacing:0px;word-spacing:0px;writing-mode:lr-tb;text-anchor:middle;fill:#ffffff;fill-opacity:1;stroke:none;font-family:Comfortaa;-inkscape-font-specification:Comfortaa Bold Expanded"
             x="428.98413"
             y="274.37506"
             id="text49168"
             sodipodi:linespacing="125%"><tspan
               sodipodi:role="line"
               id="tspan49170"
               x="428.98413"
               y="274.37506"
               style="font-size:18px;font-style:normal;font-variant:normal;font-weight:bold;font-stretch:expanded;text-align:center;line-height:125%;writing-mode:lr-tb;text-anchor:middle;font-family:Comfortaa;-inkscape-font-specification:Comfortaa Bold Expanded">D</tspan></text>
        </g>
      </g>
    </g>
    <text
       xml:space="preserve"
       style="font-size:14px;font-style:normal;font-variant:normal;font-weight:500;font-stretch:normal;text-align:start;line-height:125%;letter-spacing:0px;word-spacing:0px;writing-mode:lr-tb;text-anchor:start;fill:#000000;fill-opacity:1;stroke:none;font-family:Cantarell;-inkscape-font-specification:Cantarell Medium"
       x="31.767578"
       y="955.32709"
       id="text55859"
       sodipodi:linespacing="125%"><tspan
         sodipodi:role="line"
         id="tspan55861"
         x="31.767578"
         y="955.32709">Map data © OpenStreetMap contributors (<tspan
   style="font-size:14px;font-style:normal;font-variant:normal;font-weight:normal;font-stretch:normal;text-align:start;line-height:125%;writing-mode:lr-tb;text-anchor:start;fill:#3c6eb4;fill-opacity:1;font-family:Liberation Mono;-inkscape-font-specification:Liberation Mono"
   id="tspan55865">www.openstreetmap.org</tspan>).</tspan><tspan
         sodipodi:role="line"
         x="31.767578"
         y="974.12042"
         id="tspan55890">Licensed under the Creative Commons Attribution-ShareAlike 2.0 license (<tspan
   style="font-size:14px;font-style:normal;font-variant:normal;font-weight:normal;font-stretch:normal;text-align:start;line-height:125%;writing-mode:lr-tb;text-anchor:start;fill:#3c6eb4;fill-opacity:1;font-family:Liberation Mono;-inkscape-font-specification:Liberation Mono"
   id="tspan55892">ur1.ca/akxm</tspan>).</tspan><tspan
         sodipodi:role="line"
         x="31.767578"
         y="992.91376"
         id="tspan21869">Parking information based on ASU website and subject to change. Refer to posted signs and regulations.</tspan></text>
    <g
       id="g3266"
       transform="translate(0,-219.89174)">
      <text
         sodipodi:linespacing="125%"
         id="text12178"
         y="730.9024"
         x="33.75"
         style="font-size:28px;font-style:normal;font-variant:normal;font-weight:normal;font-stretch:normal;text-align:start;line-height:125%;letter-spacing:0px;word-spacing:0px;writing-mode:lr-tb;text-anchor:start;fill:#000000;fill-opacity:1;stroke:none;font-family:Comfortaa;-inkscape-font-specification:Comfortaa"
         xml:space="preserve"><tspan
           y="730.9024"
           x="33.75"
           id="tspan12180"
           sodipodi:role="line">On the ASU campus</tspan></text>
      <g
         transform="translate(-382.5,491.39392)"
         id="g3132">
        <text
           xml:space="preserve"
           style="font-size:16px;font-style:normal;font-variant:normal;font-weight:500;font-stretch:normal;text-align:start;line-height:125%;letter-spacing:0px;word-spacing:0px;writing-mode:lr-tb;text-anchor:start;fill:#000000;fill-opacity:1;stroke:none;font-family:Cantarell;-inkscape-font-specification:Cantarell Medium"
           x="447.73438"
           y="273.81403"
           id="text12184"
           sodipodi:linespacing="125%"><tspan
             style="font-weight:bold;-inkscape-font-specification:Cantarell Bold"
             sodipodi:role="line"
             x="447.73438"
             y="273.81403"
             id="tspan12186">Art Building (ART)</tspan><tspan
             id="tspan12188"
             style="font-size:16px;font-style:normal;font-variant:normal;font-weight:500;font-stretch:normal;text-align:start;line-height:125%;writing-mode:lr-tb;text-anchor:start;fill:#000000;fill-opacity:1;font-family:Cantarell;-inkscape-font-specification:Cantarell Medium"
             sodipodi:role="line"
             x="447.73438"
             y="293.92786">900 S Forest Mall — <tspan
   style="font-size:16px;font-style:normal;font-variant:normal;font-weight:normal;font-stretch:normal;text-align:start;line-height:125%;writing-mode:lr-tb;text-anchor:start;fill:#3c6eb4;fill-opacity:1;font-family:Liberation Mono;-inkscape-font-specification:Liberation Mono"
   id="tspan13184">ur1.ca/2r5yc</tspan></tspan><tspan
             id="tspan12190"
             style="font-size:16px;font-style:oblique;font-variant:normal;font-weight:500;font-stretch:normal;text-align:start;line-height:125%;writing-mode:lr-tb;text-anchor:start;fill:#000000;fill-opacity:1;font-family:Cantarell;-inkscape-font-specification:Cantarell Medium Oblique"
             sodipodi:role="line"
             x="447.73438"
             y="315.40594">Session pitches and voting, Saturday</tspan></text>
        <g
           id="g12395">
          <path
             transform="matrix(0.92666667,0,0,0.90981818,185.51,555.81742)"
             d="m 276,-316.25 c 0,7.59392 -6.04416,13.75 -13.5,13.75 -7.45584,0 -13.5,-6.15608 -13.5,-13.75 0,-7.59392 6.04416,-13.75 13.5,-13.75 7.45584,0 13.5,6.15608 13.5,13.75 z"
             sodipodi:ry="13.75"
             sodipodi:rx="13.5"
             sodipodi:cy="-316.25"
             sodipodi:cx="262.5"
             id="path12196"
             style="fill:#db3279;fill-opacity:1;stroke:none"
             sodipodi:type="arc" />
          <text
             xml:space="preserve"
             style="font-size:18px;font-style:normal;font-variant:normal;font-weight:bold;font-stretch:expanded;text-align:center;line-height:125%;letter-spacing:0px;word-spacing:0px;writing-mode:lr-tb;text-anchor:middle;fill:#ffffff;fill-opacity:1;stroke:none;font-family:Comfortaa;-inkscape-font-specification:Comfortaa Bold Expanded"
             x="428.95776"
             y="274.45511"
             id="text12198"
             sodipodi:linespacing="125%"><tspan
               sodipodi:role="line"
               id="tspan12200"
               x="428.95776"
               y="274.45511"
               style="font-size:18px;font-style:normal;font-variant:normal;font-weight:bold;font-stretch:expanded;text-align:center;line-height:125%;writing-mode:lr-tb;text-anchor:middle;font-family:Comfortaa;-inkscape-font-specification:Comfortaa Bold Expanded">E</tspan></text>
        </g>
      </g>
      <g
         transform="translate(-8.2999998e-7,417.54981)"
         id="g3121">
        <text
           sodipodi:linespacing="125%"
           id="text12204"
           y="347.65814"
           x="447.73438"
           style="font-size:16px;font-style:normal;font-variant:normal;font-weight:500;font-stretch:normal;text-align:start;line-height:125%;letter-spacing:0px;word-spacing:0px;writing-mode:lr-tb;text-anchor:start;fill:#000000;fill-opacity:1;stroke:none;font-family:Cantarell;-inkscape-font-specification:Cantarell Medium"
           xml:space="preserve"><tspan
             y="347.65814"
             x="447.73438"
             sodipodi:role="line"
             style="font-weight:bold;letter-spacing:-0.25px;-inkscape-font-specification:Cantarell Bold"
             id="tspan12206">Artisan Court at the Brickyard (BYAC)</tspan><tspan
             id="tspan12210"
             y="367.77197"
             x="447.73438"
             sodipodi:role="line"
             style="font-size:16px;font-style:normal;font-variant:normal;font-weight:500;font-stretch:normal;text-align:start;line-height:125%;writing-mode:lr-tb;text-anchor:start;fill:#000000;fill-opacity:1;font-family:Cantarell;-inkscape-font-specification:Cantarell Medium">30 E 7th St — <tspan
   style="font-size:16px;font-style:normal;font-variant:normal;font-weight:normal;font-stretch:normal;text-align:start;line-height:125%;writing-mode:lr-tb;text-anchor:start;fill:#3c6eb4;fill-opacity:1;font-family:Liberation Mono;-inkscape-font-specification:Liberation Mono"
   id="tspan13190">ur1.ca/2r5zu</tspan></tspan><tspan
             y="389.25006"
             x="447.73438"
             sodipodi:role="line"
             style="font-size:16px;font-style:oblique;font-variant:normal;font-weight:500;font-stretch:normal;text-align:start;line-height:125%;writing-mode:lr-tb;text-anchor:start;fill:#000000;fill-opacity:1;font-family:Cantarell;-inkscape-font-specification:Cantarell Medium Oblique"
             id="tspan13188">Sessions and hackfests, Sat. and Sun.</tspan></text>
        <g
           id="g12403">
          <path
             sodipodi:type="arc"
             style="fill:#db3279;fill-opacity:1;stroke:none"
             id="path12216"
             sodipodi:cx="262.5"
             sodipodi:cy="-316.25"
             sodipodi:rx="13.5"
             sodipodi:ry="13.75"
             d="m 276,-316.25 c 0,7.59392 -6.04416,13.75 -13.5,13.75 -7.45584,0 -13.5,-6.15608 -13.5,-13.75 0,-7.59392 6.04416,-13.75 13.5,-13.75 7.45584,0 13.5,6.15608 13.5,13.75 z"
             transform="matrix(0.92666667,0,0,0.90981818,185.51,629.66153)" />
          <text
             sodipodi:linespacing="125%"
             id="text12218"
             y="348.29919"
             x="428.64575"
             style="font-size:18px;font-style:normal;font-variant:normal;font-weight:bold;font-stretch:expanded;text-align:center;line-height:125%;letter-spacing:0px;word-spacing:0px;writing-mode:lr-tb;text-anchor:middle;fill:#ffffff;fill-opacity:1;stroke:none;font-family:Comfortaa;-inkscape-font-specification:Comfortaa Bold Expanded"
             xml:space="preserve"><tspan
               style="font-size:18px;font-style:normal;font-variant:normal;font-weight:bold;font-stretch:expanded;text-align:center;line-height:125%;writing-mode:lr-tb;text-anchor:middle;font-family:Comfortaa;-inkscape-font-specification:Comfortaa Bold Expanded"
               y="348.29919"
               x="428.64575"
               id="tspan12220"
               sodipodi:role="line">F</tspan></text>
        </g>
      </g>
      <g
         transform="translate(-382.5,417.53938)"
         id="g3110">
        <text
           xml:space="preserve"
           style="font-size:16px;font-style:normal;font-variant:normal;font-weight:500;font-stretch:normal;text-align:start;line-height:125%;letter-spacing:0px;word-spacing:0px;writing-mode:lr-tb;text-anchor:start;fill:#000000;fill-opacity:1;stroke:none;font-family:Cantarell;-inkscape-font-specification:Cantarell Medium"
           x="447.73438"
           y="421.50226"
           id="text12278"
           sodipodi:linespacing="125%"><tspan
             id="tspan12280"
             style="font-weight:bold;-inkscape-font-specification:Cantarell Bold"
             sodipodi:role="line"
             x="447.73438"
             y="421.50226">Memorial Union (MU)</tspan><tspan
             style="font-size:16px;font-style:normal;font-variant:normal;font-weight:500;font-stretch:normal;text-align:start;line-height:125%;writing-mode:lr-tb;text-anchor:start;fill:#000000;fill-opacity:1;font-family:Cantarell;-inkscape-font-specification:Cantarell Medium"
             sodipodi:role="line"
             x="447.73438"
             y="441.61609"
             id="tspan12284">301 E Orange Mall — <tspan
   style="font-size:16px;font-style:normal;font-variant:normal;font-weight:normal;font-stretch:normal;text-align:start;line-height:125%;writing-mode:lr-tb;text-anchor:start;fill:#3c6eb4;font-family:Liberation Mono;-inkscape-font-specification:Liberation Mono"
   id="tspan13196">ur1.ca/2r605</tspan></tspan><tspan
             style="font-size:16px;font-style:oblique;font-variant:normal;font-weight:500;font-stretch:normal;text-align:start;line-height:125%;writing-mode:lr-tb;text-anchor:start;fill:#000000;fill-opacity:1;font-family:Cantarell;-inkscape-font-specification:Cantarell Medium Oblique"
             sodipodi:role="line"
             x="447.73438"
             y="463.09418"
             id="tspan13194">FUDPub, Saturday; hackfests, Monday</tspan></text>
        <g
           id="g12411">
          <path
             transform="matrix(0.92666667,0,0,0.90981818,185.51,703.50564)"
             d="m 276,-316.25 c 0,7.59392 -6.04416,13.75 -13.5,13.75 -7.45584,0 -13.5,-6.15608 -13.5,-13.75 0,-7.59392 6.04416,-13.75 13.5,-13.75 7.45584,0 13.5,6.15608 13.5,13.75 z"
             sodipodi:ry="13.75"
             sodipodi:rx="13.5"
             sodipodi:cy="-316.25"
             sodipodi:cx="262.5"
             id="path12290"
             style="fill:#db3279;fill-opacity:1;stroke:none"
             sodipodi:type="arc" />
          <text
             xml:space="preserve"
             style="font-size:18px;font-style:normal;font-variant:normal;font-weight:bold;font-stretch:expanded;text-align:center;line-height:125%;letter-spacing:0px;word-spacing:0px;writing-mode:lr-tb;text-anchor:middle;fill:#ffffff;fill-opacity:1;stroke:none;font-family:Comfortaa;-inkscape-font-specification:Comfortaa Bold Expanded"
             x="428.9314"
             y="422.08618"
             id="text12292"
             sodipodi:linespacing="125%"><tspan
               sodipodi:role="line"
               id="tspan12294"
               x="428.9314"
               y="422.08618"
               style="font-size:18px;font-style:normal;font-variant:normal;font-weight:bold;font-stretch:expanded;text-align:center;line-height:125%;writing-mode:lr-tb;text-anchor:middle;font-family:Comfortaa;-inkscape-font-specification:Comfortaa Bold Expanded">G</tspan></text>
        </g>
      </g>
    </g>
    <g
       id="g21919"
       transform="translate(0,-26.079995)">
      <text
         xml:space="preserve"
         style="font-size:28px;font-style:normal;font-variant:normal;font-weight:normal;font-stretch:normal;text-align:start;line-height:125%;letter-spacing:0px;word-spacing:0px;writing-mode:lr-tb;text-anchor:start;fill:#000000;fill-opacity:1;stroke:none;font-family:Comfortaa;-inkscape-font-specification:Comfortaa"
         x="33.75"
         y="730.79346"
         id="text3302"
         sodipodi:linespacing="125%"><tspan
           sodipodi:role="line"
           id="tspan3304"
           x="33.75"
           y="730.79346">Parking near the Memorial Union</tspan></text>
      <g
         transform="translate(0,-25.991184)"
         id="g21273">
        <g
           transform="translate(-351.54205,-82.279311)"
           style="display:inline"
           id="g20185">
          <path
             transform="matrix(0.695,0,0,0.68236363,218.49205,1083.4404)"
             d="m 276,-316.25 c 0,7.59392 -6.04416,13.75 -13.5,13.75 -7.45584,0 -13.5,-6.15608 -13.5,-13.75 0,-7.59392 6.04416,-13.75 13.5,-13.75 7.45584,0 13.5,6.15608 13.5,13.75 z"
             sodipodi:ry="13.75"
             sodipodi:rx="13.5"
             sodipodi:cy="-316.25"
             sodipodi:cx="262.5"
             id="path20149-3"
             style="fill:#3c6eb4;fill-opacity:1;stroke:none"
             sodipodi:type="arc" />
          <text
             xml:space="preserve"
             style="font-size:13.5px;font-style:normal;font-variant:normal;font-weight:bold;font-stretch:expanded;text-align:center;line-height:125%;letter-spacing:0px;word-spacing:0px;writing-mode:lr-tb;text-anchor:middle;fill:#ffffff;fill-opacity:1;stroke:none;font-family:Comfortaa;-inkscape-font-specification:Comfortaa Bold Expanded"
             x="401.08774"
             y="872.38239"
             id="text20151-7"
             sodipodi:linespacing="125%"><tspan
               sodipodi:role="line"
               id="tspan20153-1"
               x="401.08774"
               y="872.38239"
               style="font-size:13.5px;font-style:normal;font-variant:normal;font-weight:bold;font-stretch:expanded;text-align:center;line-height:125%;writing-mode:lr-tb;text-anchor:middle;font-family:Comfortaa;-inkscape-font-specification:Comfortaa Bold Expanded">AP</tspan></text>
        </g>
        <text
           sodipodi:linespacing="125%"
           id="text3308"
           y="791.09021"
           x="65.234375"
           style="font-size:16px;font-style:normal;font-variant:normal;font-weight:500;font-stretch:normal;text-align:start;line-height:125%;letter-spacing:0px;word-spacing:0px;writing-mode:lr-tb;text-anchor:start;fill:#000000;fill-opacity:1;stroke:none;font-family:Cantarell;-inkscape-font-specification:Cantarell Medium"
           xml:space="preserve"><tspan
             y="791.09021"
             x="65.234375"
             sodipodi:role="line"
             style="font-size:16px;font-style:normal;font-variant:normal;font-weight:bold;font-stretch:normal;text-align:start;line-height:125%;writing-mode:lr-tb;text-anchor:start;fill:#000000;fill-opacity:1;font-family:Cantarell;-inkscape-font-specification:Cantarell Bold"
             id="tspan3312">Apache Blvd Parking Structure</tspan><tspan
             y="811.20404"
             x="65.234375"
             sodipodi:role="line"
             style="font-size:16px;font-style:normal;font-variant:normal;font-weight:500;font-stretch:normal;text-align:start;line-height:125%;writing-mode:lr-tb;text-anchor:start;fill:#000000;fill-opacity:1;font-family:Cantarell;-inkscape-font-specification:Cantarell Medium"
             id="tspan3316">Pay M–F, 6a–10:30p. $2/hr, max fee $8</tspan><tspan
             y="831.20404"
             x="65.234375"
             sodipodi:role="line"
             style="font-size:16px;font-style:normal;font-variant:normal;font-weight:500;font-stretch:normal;text-align:start;line-height:125%;letter-spacing:-0.40000001px;writing-mode:lr-tb;text-anchor:start;fill:#000000;fill-opacity:1;font-family:Cantarell;-inkscape-font-specification:Cantarell Medium"
             id="tspan21252">Cash, credit accepted. No overnight parking</tspan></text>
      </g>
      <g
         transform="translate(0,-29.122859)"
         id="g21330">
        <g
           id="g21325">
          <path
             sodipodi:type="arc"
             style="fill:#3c6eb4;fill-opacity:1;stroke:none"
             id="path21298"
             sodipodi:cx="262.5"
             sodipodi:cy="-316.25"
             sodipodi:rx="13.5"
             sodipodi:ry="13.75"
             d="m 276,-316.25 c 0,7.59392 -6.04416,13.75 -13.5,13.75 -7.45584,0 -13.5,-6.15608 -13.5,-13.75 0,-7.59392 6.04416,-13.75 13.5,-13.75 7.45584,0 13.5,6.15608 13.5,13.75 z"
             transform="matrix(0.695,0,0,0.68236363,-133.05,1074.9954)" />
          <text
             sodipodi:linespacing="125%"
             id="text21300"
             y="863.93408"
             x="49.265553"
             style="font-size:13.5px;font-style:normal;font-variant:normal;font-weight:bold;font-stretch:expanded;text-align:center;line-height:125%;letter-spacing:0px;word-spacing:0px;writing-mode:lr-tb;text-anchor:middle;fill:#ffffff;fill-opacity:1;stroke:none;font-family:Comfortaa;-inkscape-font-specification:Comfortaa Bold Expanded"
             xml:space="preserve"><tspan
               style="font-size:13.5px;font-style:normal;font-variant:normal;font-weight:bold;font-stretch:expanded;text-align:center;line-height:125%;writing-mode:lr-tb;text-anchor:middle;font-family:Comfortaa;-inkscape-font-specification:Comfortaa Bold Expanded"
               y="863.93408"
               x="49.265553"
               id="tspan21302"
               sodipodi:role="line">17</tspan></text>
        </g>
        <text
           xml:space="preserve"
           style="font-size:16px;font-style:normal;font-variant:normal;font-weight:500;font-stretch:normal;text-align:start;line-height:125%;letter-spacing:0px;word-spacing:0px;writing-mode:lr-tb;text-anchor:start;fill:#000000;fill-opacity:1;stroke:none;font-family:Cantarell;-inkscape-font-specification:Cantarell Medium"
           x="65.234375"
           y="864.9245"
           id="text21304"
           sodipodi:linespacing="125%"><tspan
             id="tspan21306"
             style="font-size:16px;font-style:normal;font-variant:normal;font-weight:bold;font-stretch:normal;text-align:start;line-height:125%;letter-spacing:0px;writing-mode:lr-tb;text-anchor:start;fill:#000000;fill-opacity:1;font-family:Cantarell;-inkscape-font-specification:Cantarell Bold"
             sodipodi:role="line"
             x="65.234375"
             y="864.9245">Lot 17 (one-day pass parking)</tspan><tspan
             id="tspan21373"
             style="font-size:16px;font-style:normal;font-variant:normal;font-weight:500;font-stretch:normal;text-align:start;line-height:125%;letter-spacing:0px;writing-mode:lr-tb;text-anchor:start;fill:#000000;fill-opacity:1;font-family:Cantarell;-inkscape-font-specification:Cantarell Medium"
             sodipodi:role="line"
             x="65.234375"
             y="885.03833">Pass bought online (<tspan
   id="tspan21375"
   style="font-size:16px;font-style:normal;font-variant:normal;font-weight:normal;font-stretch:normal;text-align:start;line-height:125%;letter-spacing:0px;writing-mode:lr-tb;text-anchor:start;fill:#3c6eb4;font-family:Liberation Mono;-inkscape-font-specification:Liberation Mono">ur1.ca/2snjh</tspan>) and</tspan><tspan
             id="tspan21795"
             style="font-size:16px;font-style:normal;font-variant:normal;font-weight:500;font-stretch:normal;text-align:start;line-height:125%;letter-spacing:-0.1px;writing-mode:lr-tb;text-anchor:start;fill:#000000;fill-opacity:1;font-family:Cantarell;-inkscape-font-specification:Cantarell Medium"
             sodipodi:role="line"
             x="65.234375"
             y="906.51642">printed by you for that day. No rental cars</tspan></text>
      </g>
      <g
         transform="translate(382.455,-25.991184)"
         id="g21340">
        <g
           id="g21342"
           style="display:inline"
           transform="translate(-351.54205,-82.279311)">
          <path
             sodipodi:type="arc"
             style="fill:#3c6eb4;fill-opacity:1;stroke:none"
             id="path21344"
             sodipodi:cx="262.5"
             sodipodi:cy="-316.25"
             sodipodi:rx="13.5"
             sodipodi:ry="13.75"
             d="m 276,-316.25 c 0,7.59392 -6.04416,13.75 -13.5,13.75 -7.45584,0 -13.5,-6.15608 -13.5,-13.75 0,-7.59392 6.04416,-13.75 13.5,-13.75 7.45584,0 13.5,6.15608 13.5,13.75 z"
             transform="matrix(0.695,0,0,0.68236363,218.49205,1083.4404)" />
          <text
             sodipodi:linespacing="125%"
             id="text21346"
             y="872.37909"
             x="400.89328"
             style="font-size:13.5px;font-style:normal;font-variant:normal;font-weight:bold;font-stretch:expanded;text-align:center;line-height:125%;letter-spacing:0px;word-spacing:0px;writing-mode:lr-tb;text-anchor:middle;fill:#ffffff;fill-opacity:1;stroke:none;font-family:Comfortaa;-inkscape-font-specification:Comfortaa Bold Expanded"
             xml:space="preserve"><tspan
               style="font-size:13.5px;font-style:normal;font-variant:normal;font-weight:bold;font-stretch:expanded;text-align:center;line-height:125%;writing-mode:lr-tb;text-anchor:middle;font-family:Comfortaa;-inkscape-font-specification:Comfortaa Bold Expanded"
               y="872.37909"
               x="400.89328"
               id="tspan21348"
               sodipodi:role="line">13</tspan></text>
        </g>
        <text
           xml:space="preserve"
           style="font-size:16px;font-style:normal;font-variant:normal;font-weight:500;font-stretch:normal;text-align:start;line-height:125%;letter-spacing:0px;word-spacing:0px;writing-mode:lr-tb;text-anchor:start;fill:#000000;fill-opacity:1;stroke:none;font-family:Cantarell;-inkscape-font-specification:Cantarell Medium"
           x="65.234375"
           y="791.09021"
           id="text21350"
           sodipodi:linespacing="125%"><tspan
             id="tspan21356"
             style="font-size:16px;font-style:normal;font-variant:normal;font-weight:bold;font-stretch:normal;text-align:start;line-height:125%;writing-mode:lr-tb;text-anchor:start;fill:#000000;fill-opacity:1;font-family:Cantarell;-inkscape-font-specification:Cantarell Bold"
             sodipodi:role="line"
             x="65.234375"
             y="791.09021">Lot 13 (metered)</tspan><tspan
             id="tspan21363"
             style="font-size:16px;font-style:normal;font-variant:normal;font-weight:500;font-stretch:normal;text-align:start;line-height:125%;writing-mode:lr-tb;text-anchor:start;fill:#000000;fill-opacity:1;font-family:Cantarell;-inkscape-font-specification:Cantarell Medium"
             sodipodi:role="line"
             x="65.234375"
             y="811.20404">Pay M–Sa, 7a–10p. $1.50/hr, limits vary</tspan><tspan
             id="tspan21365"
             style="font-size:16px;font-style:normal;font-variant:normal;font-weight:500;font-stretch:normal;text-align:start;line-height:125%;writing-mode:lr-tb;text-anchor:start;fill:#000000;fill-opacity:1;font-family:Cantarell;-inkscape-font-specification:Cantarell Medium"
             sodipodi:role="line"
             x="65.234375"
             y="831.20404">Nickels, dimes, quarters accepted</tspan></text>
      </g>
      <g
         id="g21771"
         transform="translate(382.455,44.711452)">
        <g
           transform="translate(-351.54205,-82.279311)"
           style="display:inline"
           id="g21773">
          <path
             transform="matrix(0.695,0,0,0.68236363,218.49205,1083.4404)"
             d="m 276,-316.25 c 0,7.59392 -6.04416,13.75 -13.5,13.75 -7.45584,0 -13.5,-6.15608 -13.5,-13.75 0,-7.59392 6.04416,-13.75 13.5,-13.75 7.45584,0 13.5,6.15608 13.5,13.75 z"
             sodipodi:ry="13.75"
             sodipodi:rx="13.5"
             sodipodi:cy="-316.25"
             sodipodi:cx="262.5"
             id="path21775"
             style="fill:#3c6eb4;fill-opacity:1;stroke:none"
             sodipodi:type="arc" />
          <text
             xml:space="preserve"
             style="font-size:13.5px;font-style:normal;font-variant:normal;font-weight:bold;font-stretch:expanded;text-align:center;line-height:125%;letter-spacing:0px;word-spacing:0px;writing-mode:lr-tb;text-anchor:middle;fill:#ffffff;fill-opacity:1;stroke:none;font-family:Comfortaa;-inkscape-font-specification:Comfortaa Bold Expanded"
             x="400.97568"
             y="872.37909"
             id="text21777"
             sodipodi:linespacing="125%"><tspan
               sodipodi:role="line"
               id="tspan21779"
               x="400.97568"
               y="872.37909"
               style="font-size:13.5px;font-style:normal;font-variant:normal;font-weight:bold;font-stretch:expanded;text-align:center;line-height:125%;writing-mode:lr-tb;text-anchor:middle;font-family:Comfortaa;-inkscape-font-specification:Comfortaa Bold Expanded">19</tspan></text>
        </g>
        <text
           sodipodi:linespacing="125%"
           id="text21781"
           y="791.09021"
           x="65.234375"
           style="font-size:16px;font-style:normal;font-variant:normal;font-weight:500;font-stretch:normal;text-align:start;line-height:125%;letter-spacing:0px;word-spacing:0px;writing-mode:lr-tb;text-anchor:start;fill:#000000;fill-opacity:1;stroke:none;font-family:Cantarell;-inkscape-font-specification:Cantarell Medium"
           xml:space="preserve"><tspan
             y="791.09021"
             x="65.234375"
             sodipodi:role="line"
             style="font-size:16px;font-style:normal;font-variant:normal;font-weight:bold;font-stretch:normal;text-align:start;line-height:125%;writing-mode:lr-tb;text-anchor:start;fill:#000000;fill-opacity:1;font-family:Cantarell;-inkscape-font-specification:Cantarell Bold"
             id="tspan21783">Lot 19 (pay machine)</tspan><tspan
             y="811.20404"
             x="65.234375"
             sodipodi:role="line"
             style="font-size:16px;font-style:normal;font-variant:normal;font-weight:500;font-stretch:normal;text-align:start;line-height:125%;writing-mode:lr-tb;text-anchor:start;fill:#000000;fill-opacity:1;font-family:Cantarell;-inkscape-font-specification:Cantarell Medium"
             id="tspan21785">Pay M–Sa, 7a–10p. $2/hr, max 12 hours</tspan><tspan
             y="831.20404"
             x="65.234375"
             sodipodi:role="line"
             style="font-size:16px;font-style:normal;font-variant:normal;font-weight:500;font-stretch:normal;text-align:start;line-height:125%;writing-mode:lr-tb;text-anchor:start;fill:#000000;fill-opacity:1;font-family:Cantarell;-inkscape-font-specification:Cantarell Medium"
             id="tspan21787">No overnight parking</tspan></text>
      </g>
      <g
         transform="translate(0,115.30952)"
         id="g21797">
        <g
           id="g21799"
           style="display:inline"
           transform="translate(-351.54205,-82.279311)">
          <path
             sodipodi:type="arc"
             style="fill:#3c6eb4;fill-opacity:1;stroke:none"
             id="path21801"
             sodipodi:cx="262.5"
             sodipodi:cy="-316.25"
             sodipodi:rx="13.5"
             sodipodi:ry="13.75"
             d="m 276,-316.25 c 0,7.59392 -6.04416,13.75 -13.5,13.75 -7.45584,0 -13.5,-6.15608 -13.5,-13.75 0,-7.59392 6.04416,-13.75 13.5,-13.75 7.45584,0 13.5,6.15608 13.5,13.75 z"
             transform="matrix(0.695,0,0,0.68236363,218.49205,1083.4404)" />
          <text
             sodipodi:linespacing="125%"
             id="text21803"
             y="872.37579"
             x="400.93942"
             style="font-size:13.5px;font-style:normal;font-variant:normal;font-weight:bold;font-stretch:expanded;text-align:center;line-height:125%;letter-spacing:0px;word-spacing:0px;writing-mode:lr-tb;text-anchor:middle;fill:#ffffff;fill-opacity:1;stroke:none;font-family:Comfortaa;-inkscape-font-specification:Comfortaa Bold Expanded"
             xml:space="preserve"><tspan
               style="font-size:13.5px;font-style:normal;font-variant:normal;font-weight:bold;font-stretch:expanded;text-align:center;line-height:125%;writing-mode:lr-tb;text-anchor:middle;font-family:Comfortaa;-inkscape-font-specification:Comfortaa Bold Expanded"
               y="872.37579"
               x="400.93942"
               id="tspan21805"
               sodipodi:role="line">27</tspan></text>
        </g>
        <text
           xml:space="preserve"
           style="font-size:16px;font-style:normal;font-variant:normal;font-weight:500;font-stretch:normal;text-align:start;line-height:125%;letter-spacing:0px;word-spacing:0px;writing-mode:lr-tb;text-anchor:start;fill:#000000;fill-opacity:1;stroke:none;font-family:Cantarell;-inkscape-font-specification:Cantarell Medium"
           x="65.234375"
           y="791.09021"
           id="text21807"
           sodipodi:linespacing="125%"><tspan
             id="tspan21809"
             style="font-size:16px;font-style:normal;font-variant:normal;font-weight:bold;font-stretch:normal;text-align:start;line-height:125%;letter-spacing:0px;writing-mode:lr-tb;text-anchor:start;fill:#000000;fill-opacity:1;font-family:Cantarell;-inkscape-font-specification:Cantarell Bold"
             sodipodi:role="line"
             x="65.234375"
             y="791.09021">Lot 27 (metered)</tspan><tspan
             id="tspan21813"
             style="font-size:16px;font-style:normal;font-variant:normal;font-weight:500;font-stretch:normal;text-align:start;line-height:125%;letter-spacing:0px;writing-mode:lr-tb;text-anchor:start;fill:#000000;fill-opacity:1;font-family:Cantarell;-inkscape-font-specification:Cantarell Medium"
             sodipodi:role="line"
             x="65.234375"
             y="811.20404">Pay M–Sa, 7a–10p. $1.50/hr, limits vary</tspan><tspan
             id="tspan21817"
             style="font-size:16px;font-style:normal;font-variant:normal;font-weight:500;font-stretch:normal;text-align:start;line-height:125%;letter-spacing:0px;writing-mode:lr-tb;text-anchor:start;fill:#000000;fill-opacity:1;font-family:Cantarell;-inkscape-font-specification:Cantarell Medium"
             sodipodi:role="line"
             x="65.234375"
             y="831.20404">Nickels, dimes, quarters accepted</tspan></text>
      </g>
    </g>
    <g
       id="g4266">
      <g
         id="g3626"
         style="display:inline"
         transform="translate(5.21875e-5,0)">
        <g
           id="g3569"
           transform="translate(-938.42676,4.8828133e-7)">
          <rect
             y="72.361992"
             x="938.42676"
             height="106.42202"
             width="787.5"
             id="rect3876-7"
             style="fill:url(#linearGradient3470);fill-opacity:1;stroke:none" />
          <g
             transform="matrix(-1,0,0,-1,2676.1793,252.85932)"
             id="g3502">
            <g
               id="g10149-7"
               transform="matrix(0.72189439,0.34020621,-0.34020621,0.72189439,-105.05615,-592.97309)"
               inkscape:export-filename="/home/duffy/Resources/FedoraLogo.tar.gz_FILES/fudcon-logo-template.png"
               inkscape:export-xdpi="90"
               inkscape:export-ydpi="90"
               style="opacity:0.15695065;fill:#ffffff;fill-opacity:1">
              <path
                 inkscape:connector-curvature="0"
                 style="fill:#ffffff;fill-opacity:1;stroke:none"
                 d="m 1712.0577,188.6514 c -7.1795,-0.005 -14.3886,2.72004 -19.8757,8.18802 l -17.1685,17.16841 c -1.5485,1.54851 -1.5511,4.06164 0,5.61274 l 17.0364,17.03637 c 10.968,10.96799 28.9194,10.9693 39.8836,-1e-5 10.9693,-10.9693 10.902,-28.84951 -0.066,-39.81751 -5.4771,-5.47696 -12.6302,-8.18289 -19.8098,-8.18802 z"
                 id="path10151-8" />
              <path
                 inkscape:connector-curvature="0"
                 id="path10153-6"
                 d="m 1622.6216,288.38298 c -0.01,-10.22385 3.8733,-20.4896 11.6598,-28.30352 l 24.4483,-24.44822 c 2.2051,-2.20513 5.7839,-2.20876 7.9926,-3e-5 l 24.2603,24.26018 c 15.6187,15.61874 15.6205,41.18191 0,56.79511 -15.6206,15.62055 -41.0824,15.52469 -56.7012,-0.094 -7.7992,-7.79931 -11.6526,-17.98562 -11.6598,-28.20949 z"
                 style="fill:#ffffff;fill-opacity:1;stroke:none" />
              <path
                 inkscape:connector-curvature="0"
                 style="fill:#ffffff;fill-opacity:1;stroke:none"
                 d="m 1613.2612,244.88341 c 7.1795,0.005 14.3885,-2.72005 19.8757,-8.18802 l 17.1685,-17.16841 c 1.5485,-1.54851 1.5509,-4.06165 0,-5.61274 l -17.0364,-17.03637 c -10.968,-10.96799 -28.9194,-10.9693 -39.8836,1e-5 -10.9693,10.9693 -10.902,28.84951 0.066,39.81751 5.477,5.47696 12.6302,8.18288 19.8098,8.18802 z"
                 id="path10155-8" />
              <path
                 inkscape:connector-curvature="0"
                 id="path10157-8"
                 d="m 1702.6973,147.3905 c 0.01,10.22385 -3.8733,20.4896 -11.6599,28.30352 l -24.4482,24.44822 c -2.2051,2.20513 -5.7839,2.20876 -7.9926,3e-5 l -24.2603,-24.26018 c -15.6187,-15.61874 -15.6205,-41.18191 0,-56.79511 15.6206,-15.62055 41.0824,-15.52469 56.7011,0.094 7.7993,7.79931 11.6527,17.98562 11.6599,28.20949 z"
                 style="fill:#ffffff;fill-opacity:1;stroke:none" />
            </g>
            <g
               id="g10149-7-7"
               transform="matrix(-0.17009374,0.47039044,-0.47039044,-0.17009374,1496.7563,-605.71298)"
               inkscape:export-filename="/home/duffy/Resources/FedoraLogo.tar.gz_FILES/fudcon-logo-template.png"
               inkscape:export-xdpi="90"
               inkscape:export-ydpi="90"
               style="opacity:0.12107622;fill:#ffffff;fill-opacity:1">
              <path
                 inkscape:connector-curvature="0"
                 style="fill:#ffffff;fill-opacity:1;stroke:none"
                 d="m 1712.0577,188.6514 c -7.1795,-0.005 -14.3886,2.72004 -19.8757,8.18802 l -17.1685,17.16841 c -1.5485,1.54851 -1.5511,4.06164 0,5.61274 l 17.0364,17.03637 c 10.968,10.96799 28.9194,10.9693 39.8836,-1e-5 10.9693,-10.9693 10.902,-28.84951 -0.066,-39.81751 -5.4771,-5.47696 -12.6302,-8.18289 -19.8098,-8.18802 z"
                 id="path10151-8-7" />
              <path
                 inkscape:connector-curvature="0"
                 id="path10153-6-1"
                 d="m 1622.6216,288.38298 c -0.01,-10.22385 3.8733,-20.4896 11.6598,-28.30352 l 24.4483,-24.44822 c 2.2051,-2.20513 5.7839,-2.20876 7.9926,-3e-5 l 24.2603,24.26018 c 15.6187,15.61874 15.6205,41.18191 0,56.79511 -15.6206,15.62055 -41.0824,15.52469 -56.7012,-0.094 -7.7992,-7.79931 -11.6526,-17.98562 -11.6598,-28.20949 z"
                 style="fill:#ffffff;fill-opacity:1;stroke:none" />
              <path
                 inkscape:connector-curvature="0"
                 style="fill:#ffffff;fill-opacity:1;stroke:none"
                 d="m 1613.2612,244.88341 c 7.1795,0.005 14.3885,-2.72005 19.8757,-8.18802 l 17.1685,-17.16841 c 1.5485,-1.54851 1.5509,-4.06165 0,-5.61274 l -17.0364,-17.03637 c -10.968,-10.96799 -28.9194,-10.9693 -39.8836,1e-5 -10.9693,10.9693 -10.902,28.84951 0.066,39.81751 5.477,5.47696 12.6302,8.18288 19.8098,8.18802 z"
                 id="path10155-8-1" />
              <path
                 inkscape:connector-curvature="0"
                 id="path10157-8-5"
                 d="m 1702.6973,147.3905 c 0.01,10.22385 -3.8733,20.4896 -11.6599,28.30352 l -24.4482,24.44822 c -2.2051,2.20513 -5.7839,2.20876 -7.9926,3e-5 l -24.2603,-24.26018 c -15.6187,-15.61874 -15.6205,-41.18191 0,-56.79511 15.6206,-15.62055 41.0824,-15.52469 56.7011,0.094 7.7993,7.79931 11.6527,17.98562 11.6599,28.20949 z"
                 style="fill:#ffffff;fill-opacity:1;stroke:none" />
            </g>
            <g
               id="g10149-7-7-9"
               transform="matrix(0.18557564,0.22022249,-0.22022249,0.18557564,916.43792,-263.70651)"
               inkscape:export-filename="/home/duffy/Resources/FedoraLogo.tar.gz_FILES/fudcon-logo-template.png"
               inkscape:export-xdpi="90"
               inkscape:export-ydpi="90"
               style="opacity:0.103139;fill:#ffffff;fill-opacity:1">
              <path
                 inkscape:connector-curvature="0"
                 style="fill:#ffffff;fill-opacity:1;stroke:none"
                 d="m 1712.0577,188.6514 c -7.1795,-0.005 -14.3886,2.72004 -19.8757,8.18802 l -17.1685,17.16841 c -1.5485,1.54851 -1.5511,4.06164 0,5.61274 l 17.0364,17.03637 c 10.968,10.96799 28.9194,10.9693 39.8836,-1e-5 10.9693,-10.9693 10.902,-28.84951 -0.066,-39.81751 -5.4771,-5.47696 -12.6302,-8.18289 -19.8098,-8.18802 z"
                 id="path10151-8-7-7" />
              <path
                 inkscape:connector-curvature="0"
                 id="path10153-6-1-7"
                 d="m 1622.6216,288.38298 c -0.01,-10.22385 3.8733,-20.4896 11.6598,-28.30352 l 24.4483,-24.44822 c 2.2051,-2.20513 5.7839,-2.20876 7.9926,-3e-5 l 24.2603,24.26018 c 15.6187,15.61874 15.6205,41.18191 0,56.79511 -15.6206,15.62055 -41.0824,15.52469 -56.7012,-0.094 -7.7992,-7.79931 -11.6526,-17.98562 -11.6598,-28.20949 z"
                 style="fill:#ffffff;fill-opacity:1;stroke:none" />
              <path
                 inkscape:connector-curvature="0"
                 style="fill:#ffffff;fill-opacity:1;stroke:none"
                 d="m 1613.2612,244.88341 c 7.1795,0.005 14.3885,-2.72005 19.8757,-8.18802 l 17.1685,-17.16841 c 1.5485,-1.54851 1.5509,-4.06165 0,-5.61274 l -17.0364,-17.03637 c -10.968,-10.96799 -28.9194,-10.9693 -39.8836,1e-5 -10.9693,10.9693 -10.902,28.84951 0.066,39.81751 5.477,5.47696 12.6302,8.18288 19.8098,8.18802 z"
                 id="path10155-8-1-6" />
              <path
                 inkscape:connector-curvature="0"
                 id="path10157-8-5-7"
                 d="m 1702.6973,147.3905 c 0.01,10.22385 -3.8733,20.4896 -11.6599,28.30352 l -24.4482,24.44822 c -2.2051,2.20513 -5.7839,2.20876 -7.9926,3e-5 l -24.2603,-24.26018 c -15.6187,-15.61874 -15.6205,-41.18191 0,-56.79511 15.6206,-15.62055 41.0824,-15.52469 56.7011,0.094 7.7993,7.79931 11.6527,17.98562 11.6599,28.20949 z"
                 style="fill:#ffffff;fill-opacity:1;stroke:none" />
            </g>
            <g
               id="g10149-7-7-9-3"
               transform="matrix(-0.0809773,0.22394092,-0.22394092,-0.0809773,1405.1724,-213.56263)"
               inkscape:export-filename="/home/duffy/Resources/FedoraLogo.tar.gz_FILES/fudcon-logo-template.png"
               inkscape:export-xdpi="90"
               inkscape:export-ydpi="90"
               style="opacity:0.07623321;fill:#ffffff;fill-opacity:1">
              <path
                 inkscape:connector-curvature="0"
                 style="fill:#ffffff;fill-opacity:1;stroke:none"
                 d="m 1712.0577,188.6514 c -7.1795,-0.005 -14.3886,2.72004 -19.8757,8.18802 l -17.1685,17.16841 c -1.5485,1.54851 -1.5511,4.06164 0,5.61274 l 17.0364,17.03637 c 10.968,10.96799 28.9194,10.9693 39.8836,-1e-5 10.9693,-10.9693 10.902,-28.84951 -0.066,-39.81751 -5.4771,-5.47696 -12.6302,-8.18289 -19.8098,-8.18802 z"
                 id="path10151-8-7-7-1" />
              <path
                 inkscape:connector-curvature="0"
                 id="path10153-6-1-7-7"
                 d="m 1622.6216,288.38298 c -0.01,-10.22385 3.8733,-20.4896 11.6598,-28.30352 l 24.4483,-24.44822 c 2.2051,-2.20513 5.7839,-2.20876 7.9926,-3e-5 l 24.2603,24.26018 c 15.6187,15.61874 15.6205,41.18191 0,56.79511 -15.6206,15.62055 -41.0824,15.52469 -56.7012,-0.094 -7.7992,-7.79931 -11.6526,-17.98562 -11.6598,-28.20949 z"
                 style="fill:#ffffff;fill-opacity:1;stroke:none" />
              <path
                 inkscape:connector-curvature="0"
                 style="fill:#ffffff;fill-opacity:1;stroke:none"
                 d="m 1613.2612,244.88341 c 7.1795,0.005 14.3885,-2.72005 19.8757,-8.18802 l 17.1685,-17.16841 c 1.5485,-1.54851 1.5509,-4.06165 0,-5.61274 l -17.0364,-17.03637 c -10.968,-10.96799 -28.9194,-10.9693 -39.8836,1e-5 -10.9693,10.9693 -10.902,28.84951 0.066,39.81751 5.477,5.47696 12.6302,8.18288 19.8098,8.18802 z"
                 id="path10155-8-1-6-5" />
              <path
                 inkscape:connector-curvature="0"
                 id="path10157-8-5-7-9"
                 d="m 1702.6973,147.3905 c 0.01,10.22385 -3.8733,20.4896 -11.6599,28.30352 l -24.4482,24.44822 c -2.2051,2.20513 -5.7839,2.20876 -7.9926,3e-5 l -24.2603,-24.26018 c -15.6187,-15.61874 -15.6205,-41.18191 0,-56.79511 15.6206,-15.62055 41.0824,-15.52469 56.7011,0.094 7.7993,7.79931 11.6527,17.98562 11.6599,28.20949 z"
                 style="fill:#ffffff;fill-opacity:1;stroke:none" />
            </g>
            <g
               id="g10149-7-7-9-3-9"
               transform="matrix(0.02663737,0.23663751,-0.23663751,0.02663737,1286.5639,-252.64739)"
               inkscape:export-filename="/home/duffy/Resources/FedoraLogo.tar.gz_FILES/fudcon-logo-template.png"
               inkscape:export-xdpi="90"
               inkscape:export-ydpi="90"
               style="opacity:0.07623321;fill:#ffffff;fill-opacity:1">
              <path
                 inkscape:connector-curvature="0"
                 style="fill:#ffffff;fill-opacity:1;stroke:none"
                 d="m 1712.0577,188.6514 c -7.1795,-0.005 -14.3886,2.72004 -19.8757,8.18802 l -17.1685,17.16841 c -1.5485,1.54851 -1.5511,4.06164 0,5.61274 l 17.0364,17.03637 c 10.968,10.96799 28.9194,10.9693 39.8836,-1e-5 10.9693,-10.9693 10.902,-28.84951 -0.066,-39.81751 -5.4771,-5.47696 -12.6302,-8.18289 -19.8098,-8.18802 z"
                 id="path10151-8-7-7-1-6" />
              <path
                 inkscape:connector-curvature="0"
                 id="path10153-6-1-7-7-4"
                 d="m 1622.6216,288.38298 c -0.01,-10.22385 3.8733,-20.4896 11.6598,-28.30352 l 24.4483,-24.44822 c 2.2051,-2.20513 5.7839,-2.20876 7.9926,-3e-5 l 24.2603,24.26018 c 15.6187,15.61874 15.6205,41.18191 0,56.79511 -15.6206,15.62055 -41.0824,15.52469 -56.7012,-0.094 -7.7992,-7.79931 -11.6526,-17.98562 -11.6598,-28.20949 z"
                 style="fill:#ffffff;fill-opacity:1;stroke:none" />
              <path
                 inkscape:connector-curvature="0"
                 style="fill:#ffffff;fill-opacity:1;stroke:none"
                 d="m 1613.2612,244.88341 c 7.1795,0.005 14.3885,-2.72005 19.8757,-8.18802 l 17.1685,-17.16841 c 1.5485,-1.54851 1.5509,-4.06165 0,-5.61274 l -17.0364,-17.03637 c -10.968,-10.96799 -28.9194,-10.9693 -39.8836,1e-5 -10.9693,10.9693 -10.902,28.84951 0.066,39.81751 5.477,5.47696 12.6302,8.18288 19.8098,8.18802 z"
                 id="path10155-8-1-6-5-3" />
              <path
                 inkscape:connector-curvature="0"
                 id="path10157-8-5-7-9-3"
                 d="m 1702.6973,147.3905 c 0.01,10.22385 -3.8733,20.4896 -11.6599,28.30352 l -24.4482,24.44822 c -2.2051,2.20513 -5.7839,2.20876 -7.9926,3e-5 l -24.2603,-24.26018 c -15.6187,-15.61874 -15.6205,-41.18191 0,-56.79511 15.6206,-15.62055 41.0824,-15.52469 56.7011,0.094 7.7993,7.79931 11.6527,17.98562 11.6599,28.20949 z"
                 style="fill:#ffffff;fill-opacity:1;stroke:none" />
            </g>
          </g>
          <rect
             y="39.862"
             x="938.42676"
             height="48.260708"
             width="787.50006"
             id="rect2988-8"
             style="fill:#3c6eb4;fill-opacity:1;stroke:none" />
          <g
             transform="matrix(0.895747,0,0,0.895747,533.6772,2.0751487)"
             id="g3921">
            <text
               sodipodi:linespacing="125%"
               id="text3864-3"
               y="75.783913"
               x="772.328"
               style="font-size:16px;font-style:normal;font-variant:normal;font-weight:normal;font-stretch:normal;text-align:end;line-height:125%;letter-spacing:0px;word-spacing:0px;writing-mode:lr-tb;text-anchor:end;fill:#ffffff;fill-opacity:1;stroke:none;font-family:Comfortaa;-inkscape-font-specification:Comfortaa"
               xml:space="preserve"><tspan
                 y="75.783913"
                 x="772.328"
                 id="tspan3866-1"
                 sodipodi:role="line"
                 style="font-style:normal;font-variant:normal;font-weight:normal;font-stretch:normal;font-family:MgOpen Modata;-inkscape-font-specification:MgOpen Modata">PANAMA — <tspan
   style="font-style:normal;font-variant:normal;font-weight:normal;font-stretch:normal;font-family:Comfortaa;-inkscape-font-specification:Comfortaa"
   id="tspan3143">Mayo 26–28, 2011</tspan></tspan></text>
            <g
               id="g4574"
               transform="matrix(0.27401424,0,0,0.27401424,367.07316,24.787672)">
              <g
                 style="fill:#294172;fill-opacity:1"
                 inkscape:export-ydpi="90"
                 inkscape:export-xdpi="90"
                 inkscape:export-filename="/home/duffy/Resources/FedoraLogo.tar.gz_FILES/fudcon-logo-template.png"
                 transform="matrix(0.54261182,0.54261182,-0.54261182,0.54261182,-375.78941,-855.31619)"
                 id="g10149">
                <path
                   id="path10151"
                   d="m 1712.0577,188.6514 c -7.1795,-0.005 -14.3886,2.72004 -19.8757,8.18802 l -17.1685,17.16841 c -1.5485,1.54851 -1.5511,4.06164 0,5.61274 l 17.0364,17.03637 c 10.968,10.96799 28.9194,10.9693 39.8836,-1e-5 10.9693,-10.9693 10.902,-28.84951 -0.066,-39.81751 -5.4771,-5.47696 -12.6302,-8.18289 -19.8098,-8.18802 z"
                   style="fill:#294172;fill-opacity:1;stroke:none"
                   inkscape:connector-curvature="0" />
                <path
                   style="fill:#294172;fill-opacity:1;stroke:none"
                   d="m 1622.6216,288.38298 c -0.01,-10.22385 3.8733,-20.4896 11.6598,-28.30352 l 24.4483,-24.44822 c 2.2051,-2.20513 5.7839,-2.20876 7.9926,-3e-5 l 24.2603,24.26018 c 15.6187,15.61874 15.6205,41.18191 0,56.79511 -15.6206,15.62055 -41.0824,15.52469 -56.7012,-0.094 -7.7992,-7.79931 -11.6526,-17.98562 -11.6598,-28.20949 z"
                   id="path10153"
                   inkscape:connector-curvature="0" />
                <path
                   id="path10155"
                   d="m 1613.2612,244.88341 c 7.1795,0.005 14.3885,-2.72005 19.8757,-8.18802 l 17.1685,-17.16841 c 1.5485,-1.54851 1.5509,-4.06165 0,-5.61274 l -17.0364,-17.03637 c -10.968,-10.96799 -28.9194,-10.9693 -39.8836,1e-5 -10.9693,10.9693 -10.902,28.84951 0.066,39.81751 5.477,5.47696 12.6302,8.18288 19.8098,8.18802 z"
                   style="fill:#294172;fill-opacity:1;stroke:none"
                   inkscape:connector-curvature="0" />
                <path
                   style="fill:#294172;fill-opacity:1;stroke:none"
                   d="m 1702.6973,147.3905 c 0.01,10.22385 -3.8733,20.4896 -11.6599,28.30352 l -24.4482,24.44822 c -2.2051,2.20513 -5.7839,2.20876 -7.9926,3e-5 l -24.2603,-24.26018 c -15.6187,-15.61874 -15.6205,-41.18191 0,-56.79511 15.6206,-15.62055 41.0824,-15.52469 56.7011,0.094 7.7993,7.79931 11.6527,17.98562 11.6599,28.20949 z"
                   id="path10157"
                   inkscape:connector-curvature="0" />
              </g>
              <text
                 inkscape:export-ydpi="90"
                 inkscape:export-xdpi="90"
                 inkscape:export-filename="/home/duffy/Resources/FedoraLogo.tar.gz_FILES/fudcon-logo-template.png"
                 xml:space="preserve"
                 style="font-size:80.85561371px;font-style:normal;font-weight:normal;fill:#0a57a4;fill-opacity:1;stroke:none;font-family:Bitstream Vera Sans"
                 x="496.81644"
                 y="187.23965"
                 id="text10159"><tspan
                   sodipodi:role="line"
                   id="tspan10161"
                   x="496.81644"
                   y="187.23965"
                   style="font-weight:bold;letter-spacing:-2.43262696;fill:#ffffff;fill-opacity:1;font-family:MgOpen Modata">fud</tspan></text>
              <text
                 inkscape:export-ydpi="90"
                 inkscape:export-xdpi="90"
                 inkscape:export-filename="/home/duffy/Resources/FedoraLogo.tar.gz_FILES/fudcon-logo-template.png"
                 id="text10165"
                 y="187.23965"
                 x="604.94031"
                 style="font-size:80.85561371px;font-style:normal;font-weight:normal;fill:#0a57a4;fill-opacity:1;stroke:none;font-family:Bitstream Vera Sans"
                 xml:space="preserve"><tspan
                   style="letter-spacing:-2.43262696;fill:#ffffff;fill-opacity:1;font-family:MgOpen Modata"
                   y="187.23965"
                   x="604.94031"
                   id="tspan10167"
                   sodipodi:role="line"> con</tspan></text>
            </g>
          </g>
        </g>
      </g>
      <g
         id="g3799"
         style="display:inline"
         transform="translate(5.21875e-5,6.3504419e-4)">
        <rect
           transform="translate(-938.42681,-6.46e-4)"
           y="1018.0348"
           x="938.42676"
           height="34.327221"
           width="787.50006"
           id="rect2988-4-2"
           style="fill:#3c6eb4;fill-opacity:1;stroke:none;display:inline" />
        <g
           transform="matrix(0.7207836,0,0,0.7207836,1659.3503,956.00872)"
           id="g3098">
          <g
             transform="translate(-1301.9536,-8.7783461e-4)"
             id="g3496">
            <path
               style="fill:#294172;fill-opacity:1"
               id="path3471-6"
               d="m 33.75,100.42314 c 0,-13.128343 10.642037,-23.771142 23.769925,-23.771142 13.121784,0 23.759637,10.634033 23.769145,23.754392 l 8.35e-4,-8.2e-4 0,18.39492 -8.35e-4,8.2e-4 c -0.0076,2.979 -2.423019,5.39069 -5.403832,5.39069 -0.0076,0 -0.01711,-5.5e-4 -0.02548,-5.5e-4 l -0.0014,5.5e-4 -18.347438,0 0,0 C 44.386851,124.186 33.750135,113.54768 33.750135,100.42314 l -1.33e-4,0 z"
               inkscape:connector-curvature="0" />
            <text
               sodipodi:linespacing="125%"
               id="text3860-8"
               y="111.00707"
               x="57.757656"
               style="font-size:30.42560196px;font-style:normal;font-variant:normal;font-weight:bold;font-stretch:expanded;text-align:center;line-height:125%;letter-spacing:0px;word-spacing:0px;writing-mode:lr-tb;text-anchor:middle;fill:#ffffff;fill-opacity:1;stroke:none;font-family:Comfortaa;-inkscape-font-specification:Comfortaa Bold Expanded"
               xml:space="preserve"><tspan
                 style="text-align:center;text-anchor:middle"
                 y="111.00707"
                 x="57.757656"
                 id="tspan3862-8"
                 sodipodi:role="line">5</tspan></text>
          </g>
        </g>
      </g>
    </g>
  </g>
</svg>
