<?xml version="1.0" encoding="UTF-8" standalone="no"?>
<!-- Created with Inkscape (http://www.inkscape.org/) -->

<svg
   xmlns:dc="http://purl.org/dc/elements/1.1/"
   xmlns:cc="http://creativecommons.org/ns#"
   xmlns:rdf="http://www.w3.org/1999/02/22-rdf-syntax-ns#"
   xmlns:svg="http://www.w3.org/2000/svg"
   xmlns="http://www.w3.org/2000/svg"
   xmlns:xlink="http://www.w3.org/1999/xlink"
   xmlns:sodipodi="http://sodipodi.sourceforge.net/DTD/sodipodi-0.dtd"
   xmlns:inkscape="http://www.inkscape.org/namespaces/inkscape"
   width="787.5"
   height="1012.5"
   id="svg2"
   version="1.1"
   inkscape:version="0.48.1 r9760"
   sodipodi:docname="page08-general-schedule-left.svg"
   inkscape:export-filename="/home/ianweller/fudcon-tempe-booklet/template-left.png"
   inkscape:export-xdpi="90"
   inkscape:export-ydpi="90">
  <defs
     id="defs4">
    <linearGradient
       inkscape:collect="always"
       xlink:href="#linearGradient3913"
       id="linearGradient3919"
       x1="399.32516"
       y1="134.862"
       x2="779.66754"
       y2="134.862"
       gradientUnits="userSpaceOnUse"
       gradientTransform="matrix(1,0,0,0.85137615,0,10.754719)" />
    <linearGradient
       id="linearGradient3913">
      <stop
         style="stop-color:#79db31;stop-opacity:1;"
         offset="0"
         id="stop3915" />
      <stop
         style="stop-color:#79db31;stop-opacity:0;"
         offset="1"
         id="stop3917" />
    </linearGradient>
  </defs>
  <sodipodi:namedview
     id="base"
     pagecolor="#ffffff"
     bordercolor="#666666"
     borderopacity="1.0"
     inkscape:pageopacity="0.0"
     inkscape:pageshadow="2"
     inkscape:zoom="0.5382716"
     inkscape:cx="414.24343"
     inkscape:cy="514.6247"
     inkscape:document-units="in"
     inkscape:current-layer="layer1"
     showgrid="false"
     units="in"
     inkscape:window-width="1022"
     inkscape:window-height="720"
     inkscape:window-x="0"
     inkscape:window-y="24"
     inkscape:window-maximized="0"
     showguides="false"
     inkscape:guide-bbox="true"
     inkscape:snap-bbox="false"
     inkscape:snap-page="false"
     inkscape:snap-nodes="true">
    <sodipodi:guide
       position="0,11.25"
       orientation="0,1"
       id="guide2985" />
    <sodipodi:guide
       position="776.25,0"
       orientation="1,0"
       id="guide2987" />
    <sodipodi:guide
       position="787.5,1001.25"
       orientation="0,1"
       id="guide2989" />
    <sodipodi:guide
       position="11.25,1012.5"
       orientation="1,0"
       id="guide2991" />
    <sodipodi:guide
       orientation="1,0"
       position="753.75,824"
       id="guide3872" />
    <sodipodi:guide
       orientation="1,0"
       position="33.75,762"
       id="guide3878" />
    <sodipodi:guide
       orientation="0,1"
       position="257,928.17"
       id="guide3884" />
    <sodipodi:guide
       orientation="0,1"
       position="297,33.75"
       id="guide3970" />
    <sodipodi:guide
       orientation="0,1"
       position="287,855"
       id="guide3972" />
    <sodipodi:guide
       orientation="0,1"
       position="35.753906,953.73"
       id="guide3017" />
    <sodipodi:guide
       orientation="0,1"
       position="311,990"
       id="guide3810" />
    <sodipodi:guide
       position="0,0"
       orientation="0,787.5"
       id="guide3812" />
    <sodipodi:guide
       position="787.5,0"
       orientation="-1012.5,0"
       id="guide3814" />
    <sodipodi:guide
       position="787.5,1012.5"
       orientation="0,-787.5"
       id="guide3816" />
    <sodipodi:guide
       position="0,1012.5"
       orientation="1012.5,0"
       id="guide3818" />
    <sodipodi:guide
       orientation="0,1"
       position="341,832.5"
       id="guide3820" />
    <sodipodi:guide
       orientation="0,1"
       position="232,618.75"
       id="guide3321" />
    <sodipodi:guide
       orientation="1,0"
       position="123.75,453"
       id="guide3323" />
    <sodipodi:guide
       orientation="1,0"
       position="281.25,418"
       id="guide3325" />
    <sodipodi:guide
       orientation="1,0"
       position="438.75,477"
       id="guide3327" />
    <sodipodi:guide
       orientation="1,0"
       position="596.25,435"
       id="guide3329" />
    <sodipodi:guide
       orientation="0,1"
       position="194,150.75"
       id="guide3339" />
    <sodipodi:guide
       orientation="0,1"
       position="161,209.16"
       id="guide3341" />
    <sodipodi:guide
       orientation="0,1"
       position="196.57569,267.75"
       id="guide3343" />
    <sodipodi:guide
       orientation="0,1"
       position="188.0904,326.25"
       id="guide3345" />
    <sodipodi:guide
       orientation="0,1"
       position="202.23254,384.75"
       id="guide3347" />
    <sodipodi:guide
       orientation="0,1"
       position="226.27417,443.25"
       id="guide3349" />
    <sodipodi:guide
       orientation="0,1"
       position="223.44574,501.75"
       id="guide3353" />
    <sodipodi:guide
       orientation="0,1"
       position="281.25,560.25"
       id="guide3355" />
    <sodipodi:guide
       orientation="0,1"
       position="407,641.25"
       id="guide3367" />
    <sodipodi:guide
       orientation="0,1"
       position="22.293578,92.25"
       id="guide3106" />
  </sodipodi:namedview>
  <metadata
     id="metadata7">
    <rdf:RDF>
      <cc:Work
         rdf:about="">
        <dc:format>image/svg+xml</dc:format>
        <dc:type
           rdf:resource="http://purl.org/dc/dcmitype/StillImage" />
        <dc:title />
      </cc:Work>
    </rdf:RDF>
  </metadata>
  <g
     inkscape:groupmode="layer"
     id="layer2"
     inkscape:label="bounding"
     sodipodi:insensitive="true">
    <rect
       style="fill:#ffffff;fill-opacity:1;stroke:none"
       id="rect3015"
       width="787.5"
       height="1012.5"
       x="-4.2632564e-14"
       y="1.0373466e-13" />
  </g>
  <g
     inkscape:label="Layer 1"
     inkscape:groupmode="layer"
     id="layer1"
     transform="translate(0,-39.862)">
    <text
       xml:space="preserve"
       style="font-size:28px;font-style:normal;font-variant:normal;font-weight:normal;font-stretch:normal;text-align:start;line-height:125%;letter-spacing:0px;word-spacing:0px;writing-mode:lr-tb;text-anchor:start;fill:#000000;fill-opacity:1;stroke:none;font-family:Comfortaa;-inkscape-font-specification:Comfortaa"
       x="33.75"
       y="389.112"
       id="text3862"
       sodipodi:linespacing="125%"><tspan
         sodipodi:role="line"
         id="tspan3864"
         x="33.75"
         y="389.112">Saturday, January 29, 2011</tspan></text>
    <text
       xml:space="preserve"
       style="font-size:16px;font-style:normal;font-variant:normal;font-weight:500;font-stretch:normal;text-align:start;line-height:125%;letter-spacing:0px;word-spacing:0px;writing-mode:lr-tb;text-anchor:start;fill:#000000;fill-opacity:1;stroke:none;font-family:Cantarell;-inkscape-font-specification:Cantarell Medium"
       x="32.34375"
       y="209.66669"
       id="text3868-8"
       sodipodi:linespacing="125%"><tspan
         style="font-weight:500;-inkscape-font-specification:Cantarell Medium"
         sodipodi:role="line"
         x="32.34375"
         y="209.66669"
         id="tspan3285">Technical sessions are 50 minutes in length, followed by a ten-minute break. There is a one-hour</tspan><tspan
         style="font-weight:500;-inkscape-font-specification:Cantarell Medium"
         sodipodi:role="line"
         x="32.34375"
         y="229.66669"
         id="tspan3112">break for lunch, and an additional hour after the last session on Saturday for people to blog,</tspan><tspan
         style="font-weight:500;-inkscape-font-specification:Cantarell Medium"
         sodipodi:role="line"
         x="32.34375"
         y="249.66669"
         id="tspan3116">converse and travel to FUDPub. Travel time from the Brickyard to Sparky’s Den (at the Memorial</tspan><tspan
         style="font-weight:500;-inkscape-font-specification:Cantarell Medium"
         sodipodi:role="line"
         x="32.34375"
         y="269.66669"
         id="tspan3126">Union) is about a 20-minute walk if one is walking in a chill fashion.</tspan><tspan
         style="font-weight:500;-inkscape-font-specification:Cantarell Medium"
         sodipodi:role="line"
         x="32.34375"
         y="289.66669"
         id="tspan3289" /><tspan
         style="font-weight:500;-inkscape-font-specification:Cantarell Medium"
         sodipodi:role="line"
         x="32.34375"
         y="309.66669"
         id="tspan3291">We schedule sessions right after BarCamp pitches and voting; the full schedule will be made</tspan><tspan
         style="font-weight:500;-inkscape-font-specification:Cantarell Medium"
         sodipodi:role="line"
         x="32.34375"
         y="329.66669"
         id="tspan3313">available at <tspan
   style="font-size:16px;font-style:normal;font-variant:normal;font-weight:normal;font-stretch:normal;text-align:start;line-height:125%;writing-mode:lr-tb;text-anchor:start;fill:#3c6eb4;font-family:Liberation Mono;-inkscape-font-specification:Liberation Mono"
   id="tspan3305">ur1.ca/2r62a</tspan>. Use the table below to write in talks you are interested in seeing.</tspan></text>
    <rect
       style="fill:#dedede;fill-opacity:1;stroke:none"
       id="rect3359"
       width="630"
       height="58.5"
       x="123.75"
       y="411.612" />
    <rect
       style="fill:#dedede;fill-opacity:1;stroke:none"
       id="rect3361"
       width="90"
       height="526.5"
       x="33.75"
       y="470.112" />
    <path
       style="fill:none;stroke:#8c8c8c;stroke-width:1.25;stroke-linecap:square;stroke-linejoin:miter;stroke-miterlimit:4;stroke-opacity:1;stroke-dasharray:none"
       d="m 123.75,411.612 630,0"
       id="path3369"
       inkscape:connector-curvature="0" />
    <path
       style="fill:none;stroke:#8c8c8c;stroke-width:1.25;stroke-linecap:square;stroke-linejoin:miter;stroke-miterlimit:4;stroke-opacity:1;stroke-dasharray:none"
       d="m 753.75,411.612 0,585"
       id="path4939"
       inkscape:connector-curvature="0" />
    <path
       style="fill:none;stroke:#8c8c8c;stroke-width:1.25;stroke-linecap:square;stroke-linejoin:miter;stroke-miterlimit:4;stroke-opacity:1;stroke-dasharray:none"
       d="m 753.75,996.612 -720,0"
       id="path4941"
       inkscape:connector-curvature="0" />
    <path
       style="fill:none;stroke:#8c8c8c;stroke-width:1.25;stroke-linecap:square;stroke-linejoin:miter;stroke-miterlimit:4;stroke-opacity:1;stroke-dasharray:none"
       d="m 33.75,470.112 0,526.5"
       id="path4943"
       inkscape:connector-curvature="0" />
    <path
       style="fill:none;stroke:#8c8c8c;stroke-width:1.25;stroke-linecap:square;stroke-linejoin:miter;stroke-miterlimit:4;stroke-opacity:1;stroke-dasharray:none"
       d="m 33.75,470.112 720,0"
       id="path4945"
       inkscape:connector-curvature="0" />
    <path
       style="fill:none;stroke:#8c8c8c;stroke-width:1.25;stroke-linecap:square;stroke-linejoin:miter;stroke-miterlimit:4;stroke-opacity:1;stroke-dasharray:none"
       d="m 123.75,411.612 0,585"
       id="path4947"
       inkscape:connector-curvature="0" />
    <text
       xml:space="preserve"
       style="font-size:16px;font-style:normal;font-variant:normal;font-weight:500;font-stretch:normal;text-align:start;line-height:125%;letter-spacing:0px;word-spacing:0px;writing-mode:lr-tb;text-anchor:start;fill:#000000;fill-opacity:1;stroke:none;font-family:Cantarell;-inkscape-font-specification:Cantarell Medium"
       x="56.203125"
       y="524.06512"
       id="text4967"
       sodipodi:linespacing="125%"><tspan
         sodipodi:role="line"
         x="56.203125"
         y="524.06512"
         id="tspan4975">09:00</tspan><tspan
         sodipodi:role="line"
         x="56.203125"
         y="544.06512"
         id="tspan5043">10:30</tspan></text>
    <path
       inkscape:connector-curvature="0"
       id="path4977"
       d="m 33.75,587.112 720,0"
       style="fill:none;stroke:#8c8c8c;stroke-width:1.25;stroke-linecap:square;stroke-linejoin:miter;stroke-miterlimit:4;stroke-opacity:1;stroke-dasharray:none" />
    <text
       sodipodi:linespacing="125%"
       id="text4979"
       y="611.90887"
       x="56.203125"
       style="font-size:16px;font-style:normal;font-variant:normal;font-weight:500;font-stretch:normal;text-align:start;line-height:125%;letter-spacing:0px;word-spacing:0px;writing-mode:lr-tb;text-anchor:start;fill:#000000;fill-opacity:1;stroke:none;font-family:Cantarell;-inkscape-font-specification:Cantarell Medium"
       xml:space="preserve"><tspan
         id="tspan4983"
         y="611.90887"
         x="56.203125"
         sodipodi:role="line">11:00</tspan><tspan
         y="631.90887"
         x="56.203125"
         sodipodi:role="line"
         id="tspan5047">11:50</tspan></text>
    <path
       style="fill:none;stroke:#8c8c8c;stroke-width:1.25;stroke-linecap:square;stroke-linejoin:miter;stroke-miterlimit:4;stroke-opacity:1;stroke-dasharray:none"
       d="m 33.75,645.612 720,0"
       id="path4985"
       inkscape:connector-curvature="0" />
    <text
       xml:space="preserve"
       style="font-size:16px;font-style:normal;font-variant:normal;font-weight:500;font-stretch:normal;text-align:start;line-height:125%;letter-spacing:0px;word-spacing:0px;writing-mode:lr-tb;text-anchor:start;fill:#000000;fill-opacity:1;stroke:none;font-family:Cantarell;-inkscape-font-specification:Cantarell Medium"
       x="56.203125"
       y="670.40887"
       id="text4987"
       sodipodi:linespacing="125%"><tspan
         sodipodi:role="line"
         x="56.203125"
         y="670.40887"
         id="tspan4991">12:00</tspan><tspan
         sodipodi:role="line"
         x="56.203125"
         y="690.40887"
         id="tspan5051">12:50</tspan></text>
    <path
       inkscape:connector-curvature="0"
       id="path4993"
       d="m 33.75,704.112 720,0"
       style="fill:none;stroke:#8c8c8c;stroke-width:1.25;stroke-linecap:square;stroke-linejoin:miter;stroke-miterlimit:4;stroke-opacity:1;stroke-dasharray:none" />
    <text
       sodipodi:linespacing="125%"
       id="text4995"
       y="728.90887"
       x="56.203125"
       style="font-size:16px;font-style:normal;font-variant:normal;font-weight:500;font-stretch:normal;text-align:start;line-height:125%;letter-spacing:0px;word-spacing:0px;writing-mode:lr-tb;text-anchor:start;fill:#000000;fill-opacity:1;stroke:none;font-family:Cantarell;-inkscape-font-specification:Cantarell Medium"
       xml:space="preserve"><tspan
         id="tspan4999"
         y="728.90887"
         x="56.203125"
         sodipodi:role="line">13:00</tspan><tspan
         y="748.90887"
         x="56.203125"
         sodipodi:role="line"
         id="tspan5055">13:50</tspan></text>
    <path
       style="fill:none;stroke:#8c8c8c;stroke-width:1.25;stroke-linecap:square;stroke-linejoin:miter;stroke-miterlimit:4;stroke-opacity:1;stroke-dasharray:none"
       d="m 33.75,762.612 720,0"
       id="path5001"
       inkscape:connector-curvature="0" />
    <text
       xml:space="preserve"
       style="font-size:16px;font-style:normal;font-variant:normal;font-weight:500;font-stretch:normal;text-align:start;line-height:125%;letter-spacing:0px;word-spacing:0px;writing-mode:lr-tb;text-anchor:start;fill:#000000;fill-opacity:1;stroke:none;font-family:Cantarell;-inkscape-font-specification:Cantarell Medium"
       x="56.203125"
       y="787.40887"
       id="text5003"
       sodipodi:linespacing="125%"><tspan
         sodipodi:role="line"
         x="56.203125"
         y="787.40887"
         id="tspan5007">14:00</tspan><tspan
         sodipodi:role="line"
         x="56.203125"
         y="807.40887"
         id="tspan5059">14:50</tspan></text>
    <path
       inkscape:connector-curvature="0"
       id="path5009"
       d="m 33.75,821.112 720,0"
       style="fill:none;stroke:#8c8c8c;stroke-width:1.25;stroke-linecap:square;stroke-linejoin:miter;stroke-miterlimit:4;stroke-opacity:1;stroke-dasharray:none" />
    <text
       sodipodi:linespacing="125%"
       id="text5011"
       y="845.90887"
       x="56.203125"
       style="font-size:16px;font-style:normal;font-variant:normal;font-weight:500;font-stretch:normal;text-align:start;line-height:125%;letter-spacing:0px;word-spacing:0px;writing-mode:lr-tb;text-anchor:start;fill:#000000;fill-opacity:1;stroke:none;font-family:Cantarell;-inkscape-font-specification:Cantarell Medium"
       xml:space="preserve"><tspan
         id="tspan5015"
         y="845.90887"
         x="56.203125"
         sodipodi:role="line">15:00</tspan><tspan
         y="865.90887"
         x="56.203125"
         sodipodi:role="line"
         id="tspan5063">15:50</tspan></text>
    <path
       style="fill:none;stroke:#8c8c8c;stroke-width:1.25;stroke-linecap:square;stroke-linejoin:miter;stroke-miterlimit:4;stroke-opacity:1;stroke-dasharray:none"
       d="m 33.75,879.702 720,0"
       id="path5017"
       inkscape:connector-curvature="0" />
    <text
       xml:space="preserve"
       style="font-size:16px;font-style:normal;font-variant:normal;font-weight:500;font-stretch:normal;text-align:start;line-height:125%;letter-spacing:0px;word-spacing:0px;writing-mode:lr-tb;text-anchor:start;fill:#000000;fill-opacity:1;stroke:none;font-family:Cantarell;-inkscape-font-specification:Cantarell Medium"
       x="56.203125"
       y="904.4989"
       id="text5019"
       sodipodi:linespacing="125%"><tspan
         sodipodi:role="line"
         x="56.203125"
         y="904.4989"
         id="tspan5023">16:00</tspan><tspan
         sodipodi:role="line"
         x="56.203125"
         y="924.4989"
         id="tspan5067">16:50</tspan></text>
    <path
       inkscape:connector-curvature="0"
       id="path5025"
       d="m 33.75,938.112 720,0"
       style="fill:none;stroke:#8c8c8c;stroke-width:1.25;stroke-linecap:square;stroke-linejoin:miter;stroke-miterlimit:4;stroke-opacity:1;stroke-dasharray:none" />
    <text
       sodipodi:linespacing="125%"
       id="text5027"
       y="962.81122"
       x="56.203125"
       style="font-size:16px;font-style:normal;font-variant:normal;font-weight:500;font-stretch:normal;text-align:start;line-height:125%;letter-spacing:0px;word-spacing:0px;writing-mode:lr-tb;text-anchor:start;fill:#000000;fill-opacity:1;stroke:none;font-family:Cantarell;-inkscape-font-specification:Cantarell Medium"
       xml:space="preserve"><tspan
         y="962.81122"
         x="56.203125"
         sodipodi:role="line"
         id="tspan5071">18:00</tspan><tspan
         y="982.81122"
         x="56.203125"
         sodipodi:role="line"
         id="tspan3120">22:30</tspan></text>
    <text
       sodipodi:linespacing="125%"
       id="text5077"
       y="446.38544"
       x="202.07812"
       style="font-size:16px;font-style:normal;font-variant:normal;font-weight:500;font-stretch:normal;text-align:center;line-height:125%;letter-spacing:0px;word-spacing:0px;writing-mode:lr-tb;text-anchor:middle;fill:#000000;fill-opacity:1;stroke:none;font-family:Cantarell;-inkscape-font-specification:Cantarell Medium"
       xml:space="preserve"><tspan
         id="tspan5081"
         y="446.38544"
         x="202.07812"
         sodipodi:role="line">BYAC 110</tspan></text>
    <path
       style="fill:none;stroke:#8c8c8c;stroke-width:1.25;stroke-linecap:square;stroke-linejoin:miter;stroke-miterlimit:4;stroke-opacity:1;stroke-dasharray:none"
       d="m 281.25,411.612 0,58.5"
       id="path5085"
       inkscape:connector-curvature="0" />
    <text
       xml:space="preserve"
       style="font-size:16px;font-style:normal;font-variant:normal;font-weight:500;font-stretch:normal;text-align:center;line-height:125%;letter-spacing:0px;word-spacing:0px;writing-mode:lr-tb;text-anchor:middle;fill:#000000;fill-opacity:1;stroke:none;font-family:Cantarell;-inkscape-font-specification:Cantarell Medium"
       x="359.57812"
       y="446.38544"
       id="text5087"
       sodipodi:linespacing="125%"><tspan
         sodipodi:role="line"
         x="359.57812"
         y="446.38544"
         id="tspan5089">BYAC 150</tspan></text>
    <path
       inkscape:connector-curvature="0"
       id="path5091"
       d="m 438.75,411.612 0,58.5"
       style="fill:none;stroke:#8c8c8c;stroke-width:1.25;stroke-linecap:square;stroke-linejoin:miter;stroke-miterlimit:4;stroke-opacity:1;stroke-dasharray:none" />
    <text
       sodipodi:linespacing="125%"
       id="text5093"
       y="446.38544"
       x="517.07812"
       style="font-size:16px;font-style:normal;font-variant:normal;font-weight:500;font-stretch:normal;text-align:center;line-height:125%;letter-spacing:0px;word-spacing:0px;writing-mode:lr-tb;text-anchor:middle;fill:#000000;fill-opacity:1;stroke:none;font-family:Cantarell;-inkscape-font-specification:Cantarell Medium"
       xml:space="preserve"><tspan
         id="tspan5095"
         y="446.38544"
         x="517.07812"
         sodipodi:role="line">BYAC 260</tspan></text>
    <path
       style="fill:none;stroke:#8c8c8c;stroke-width:1.25;stroke-linecap:square;stroke-linejoin:miter;stroke-miterlimit:4;stroke-opacity:1;stroke-dasharray:none"
       d="m 596.25,411.612 0,58.5"
       id="path5097"
       inkscape:connector-curvature="0" />
    <text
       xml:space="preserve"
       style="font-size:16px;font-style:normal;font-variant:normal;font-weight:500;font-stretch:normal;text-align:center;line-height:125%;letter-spacing:0px;word-spacing:0px;writing-mode:lr-tb;text-anchor:middle;fill:#000000;fill-opacity:1;stroke:none;font-family:Cantarell;-inkscape-font-specification:Cantarell Medium"
       x="674.57812"
       y="446.38544"
       id="text5099"
       sodipodi:linespacing="125%"><tspan
         sodipodi:role="line"
         x="674.57812"
         y="446.38544"
         id="tspan5101">BYAC 270</tspan></text>
    <path
       inkscape:connector-curvature="0"
       id="path5105"
       d="m 281.25,587.112 0,58.5"
       style="fill:none;stroke:#8c8c8c;stroke-width:1.25;stroke-linecap:square;stroke-linejoin:miter;stroke-miterlimit:4;stroke-opacity:1;stroke-dasharray:none" />
    <path
       style="fill:none;stroke:#8c8c8c;stroke-width:1.25;stroke-linecap:square;stroke-linejoin:miter;stroke-miterlimit:4;stroke-opacity:1;stroke-dasharray:none"
       d="m 438.75,587.112 0,58.5"
       id="path5107"
       inkscape:connector-curvature="0" />
    <path
       inkscape:connector-curvature="0"
       id="path5109"
       d="m 596.25,587.112 0,58.5"
       style="fill:none;stroke:#8c8c8c;stroke-width:1.25;stroke-linecap:square;stroke-linejoin:miter;stroke-miterlimit:4;stroke-opacity:1;stroke-dasharray:none" />
    <path
       style="fill:none;stroke:#8c8c8c;stroke-width:1.25;stroke-linecap:square;stroke-linejoin:miter;stroke-miterlimit:4;stroke-opacity:1;stroke-dasharray:none"
       d="m 281.25,704.112 0,234"
       id="path5111"
       inkscape:connector-curvature="0" />
    <path
       inkscape:connector-curvature="0"
       id="path5113"
       d="m 438.75,704.112 0,234"
       style="fill:none;stroke:#8c8c8c;stroke-width:1.25;stroke-linecap:square;stroke-linejoin:miter;stroke-miterlimit:4;stroke-opacity:1;stroke-dasharray:none" />
    <path
       style="fill:none;stroke:#8c8c8c;stroke-width:1.25;stroke-linecap:square;stroke-linejoin:miter;stroke-miterlimit:4;stroke-opacity:1;stroke-dasharray:none"
       d="m 596.25,704.112 0,234"
       id="path5115"
       inkscape:connector-curvature="0" />
    <text
       sodipodi:linespacing="125%"
       id="text5117"
       y="504.21576"
       x="438.20312"
       style="font-size:16px;font-style:normal;font-variant:normal;font-weight:500;font-stretch:normal;text-align:center;line-height:125%;letter-spacing:0px;word-spacing:0px;writing-mode:lr-tb;text-anchor:middle;fill:#000000;fill-opacity:1;stroke:none;font-family:Cantarell;-inkscape-font-specification:Cantarell Medium"
       xml:space="preserve"><tspan
         id="tspan5119"
         y="504.21576"
         x="438.20312"
         sodipodi:role="line"
         style="font-weight:500;-inkscape-font-specification:Cantarell Medium"><tspan
   style="font-weight:bold;-inkscape-font-specification:Cantarell Bold"
   id="tspan5123">In ART 220:</tspan> Orientation, BarCamp pitches and scheduling</tspan><tspan
         y="524.35419"
         x="438.20312"
         sodipodi:role="line"
         id="tspan3111" /><tspan
         y="544.49261"
         x="438.20312"
         sodipodi:role="line"
         id="tspan3113">The Highly Esteemed Fedora Project Leader’s</tspan><tspan
         y="564.49261"
         x="438.20312"
         sodipodi:role="line"
         id="tspan3115">World-Famous <tspan
   style="font-weight:bold;-inkscape-font-specification:Cantarell Bold"
   id="tspan3117">State of Fedora Address!</tspan></tspan></text>
    <text
       xml:space="preserve"
       style="font-size:16px;font-style:normal;font-variant:normal;font-weight:500;font-stretch:normal;text-align:center;line-height:125%;letter-spacing:0px;word-spacing:0px;writing-mode:lr-tb;text-anchor:middle;fill:#000000;fill-opacity:1;stroke:none;font-family:Cantarell;-inkscape-font-specification:Cantarell Medium"
       x="438.20312"
       y="680.36591"
       id="text5125"
       sodipodi:linespacing="125%"><tspan
         sodipodi:role="line"
         x="438.20312"
         y="680.36591"
         id="tspan5127">Lunch</tspan></text>
    <text
       xml:space="preserve"
       style="font-size:16px;font-style:normal;font-variant:normal;font-weight:500;font-stretch:normal;text-align:center;line-height:125%;letter-spacing:0px;word-spacing:0px;writing-mode:lr-tb;text-anchor:middle;fill:#000000;fill-opacity:1;stroke:none;font-family:Cantarell;-inkscape-font-specification:Cantarell Medium"
       x="438.20312"
       y="973.18622"
       id="text5139"
       sodipodi:linespacing="125%"><tspan
         sodipodi:role="line"
         x="438.20312"
         y="973.18622"
         id="tspan5145"
         style="font-style:normal;font-weight:500;-inkscape-font-specification:Cantarell Medium"><tspan
   style="font-weight:bold;-inkscape-font-specification:Cantarell Bold"
   id="tspan3127">At Sparky’s Den (Memorial Union):</tspan> FUDPub</tspan></text>
    <g
       id="g4239">
      <g
         id="g4232">
        <rect
           style="fill:#3c6eb4;fill-opacity:1;stroke:none"
           id="rect2988-4"
           width="787.50006"
           height="34.327221"
           x="0"
           y="1018.0348" />
        <g
           id="g3098"
           transform="matrix(0.7207836,0,0,0.7207836,-15.076446,956.00873)">
          <path
             style="fill:#294172;fill-opacity:1"
             id="path3471-7"
             d="m 33.75,100.42314 c 0,-13.128343 10.642037,-23.771142 23.769925,-23.771142 13.121784,0 23.759637,10.634033 23.769145,23.754392 l 8.35e-4,-8.2e-4 0,18.39492 -8.35e-4,8.2e-4 c -0.0076,2.979 -2.423019,5.39069 -5.403832,5.39069 -0.0076,0 -0.01711,-5.5e-4 -0.02548,-5.5e-4 l -0.0014,5.5e-4 -18.347438,0 0,0 C 44.386851,124.186 33.750135,113.54768 33.750135,100.42314 l -1.33e-4,0 z"
             inkscape:connector-curvature="0" />
          <text
             sodipodi:linespacing="125%"
             id="text3860-8"
             y="111.00707"
             x="57.757656"
             style="font-size:30.42560196px;font-style:normal;font-variant:normal;font-weight:bold;font-stretch:expanded;text-align:center;line-height:125%;letter-spacing:0px;word-spacing:0px;writing-mode:lr-tb;text-anchor:middle;fill:#ffffff;fill-opacity:1;stroke:none;font-family:Comfortaa;-inkscape-font-specification:Comfortaa Bold Expanded"
             xml:space="preserve"><tspan
               style="text-align:center;text-anchor:middle"
               y="111.00707"
               x="57.757656"
               id="tspan3862-6"
               sodipodi:role="line">8</tspan></text>
        </g>
      </g>
      <g
         id="g4188">
        <rect
           style="fill:url(#linearGradient3919);fill-opacity:1;stroke:none"
           id="rect3876-8"
           width="787.5"
           height="106.42202"
           x="8.629919e-15"
           y="72.362" />
        <rect
           style="fill:#3c6eb4;fill-opacity:1;stroke:none"
           id="rect2988-8"
           width="787.50006"
           height="48.260708"
           x="0"
           y="39.862" />
        <g
           id="g3107"
           transform="translate(-6,-6.7164789)">
          <g
             id="g3103">
            <text
               sodipodi:linespacing="125%"
               id="text3038-4"
               y="151.38145"
               x="33.75"
               style="font-size:36px;font-style:normal;font-variant:normal;font-weight:normal;font-stretch:normal;text-align:start;line-height:125%;letter-spacing:0px;word-spacing:0px;writing-mode:lr-tb;text-anchor:start;fill:#294172;fill-opacity:1;stroke:none;font-family:Comfortaa;-inkscape-font-specification:Comfortaa"
               xml:space="preserve"><tspan
                 y="151.38145"
                 x="33.75"
                 id="tspan3040-3"
                 sodipodi:role="line">Horario general</tspan></text>
          </g>
          <text
             sodipodi:linespacing="125%"
             id="text3880-1"
             y="149.38145"
             x="33.75"
             style="font-size:36px;font-style:normal;font-variant:normal;font-weight:normal;font-stretch:normal;text-align:start;line-height:125%;letter-spacing:0px;word-spacing:0px;writing-mode:lr-tb;text-anchor:start;fill:#ffffff;fill-opacity:1;stroke:none;font-family:Comfortaa;-inkscape-font-specification:Comfortaa"
             xml:space="preserve"><tspan
               y="149.38145"
               x="33.75"
               id="tspan3882-4"
               sodipodi:role="line">Horario general</tspan></text>
        </g>
        <g
           id="g3921"
           transform="matrix(0.895747,0,0,0.895747,82.250435,2.0751558)">
          <text
             xml:space="preserve"
             style="font-size:16px;font-style:normal;font-variant:normal;font-weight:normal;font-stretch:normal;text-align:end;line-height:125%;letter-spacing:0px;word-spacing:0px;writing-mode:lr-tb;text-anchor:end;fill:#ffffff;fill-opacity:1;stroke:none;font-family:Comfortaa;-inkscape-font-specification:Comfortaa"
             x="772.328"
             y="75.783913"
             id="text3864-9"
             sodipodi:linespacing="125%"><tspan
               style="font-style:normal;font-variant:normal;font-weight:normal;font-stretch:normal;font-family:MgOpen Modata;-inkscape-font-specification:MgOpen Modata"
               sodipodi:role="line"
               id="tspan3866-2"
               x="772.328"
               y="75.783913">PANAMA — <tspan
   id="tspan3143"
   style="font-style:normal;font-variant:normal;font-weight:normal;font-stretch:normal;font-family:Comfortaa;-inkscape-font-specification:Comfortaa">Mayo 26–28, 2011</tspan></tspan></text>
          <g
             transform="matrix(0.27401424,0,0,0.27401424,367.07316,24.787672)"
             id="g4574">
            <g
               id="g10149"
               transform="matrix(0.54261182,0.54261182,-0.54261182,0.54261182,-375.78941,-855.31619)"
               inkscape:export-filename="/home/duffy/Resources/FedoraLogo.tar.gz_FILES/fudcon-logo-template.png"
               inkscape:export-xdpi="90"
               inkscape:export-ydpi="90"
               style="fill:#294172;fill-opacity:1">
              <path
                 inkscape:connector-curvature="0"
                 style="fill:#294172;fill-opacity:1;stroke:none"
                 d="m 1712.0577,188.6514 c -7.1795,-0.005 -14.3886,2.72004 -19.8757,8.18802 l -17.1685,17.16841 c -1.5485,1.54851 -1.5511,4.06164 0,5.61274 l 17.0364,17.03637 c 10.968,10.96799 28.9194,10.9693 39.8836,-1e-5 10.9693,-10.9693 10.902,-28.84951 -0.066,-39.81751 -5.4771,-5.47696 -12.6302,-8.18289 -19.8098,-8.18802 z"
                 id="path10151" />
              <path
                 inkscape:connector-curvature="0"
                 id="path10153"
                 d="m 1622.6216,288.38298 c -0.01,-10.22385 3.8733,-20.4896 11.6598,-28.30352 l 24.4483,-24.44822 c 2.2051,-2.20513 5.7839,-2.20876 7.9926,-3e-5 l 24.2603,24.26018 c 15.6187,15.61874 15.6205,41.18191 0,56.79511 -15.6206,15.62055 -41.0824,15.52469 -56.7012,-0.094 -7.7992,-7.79931 -11.6526,-17.98562 -11.6598,-28.20949 z"
                 style="fill:#294172;fill-opacity:1;stroke:none" />
              <path
                 inkscape:connector-curvature="0"
                 style="fill:#294172;fill-opacity:1;stroke:none"
                 d="m 1613.2612,244.88341 c 7.1795,0.005 14.3885,-2.72005 19.8757,-8.18802 l 17.1685,-17.16841 c 1.5485,-1.54851 1.5509,-4.06165 0,-5.61274 l -17.0364,-17.03637 c -10.968,-10.96799 -28.9194,-10.9693 -39.8836,1e-5 -10.9693,10.9693 -10.902,28.84951 0.066,39.81751 5.477,5.47696 12.6302,8.18288 19.8098,8.18802 z"
                 id="path10155" />
              <path
                 inkscape:connector-curvature="0"
                 id="path10157"
                 d="m 1702.6973,147.3905 c 0.01,10.22385 -3.8733,20.4896 -11.6599,28.30352 l -24.4482,24.44822 c -2.2051,2.20513 -5.7839,2.20876 -7.9926,3e-5 l -24.2603,-24.26018 c -15.6187,-15.61874 -15.6205,-41.18191 0,-56.79511 15.6206,-15.62055 41.0824,-15.52469 56.7011,0.094 7.7993,7.79931 11.6527,17.98562 11.6599,28.20949 z"
                 style="fill:#294172;fill-opacity:1;stroke:none" />
            </g>
            <text
               id="text10159"
               y="187.23965"
               x="496.81644"
               style="font-size:80.85561371px;font-style:normal;font-weight:normal;fill:#0a57a4;fill-opacity:1;stroke:none;font-family:Bitstream Vera Sans"
               xml:space="preserve"
               inkscape:export-filename="/home/duffy/Resources/FedoraLogo.tar.gz_FILES/fudcon-logo-template.png"
               inkscape:export-xdpi="90"
               inkscape:export-ydpi="90"><tspan
                 style="font-weight:bold;letter-spacing:-2.43262696;fill:#ffffff;fill-opacity:1;font-family:MgOpen Modata"
                 y="187.23965"
                 x="496.81644"
                 id="tspan10161"
                 sodipodi:role="line">fud</tspan></text>
            <text
               xml:space="preserve"
               style="font-size:80.85561371px;font-style:normal;font-weight:normal;fill:#0a57a4;fill-opacity:1;stroke:none;font-family:Bitstream Vera Sans"
               x="604.94031"
               y="187.23965"
               id="text10165"
               inkscape:export-filename="/home/duffy/Resources/FedoraLogo.tar.gz_FILES/fudcon-logo-template.png"
               inkscape:export-xdpi="90"
               inkscape:export-ydpi="90"><tspan
                 sodipodi:role="line"
                 id="tspan10167"
                 x="604.94031"
                 y="187.23965"
                 style="letter-spacing:-2.43262696;fill:#ffffff;fill-opacity:1;font-family:MgOpen Modata"> con</tspan></text>
          </g>
        </g>
        <g
           id="g10149-7-7"
           transform="matrix(-0.17009374,0.47039044,-0.47039044,-0.17009374,558.32954,-605.71297)"
           inkscape:export-filename="/home/duffy/Resources/FedoraLogo.tar.gz_FILES/fudcon-logo-template.png"
           inkscape:export-xdpi="90"
           inkscape:export-ydpi="90"
           style="opacity:0.12107622;fill:#ffffff;fill-opacity:1">
          <path
             inkscape:connector-curvature="0"
             style="fill:#ffffff;fill-opacity:1;stroke:none"
             d="m 1712.0577,188.6514 c -7.1795,-0.005 -14.3886,2.72004 -19.8757,8.18802 l -17.1685,17.16841 c -1.5485,1.54851 -1.5511,4.06164 0,5.61274 l 17.0364,17.03637 c 10.968,10.96799 28.9194,10.9693 39.8836,-1e-5 10.9693,-10.9693 10.902,-28.84951 -0.066,-39.81751 -5.4771,-5.47696 -12.6302,-8.18289 -19.8098,-8.18802 z"
             id="path10151-8-7" />
          <path
             inkscape:connector-curvature="0"
             id="path10153-6-1"
             d="m 1622.6216,288.38298 c -0.01,-10.22385 3.8733,-20.4896 11.6598,-28.30352 l 24.4483,-24.44822 c 2.2051,-2.20513 5.7839,-2.20876 7.9926,-3e-5 l 24.2603,24.26018 c 15.6187,15.61874 15.6205,41.18191 0,56.79511 -15.6206,15.62055 -41.0824,15.52469 -56.7012,-0.094 -7.7992,-7.79931 -11.6526,-17.98562 -11.6598,-28.20949 z"
             style="fill:#ffffff;fill-opacity:1;stroke:none" />
          <path
             inkscape:connector-curvature="0"
             style="fill:#ffffff;fill-opacity:1;stroke:none"
             d="m 1613.2612,244.88341 c 7.1795,0.005 14.3885,-2.72005 19.8757,-8.18802 l 17.1685,-17.16841 c 1.5485,-1.54851 1.5509,-4.06165 0,-5.61274 l -17.0364,-17.03637 c -10.968,-10.96799 -28.9194,-10.9693 -39.8836,1e-5 -10.9693,10.9693 -10.902,28.84951 0.066,39.81751 5.477,5.47696 12.6302,8.18288 19.8098,8.18802 z"
             id="path10155-8-1" />
          <path
             inkscape:connector-curvature="0"
             id="path10157-8-5"
             d="m 1702.6973,147.3905 c 0.01,10.22385 -3.8733,20.4896 -11.6599,28.30352 l -24.4482,24.44822 c -2.2051,2.20513 -5.7839,2.20876 -7.9926,3e-5 l -24.2603,-24.26018 c -15.6187,-15.61874 -15.6205,-41.18191 0,-56.79511 15.6206,-15.62055 41.0824,-15.52469 56.7011,0.094 7.7993,7.79931 11.6527,17.98562 11.6599,28.20949 z"
             style="fill:#ffffff;fill-opacity:1;stroke:none" />
        </g>
        <g
           id="g10149-7-7-9"
           transform="matrix(0.18557564,0.22022249,-0.22022249,0.18557564,-21.988827,-263.7065)"
           inkscape:export-filename="/home/duffy/Resources/FedoraLogo.tar.gz_FILES/fudcon-logo-template.png"
           inkscape:export-xdpi="90"
           inkscape:export-ydpi="90"
           style="opacity:0.103139;fill:#ffffff;fill-opacity:1">
          <path
             inkscape:connector-curvature="0"
             style="fill:#ffffff;fill-opacity:1;stroke:none"
             d="m 1712.0577,188.6514 c -7.1795,-0.005 -14.3886,2.72004 -19.8757,8.18802 l -17.1685,17.16841 c -1.5485,1.54851 -1.5511,4.06164 0,5.61274 l 17.0364,17.03637 c 10.968,10.96799 28.9194,10.9693 39.8836,-1e-5 10.9693,-10.9693 10.902,-28.84951 -0.066,-39.81751 -5.4771,-5.47696 -12.6302,-8.18289 -19.8098,-8.18802 z"
             id="path10151-8-7-7" />
          <path
             inkscape:connector-curvature="0"
             id="path10153-6-1-7"
             d="m 1622.6216,288.38298 c -0.01,-10.22385 3.8733,-20.4896 11.6598,-28.30352 l 24.4483,-24.44822 c 2.2051,-2.20513 5.7839,-2.20876 7.9926,-3e-5 l 24.2603,24.26018 c 15.6187,15.61874 15.6205,41.18191 0,56.79511 -15.6206,15.62055 -41.0824,15.52469 -56.7012,-0.094 -7.7992,-7.79931 -11.6526,-17.98562 -11.6598,-28.20949 z"
             style="fill:#ffffff;fill-opacity:1;stroke:none" />
          <path
             inkscape:connector-curvature="0"
             style="fill:#ffffff;fill-opacity:1;stroke:none"
             d="m 1613.2612,244.88341 c 7.1795,0.005 14.3885,-2.72005 19.8757,-8.18802 l 17.1685,-17.16841 c 1.5485,-1.54851 1.5509,-4.06165 0,-5.61274 l -17.0364,-17.03637 c -10.968,-10.96799 -28.9194,-10.9693 -39.8836,1e-5 -10.9693,10.9693 -10.902,28.84951 0.066,39.81751 5.477,5.47696 12.6302,8.18288 19.8098,8.18802 z"
             id="path10155-8-1-6" />
          <path
             inkscape:connector-curvature="0"
             id="path10157-8-5-7"
             d="m 1702.6973,147.3905 c 0.01,10.22385 -3.8733,20.4896 -11.6599,28.30352 l -24.4482,24.44822 c -2.2051,2.20513 -5.7839,2.20876 -7.9926,3e-5 l -24.2603,-24.26018 c -15.6187,-15.61874 -15.6205,-41.18191 0,-56.79511 15.6206,-15.62055 41.0824,-15.52469 56.7011,0.094 7.7993,7.79931 11.6527,17.98562 11.6599,28.20949 z"
             style="fill:#ffffff;fill-opacity:1;stroke:none" />
        </g>
        <g
           id="g10149-7-7-9-3"
           transform="matrix(-0.0809773,0.22394092,-0.22394092,-0.0809773,466.74566,-213.56262)"
           inkscape:export-filename="/home/duffy/Resources/FedoraLogo.tar.gz_FILES/fudcon-logo-template.png"
           inkscape:export-xdpi="90"
           inkscape:export-ydpi="90"
           style="opacity:0.07623321;fill:#ffffff;fill-opacity:1">
          <path
             inkscape:connector-curvature="0"
             style="fill:#ffffff;fill-opacity:1;stroke:none"
             d="m 1712.0577,188.6514 c -7.1795,-0.005 -14.3886,2.72004 -19.8757,8.18802 l -17.1685,17.16841 c -1.5485,1.54851 -1.5511,4.06164 0,5.61274 l 17.0364,17.03637 c 10.968,10.96799 28.9194,10.9693 39.8836,-1e-5 10.9693,-10.9693 10.902,-28.84951 -0.066,-39.81751 -5.4771,-5.47696 -12.6302,-8.18289 -19.8098,-8.18802 z"
             id="path10151-8-7-7-1" />
          <path
             inkscape:connector-curvature="0"
             id="path10153-6-1-7-7"
             d="m 1622.6216,288.38298 c -0.01,-10.22385 3.8733,-20.4896 11.6598,-28.30352 l 24.4483,-24.44822 c 2.2051,-2.20513 5.7839,-2.20876 7.9926,-3e-5 l 24.2603,24.26018 c 15.6187,15.61874 15.6205,41.18191 0,56.79511 -15.6206,15.62055 -41.0824,15.52469 -56.7012,-0.094 -7.7992,-7.79931 -11.6526,-17.98562 -11.6598,-28.20949 z"
             style="fill:#ffffff;fill-opacity:1;stroke:none" />
          <path
             inkscape:connector-curvature="0"
             style="fill:#ffffff;fill-opacity:1;stroke:none"
             d="m 1613.2612,244.88341 c 7.1795,0.005 14.3885,-2.72005 19.8757,-8.18802 l 17.1685,-17.16841 c 1.5485,-1.54851 1.5509,-4.06165 0,-5.61274 l -17.0364,-17.03637 c -10.968,-10.96799 -28.9194,-10.9693 -39.8836,1e-5 -10.9693,10.9693 -10.902,28.84951 0.066,39.81751 5.477,5.47696 12.6302,8.18288 19.8098,8.18802 z"
             id="path10155-8-1-6-5" />
          <path
             inkscape:connector-curvature="0"
             id="path10157-8-5-7-9"
             d="m 1702.6973,147.3905 c 0.01,10.22385 -3.8733,20.4896 -11.6599,28.30352 l -24.4482,24.44822 c -2.2051,2.20513 -5.7839,2.20876 -7.9926,3e-5 l -24.2603,-24.26018 c -15.6187,-15.61874 -15.6205,-41.18191 0,-56.79511 15.6206,-15.62055 41.0824,-15.52469 56.7011,0.094 7.7993,7.79931 11.6527,17.98562 11.6599,28.20949 z"
             style="fill:#ffffff;fill-opacity:1;stroke:none" />
        </g>
        <g
           id="g10149-7-7-9-3-9"
           transform="matrix(0.02663737,0.23663751,-0.23663751,0.02663737,348.13711,-252.64738)"
           inkscape:export-filename="/home/duffy/Resources/FedoraLogo.tar.gz_FILES/fudcon-logo-template.png"
           inkscape:export-xdpi="90"
           inkscape:export-ydpi="90"
           style="opacity:0.07623321;fill:#ffffff;fill-opacity:1">
          <path
             inkscape:connector-curvature="0"
             style="fill:#ffffff;fill-opacity:1;stroke:none"
             d="m 1712.0577,188.6514 c -7.1795,-0.005 -14.3886,2.72004 -19.8757,8.18802 l -17.1685,17.16841 c -1.5485,1.54851 -1.5511,4.06164 0,5.61274 l 17.0364,17.03637 c 10.968,10.96799 28.9194,10.9693 39.8836,-1e-5 10.9693,-10.9693 10.902,-28.84951 -0.066,-39.81751 -5.4771,-5.47696 -12.6302,-8.18289 -19.8098,-8.18802 z"
             id="path10151-8-7-7-1-6" />
          <path
             inkscape:connector-curvature="0"
             id="path10153-6-1-7-7-4"
             d="m 1622.6216,288.38298 c -0.01,-10.22385 3.8733,-20.4896 11.6598,-28.30352 l 24.4483,-24.44822 c 2.2051,-2.20513 5.7839,-2.20876 7.9926,-3e-5 l 24.2603,24.26018 c 15.6187,15.61874 15.6205,41.18191 0,56.79511 -15.6206,15.62055 -41.0824,15.52469 -56.7012,-0.094 -7.7992,-7.79931 -11.6526,-17.98562 -11.6598,-28.20949 z"
             style="fill:#ffffff;fill-opacity:1;stroke:none" />
          <path
             inkscape:connector-curvature="0"
             style="fill:#ffffff;fill-opacity:1;stroke:none"
             d="m 1613.2612,244.88341 c 7.1795,0.005 14.3885,-2.72005 19.8757,-8.18802 l 17.1685,-17.16841 c 1.5485,-1.54851 1.5509,-4.06165 0,-5.61274 l -17.0364,-17.03637 c -10.968,-10.96799 -28.9194,-10.9693 -39.8836,1e-5 -10.9693,10.9693 -10.902,28.84951 0.066,39.81751 5.477,5.47696 12.6302,8.18288 19.8098,8.18802 z"
             id="path10155-8-1-6-5-3" />
          <path
             inkscape:connector-curvature="0"
             id="path10157-8-5-7-9-3"
             d="m 1702.6973,147.3905 c 0.01,10.22385 -3.8733,20.4896 -11.6599,28.30352 l -24.4482,24.44822 c -2.2051,2.20513 -5.7839,2.20876 -7.9926,3e-5 l -24.2603,-24.26018 c -15.6187,-15.61874 -15.6205,-41.18191 0,-56.79511 15.6206,-15.62055 41.0824,-15.52469 56.7011,0.094 7.7993,7.79931 11.6527,17.98562 11.6599,28.20949 z"
             style="fill:#ffffff;fill-opacity:1;stroke:none" />
        </g>
      </g>
    </g>
  </g>
</svg>
