<?xml version="1.0" encoding="UTF-8" standalone="no"?>
<!-- Created with Inkscape (http://www.inkscape.org/) -->

<svg
   xmlns:dc="http://purl.org/dc/elements/1.1/"
   xmlns:cc="http://creativecommons.org/ns#"
   xmlns:rdf="http://www.w3.org/1999/02/22-rdf-syntax-ns#"
   xmlns:svg="http://www.w3.org/2000/svg"
   xmlns="http://www.w3.org/2000/svg"
   xmlns:sodipodi="http://sodipodi.sourceforge.net/DTD/sodipodi-0.dtd"
   xmlns:inkscape="http://www.inkscape.org/namespaces/inkscape"
   width="359"
   height="538"
   id="svg2"
   sodipodi:version="0.32"
   inkscape:version="0.47 r22583"
   version="1.0"
   sodipodi:docname="edubunto.svg"
   inkscape:output_extension="org.inkscape.output.svg.inkscape"
   inkscape:export-filename="/home/nicu/Desktop/poweredby_sticker_classic.png"
   inkscape:export-xdpi="32.09"
   inkscape:export-ydpi="32.09"
   sodipodi:modified="TRUE">
  <defs
     id="defs4">
    <inkscape:perspective
       sodipodi:type="inkscape:persp3d"
       inkscape:vp_x="0 : 269 : 1"
       inkscape:vp_y="0 : 1000 : 0"
       inkscape:vp_z="359 : 269 : 1"
       inkscape:persp3d-origin="179.5 : 179.33333 : 1"
       id="perspective2910" />
    <inkscape:perspective
       id="perspective6833"
       inkscape:persp3d-origin="0.5 : 0.33333333 : 1"
       inkscape:vp_z="1 : 0.5 : 1"
       inkscape:vp_y="0 : 1000 : 0"
       inkscape:vp_x="0 : 0.5 : 1"
       sodipodi:type="inkscape:persp3d" />
  </defs>
  <sodipodi:namedview
     id="base"
     pagecolor="#ffffff"
     bordercolor="#666666"
     borderopacity="1.0"
     gridtolerance="10000"
     guidetolerance="10"
     objecttolerance="10"
     inkscape:pageopacity="0.0"
     inkscape:pageshadow="2"
     inkscape:zoom="1"
     inkscape:cx="256.42086"
     inkscape:cy="342.99463"
     inkscape:document-units="px"
     inkscape:current-layer="layer1"
     width="359px"
     height="538px"
     inkscape:window-width="802"
     inkscape:window-height="723"
     inkscape:window-x="185"
     inkscape:window-y="24"
     showgrid="false"
     showguides="true"
     inkscape:guide-bbox="true"
     inkscape:window-maximized="0" />
  <metadata
     id="metadata7">
    <rdf:RDF>
      <cc:Work
         rdf:about="">
        <dc:format>image/svg+xml</dc:format>
        <dc:type
           rdf:resource="http://purl.org/dc/dcmitype/StillImage" />
        <dc:title />
      </cc:Work>
    </rdf:RDF>
  </metadata>
  <g
     inkscape:label="Layer 1"
     inkscape:groupmode="layer"
     id="layer1">
    <rect
       style="opacity: 1; fill: rgb(255, 255, 255); fill-opacity: 1; stroke: rgb(0, 0, 0); stroke-width: 7; stroke-linecap: round; stroke-linejoin: bevel; stroke-miterlimit: 4; stroke-dasharray: none; stroke-dashoffset: 0pt; stroke-opacity: 1;"
       id="rect5410"
       width="352"
       height="531"
       x="3.5000002"
       y="3.4999647"
       ry="24.060823" />
    <path
       style="font-size:26.28389999999999915px;font-style:normal;font-weight:normal;fill:#800000;fill-opacity:1;stroke:none;stroke-width:1px;stroke-linecap:butt;stroke-linejoin:miter;stroke-opacity:1;font-family:Bitstream Vera Sans"
       d="M 27.831015,354.27895 L 27.831015,361.4788 L 31.090838,361.4788 C 32.297219,361.47881 33.229818,361.16651 33.888638,360.54192 C 34.547436,359.91734 34.87684,359.02752 34.876852,357.87246 C 34.87684,356.72597 34.547436,355.84043 33.888638,355.21583 C 33.229818,354.59126 32.297219,354.27897 31.090838,354.27895 L 27.831015,354.27895 M 25.238557,352.14852 L 31.090838,352.14852 C 33.238374,352.14854 34.859728,352.63622 35.954904,353.61159 C 37.058609,354.57843 37.610468,355.99872 37.610483,357.87246 C 37.610468,359.76334 37.058609,361.19218 35.954904,362.159 C 34.859728,363.12583 33.238374,363.60924 31.090838,363.60923 L 27.831015,363.60923 L 27.831015,371.3096 L 25.238557,371.3096 L 25.238557,352.14852 M 45.644535,358.59116 C 44.378245,358.59117 43.377198,359.08742 42.641391,360.0799 C 41.905574,361.06384 41.537668,362.41568 41.537672,364.13542 C 41.537668,365.85518 41.901296,367.2113 42.628557,368.20379 C 43.364365,369.18772 44.369689,369.67969 45.644535,369.67969 C 46.902253,369.67969 47.899022,369.18345 48.634845,368.19095 C 49.370646,367.19846 49.738552,365.84662 49.738565,364.13542 C 49.738552,362.4328 49.370646,361.08523 48.634845,360.09273 C 47.899022,359.09169 46.902253,358.59117 45.644535,358.59116 M 45.644535,356.58906 C 47.697957,356.58908 49.310755,357.25644 50.482934,358.59116 C 51.655087,359.9259 52.24117,361.77399 52.241185,364.13542 C 52.24117,366.48832 51.655087,368.33641 50.482934,369.67969 C 49.310755,371.01442 47.697957,371.68178 45.644535,371.68179 C 43.582541,371.68178 41.965466,371.01442 40.793303,369.67969 C 39.629689,368.33641 39.047884,366.48832 39.047886,364.13542 C 39.047884,361.77399 39.629689,359.9259 40.793303,358.59116 C 41.965466,357.25644 43.582541,356.58908 45.644535,356.58906 M 54.769474,356.93558 L 57.13092,356.93558 L 60.082728,368.15245 L 63.021703,356.93558 L 65.806669,356.93558 L 68.758477,368.15245 L 71.697452,356.93558 L 74.058898,356.93558 L 70.298551,371.3096 L 67.513584,371.3096 L 64.420603,359.52804 L 61.314787,371.3096 L 58.529821,371.3096 L 54.769474,356.93558 M 89.947326,363.53223 L 89.947326,364.68728 L 79.089805,364.68728 C 79.192473,366.31292 79.680163,367.55354 80.552876,368.40913 C 81.434134,369.25617 82.657636,369.67969 84.223385,369.67969 C 85.130307,369.67969 86.007293,369.56846 86.854344,369.34601 C 87.709928,369.12355 88.556968,368.78987 89.395466,368.34496 L 89.395466,370.57807 C 88.548412,370.93742 87.679982,371.21121 86.790174,371.39944 C 85.900343,371.58767 84.99769,371.68178 84.082211,371.68179 C 81.789206,371.68178 79.971065,371.01442 78.627783,369.67969 C 77.293051,368.34496 76.625686,366.53965 76.625687,364.26376 C 76.625686,361.91088 77.258827,360.04568 78.525112,358.66816 C 79.799946,357.28211 81.515415,356.58908 83.671525,356.58906 C 85.605163,356.58908 87.132401,357.21366 88.253245,358.46282 C 89.382618,359.70345 89.947311,361.39325 89.947326,363.53223 M 87.585879,362.83919 C 87.568755,361.54725 87.205127,360.51626 86.494994,359.74621 C 85.793394,358.97619 84.860795,358.59117 83.697193,358.59116 C 82.379567,358.59117 81.322906,358.96335 80.527208,359.70771 C 79.740054,360.45209 79.286589,361.5002 79.166809,362.85203 L 87.585879,362.83919 M 102.10107,359.14302 C 101.83583,358.98902 101.54493,358.8778 101.22837,358.80934 C 100.92034,358.73234 100.5781,358.69384 100.20165,358.69383 C 98.866911,358.69384 97.840197,359.1302 97.121502,360.00289 C 96.411352,360.86706 96.056279,362.11195 96.056284,363.73757 L 96.056284,371.3096 L 93.682004,371.3096 L 93.682004,356.93558 L 96.056284,356.93558 L 96.056284,359.16869 C 96.552525,358.29599 97.1985,357.65002 97.99421,357.23076 C 98.789908,356.80298 99.756731,356.58908 100.89468,356.58906 C 101.05724,356.58908 101.23691,356.60191 101.43371,356.62756 C 101.63049,356.64469 101.84866,356.67464 102.08824,356.7174 L 102.10107,359.14302 M 116.28258,363.53223 L 116.28258,364.68728 L 105.42506,364.68728 C 105.52773,366.31292 106.01542,367.55354 106.88813,368.40913 C 107.76939,369.25617 108.99289,369.67969 110.55864,369.67969 C 111.46557,369.67969 112.34255,369.56846 113.1896,369.34601 C 114.04519,369.12355 114.89223,368.78987 115.73072,368.34496 L 115.73072,370.57807 C 114.88367,370.93742 114.01524,371.21121 113.12543,371.39944 C 112.2356,371.58767 111.33295,371.68178 110.41747,371.68179 C 108.12446,371.68178 106.30632,371.01442 104.96304,369.67969 C 103.62831,368.34496 102.96094,366.53965 102.96095,364.26376 C 102.96094,361.91088 103.59409,360.04568 104.86037,358.66816 C 106.1352,357.28211 107.85067,356.58908 110.00678,356.58906 C 111.94042,356.58908 113.46766,357.21366 114.5885,358.46282 C 115.71788,359.70345 116.28257,361.39325 116.28258,363.53223 M 113.92114,362.83919 C 113.90401,361.54725 113.54039,360.51626 112.83025,359.74621 C 112.12865,358.97619 111.19605,358.59117 110.03245,358.59116 C 108.71483,358.59117 107.65816,358.96335 106.86247,359.70771 C 106.07531,360.45209 105.62185,361.5002 105.50207,362.85203 L 113.92114,362.83919 M 129.56572,359.11735 L 129.56572,351.33998 L 131.92717,351.33998 L 131.92717,371.3096 L 129.56572,371.3096 L 129.56572,369.1535 C 129.06946,370.0091 128.4406,370.64651 127.67913,371.06576 C 126.9262,371.47644 126.01926,371.68178 124.95833,371.68179 C 123.22147,371.68178 121.80545,370.98875 120.7103,369.60269 C 119.62369,368.21662 119.08038,366.3942 119.08038,364.13542 C 119.08038,361.87666 119.62369,360.05424 120.7103,358.66816 C 121.80545,357.28211 123.22147,356.58908 124.95833,356.58906 C 126.01926,356.58908 126.9262,356.7987 127.67913,357.21793 C 128.4406,357.62863 129.06946,358.26177 129.56572,359.11735 M 121.51883,364.13542 C 121.51883,365.87229 121.8739,367.23697 122.58405,368.22945 C 123.30275,369.21339 124.28668,369.70536 125.53586,369.70536 C 126.78502,369.70536 127.76896,369.21339 128.48767,368.22945 C 129.20636,367.23697 129.56571,365.87229 129.56572,364.13542 C 129.56571,362.39857 129.20636,361.03817 128.48767,360.05423 C 127.76896,359.06175 126.78502,358.5655 125.53586,358.56549 C 124.28668,358.5655 123.30275,359.06175 122.58405,360.05423 C 121.8739,361.03817 121.51883,362.39857 121.51883,364.13542 M 147.8541,362.159 L 147.8541,369.17917 L 152.0123,369.17917 C 153.40691,369.17917 154.43791,368.89254 155.10528,368.31929 C 155.78119,367.73749 156.11915,366.85195 156.11916,365.66266 C 156.11915,364.46484 155.78119,363.58357 155.10528,363.01887 C 154.43791,362.44563 153.40691,362.159 152.0123,362.159 L 147.8541,362.159 M 147.8541,354.27895 L 147.8541,360.05423 L 151.69145,360.05423 C 152.95772,360.05424 153.89888,359.81895 154.51492,359.34836 C 155.13949,358.86924 155.45179,358.14198 155.4518,357.16659 C 155.45179,356.19978 155.13949,355.4768 154.51492,354.99765 C 153.89888,354.51854 152.95772,354.27897 151.69145,354.27895 L 147.8541,354.27895 M 145.26164,352.14852 L 151.88396,352.14852 C 153.86038,352.14854 155.38334,352.55922 156.45285,353.38058 C 157.52233,354.20196 158.05707,355.36985 158.05709,356.88424 C 158.05707,358.05642 157.78328,358.98902 157.23572,359.68204 C 156.68812,360.37509 155.88386,360.80716 154.82294,360.97827 C 156.09776,361.25207 157.08597,361.82532 157.78758,362.69802 C 158.49771,363.56218 158.85278,364.64451 158.85279,365.94501 C 158.85278,367.65621 158.27097,368.9781 157.10738,369.9107 C 155.94375,370.8433 154.28818,371.3096 152.14064,371.3096 L 145.26164,371.3096 L 145.26164,352.14852 M 169.15845,372.64433 C 168.49108,374.35552 167.84083,375.47207 167.20769,375.99399 C 166.57454,376.5159 165.7275,376.77686 164.66657,376.77686 L 162.77998,376.77686 L 162.77998,374.80043 L 164.16605,374.80043 C 164.8163,374.80043 165.3211,374.64642 165.68045,374.33841 C 166.0398,374.0304 166.43765,373.30314 166.87401,372.15664 L 167.29753,371.07859 L 161.48375,356.93558 L 163.98637,356.93558 L 168.47825,368.17812 L 172.97013,356.93558 L 175.47275,356.93558 L 169.15845,372.64433"
       id="text4436" />
    <rect
       style="opacity: 1; fill: rgb(0, 0, 0); fill-opacity: 1; stroke: rgb(0, 0, 0); stroke-width: 2; stroke-linecap: round; stroke-linejoin: bevel; stroke-miterlimit: 4; stroke-dasharray: none; stroke-dashoffset: 0pt; stroke-opacity: 1;"
       id="rect3148"
       width="353"
       height="4.9999995"
       x="4"
       y="388.99997" />
    <g
       transform="matrix(3.2324825,0,0,-3.1952687,-608.54994,1676.1307)"
       id="g18360-5">
      <path
         d="m 208.857,474.712 c 5.071,0 9.205,-4.135 9.205,-9.205 0,-5.071 -4.134,-9.205 -9.205,-9.205 -5.069,0 -9.204,4.134 -9.204,9.205 0,5.07 4.135,9.205 9.204,9.205 z m 41.012,27.261 c 2.27,0 4.491,-0.217 6.646,-0.627 -0.036,-0.391 -0.056,-0.787 -0.056,-1.187 0,-7.068 5.764,-12.832 12.83,-12.832 2.775,0 5.346,0.888 7.449,2.395 4.885,-5.593 8.057,-12.716 8.689,-20.538 l -14.528,-0.45 c -1.215,10.519 -10.192,18.733 -21.03,18.733 -3.062,0 -5.976,-0.655 -8.608,-1.836 l -7.27,12.597 c 4.787,2.394 10.18,3.745 15.878,3.745"
         style="fill:#f04422;fill-opacity:1;fill-rule:evenodd;stroke:none"
         id="path18345-0" />
      <path
         d="m 269.782,439.567 c 5.069,0 9.203,-4.134 9.203,-9.205 0,-5.069 -4.134,-9.205 -9.203,-9.205 -5.07,0 -9.205,4.136 -9.205,9.205 0,5.071 4.135,9.205 9.205,9.205 z m -40.269,-2.535 c -6.203,4.33 -10.976,10.576 -13.447,17.87 3.389,2.315 5.623,6.207 5.623,10.605 0,4.574 -2.415,8.601 -6.035,10.875 2.283,7.72 7.118,14.364 13.523,18.947 l 7.658,-12.37 c -4.947,-3.88 -8.135,-9.912 -8.135,-16.662 0,-6.692 3.133,-12.675 8.007,-16.558 l -7.194,-12.707"
         style="fill:#f6a71b;fill-opacity:1;fill-rule:evenodd;stroke:none"
         id="path18347-3" />
      <path
         d="m 285.454,463.783 c -0.596,-8.507 -4.198,-16.21 -9.749,-22.045 -1.774,0.928 -3.789,1.455 -5.923,1.455 -6.738,0 -12.294,-5.241 -12.794,-11.854 -2.303,-0.469 -4.682,-0.717 -7.119,-0.717 -5.586,0 -10.88,1.297 -15.594,3.604 l 7.239,12.627 c 2.566,-1.11 5.391,-1.727 8.355,-1.727 10.889,0 19.901,8.294 21.048,18.886 l 14.537,-0.229 z m -16.165,45.58 c 5.071,0 9.205,-4.135 9.205,-9.204 0,-5.071 -4.134,-9.205 -9.205,-9.205 -5.069,0 -9.204,4.134 -9.204,9.205 0,5.069 4.135,9.204 9.204,9.204"
         style="fill:#e91b28;fill-opacity:1;fill-rule:evenodd;stroke:none"
         id="path18349-0" />
    </g>
    <path
       style="color:#000000;fill:#aa0000;fill-opacity:1;fill-rule:nonzero;stroke:none;stroke-width:1px;marker:none;visibility:visible;display:inline;overflow:visible;enable-background:accumulate"
       d="M 22.547263,536.87026 C 14.046107,535.17045 6.6403991,529.20358 2.8435881,520.99476 l -2.12272479,-4.58939 0,-247.5 0,-247.5 2.12415629,-4.5 C 5.6413197,10.981441 10.561087,6.1446478 16.720863,3.2635479 l 5,-2.3386401 157.999997,0 158,0 5.00728,2.331772 c 5.16366,2.4045954 10.13388,7.2576132 13.22402,12.9121882 1.67604,3.06694 1.783,16.229363 2.04173,251.236502 0.25339,230.1554 0.15224,248.31957 -1.40578,252.44135 -2.29064,6.05993 -8.35403,12.35326 -14.6402,15.19538 l -5.22705,2.36327 -155,0.1497 c -85.249997,0.0823 -156.878117,-0.22582 -159.173597,-0.68481 z m 318.173597,-7.61757 c 5.02071,-2.702 7.97178,-5.83886 9.95227,-10.57885 1.33865,-3.20383 1.54773,-11.81392 1.54773,-63.73635 l 0,-60.03212 -173.03667,0 -173.0366589,0 0.2866661,60.75 0.2866661,60.75 2.426416,4.23626 c 2.8530287,4.98107 7.9899597,8.81677 13.5755077,10.1367 2.435133,0.57546 64.591275,0.88269 158.998073,0.78592 l 155,-0.15888 4,-2.15268 0,0 z M 352.1989,205.65537 C 352.1778,29.633697 352.10412,22.247589 350.33082,18.40537 348.09656,13.564394 344.93079,10.517772 339.98933,8.4530978 336.6993,7.0784334 318.7334,6.90537 179.31808,6.90537 81.981605,6.90537 21.396461,7.2683089 19.83824,7.8607434 18.456187,8.3861988 15.504466,10.461237 13.278859,12.471939 5.6971801,19.321531 6.2208633,4.8445595 6.2208633,207.58687 l 0,181.3185 172.9999967,0 173,0 -0.022,-183.25 4e-5,0 z"
       id="path6856" />
    <path
       style="color:#000000;fill:#3494da;fill-opacity:1;fill-rule:nonzero;stroke:none;stroke-width:1px;marker:none;visibility:visible;display:inline;overflow:visible;enable-background:accumulate"
       d=""
       id="path6858" />
    <text
       xml:space="preserve"
       style="font-size:40px;font-style:normal;font-variant:normal;font-weight:bold;font-stretch:normal;fill:#000000;fill-opacity:1;stroke:none;font-family:Ubuntu-Title;-inkscape-font-specification:Ubuntu-Title Medium"
       x="26"
       y="489"
       id="text2832"><tspan
         sodipodi:role="line"
         id="tspan2834"
         x="26"
         y="489"
         style="font-size:100px">Edubuntu</tspan></text>
  </g>
</svg>
