<?xml version="1.0" encoding="UTF-8" standalone="no"?>
<!-- Created with Inkscape (http://www.inkscape.org/) -->

<svg
   xmlns:i="http://ns.adobe.com/AdobeIllustrator/10.0/"
   xmlns:dc="http://purl.org/dc/elements/1.1/"
   xmlns:cc="http://creativecommons.org/ns#"
   xmlns:rdf="http://www.w3.org/1999/02/22-rdf-syntax-ns#"
   xmlns:svg="http://www.w3.org/2000/svg"
   xmlns="http://www.w3.org/2000/svg"
   xmlns:xlink="http://www.w3.org/1999/xlink"
   xmlns:sodipodi="http://sodipodi.sourceforge.net/DTD/sodipodi-0.dtd"
   xmlns:inkscape="http://www.inkscape.org/namespaces/inkscape"
   width="787.5"
   height="1012.5"
   id="svg2"
   version="1.1"
   inkscape:version="0.48.1 r9760"
   sodipodi:docname="page1-front-cover.svg">
  <defs
     id="defs4">
    <foreignObject
       id="foreignObject2608"
       height="1"
       width="1"
       y="0"
       x="0"
       requiredExtensions="http://ns.adobe.com/AdobeIllustrator/10.0/">
      <i:pgfRef
         xlink:href="#adobe_illustrator_pgf" />
    </foreignObject>
    <foreignObject
       id="foreignObject2608-9"
       height="1"
       width="1"
       y="0"
       x="0"
       requiredExtensions="http://ns.adobe.com/AdobeIllustrator/10.0/">
      <i:pgfRef
         xlink:href="#adobe_illustrator_pgf" />
    </foreignObject>
    <foreignObject
       requiredExtensions="http://ns.adobe.com/AdobeIllustrator/10.0/"
       x="0"
       y="0"
       width="1"
       height="1"
       id="foreignObject2608-3">
      <i:pgfRef
         xlink:href="#adobe_illustrator_pgf" />
    </foreignObject>
  </defs>
  <sodipodi:namedview
     id="base"
     pagecolor="#ffffff"
     bordercolor="#666666"
     borderopacity="1.0"
     inkscape:pageopacity="0.0"
     inkscape:pageshadow="2"
     inkscape:zoom="0.5"
     inkscape:cx="788.67667"
     inkscape:cy="538.64958"
     inkscape:document-units="in"
     inkscape:current-layer="layer1"
     showgrid="false"
     units="in"
     inkscape:window-width="1280"
     inkscape:window-height="720"
     inkscape:window-x="0"
     inkscape:window-y="24"
     inkscape:window-maximized="1"
     inkscape:snap-page="true"
     inkscape:snap-global="false"
     showguides="false"
     inkscape:guide-bbox="true"
     inkscape:snap-bbox="true"
     inkscape:snap-nodes="true">
    <sodipodi:guide
       position="0,11.25"
       orientation="0,1"
       id="guide2985" />
    <sodipodi:guide
       position="776.25,0"
       orientation="1,0"
       id="guide2987" />
    <sodipodi:guide
       position="787.5,1001.25"
       orientation="0,1"
       id="guide2989" />
    <sodipodi:guide
       position="11.25,1012.5"
       orientation="1,0"
       id="guide2991" />
    <sodipodi:guide
       orientation="1,0"
       position="776.25,280.01429"
       id="guide4408" />
    <sodipodi:guide
       orientation="0,1"
       position="560,956.25"
       id="guide4410" />
    <sodipodi:guide
       orientation="1,0"
       position="731.25,585.48441"
       id="guide4412" />
    <sodipodi:guide
       orientation="1,0"
       position="630,596.79812"
       id="guide4414" />
    <sodipodi:guide
       orientation="0,1"
       position="1029.5475,157.5"
       id="guide4416" />
    <sodipodi:guide
       orientation="0,1"
       position="827.31493,56.25"
       id="guide4418" />
    <sodipodi:guide
       orientation="1,0"
       position="56.25,-36.769553"
       id="guide4426" />
  </sodipodi:namedview>
  <metadata
     id="metadata7">
    <rdf:RDF>
      <cc:Work
         rdf:about="">
        <dc:format>image/svg+xml</dc:format>
        <dc:type
           rdf:resource="http://purl.org/dc/dcmitype/StillImage" />
        <dc:title />
      </cc:Work>
    </rdf:RDF>
  </metadata>
  <g
     inkscape:label="Layer 1"
     inkscape:groupmode="layer"
     id="layer1"
     transform="translate(0,-39.862)">
    <rect
       style="fill:#3c6eb4;fill-opacity:1"
       id="rect3012"
       width="787.5"
       height="1012.5"
       x="-3.5527137e-15"
       y="39.862" />
    <g
       style="opacity:0.40807178;fill:#294172;fill-opacity:1"
       inkscape:export-ydpi="90"
       inkscape:export-xdpi="90"
       inkscape:export-filename="/home/duffy/Resources/FedoraLogo.tar.gz_FILES/fudcon-logo-template.png"
       transform="matrix(1.2546161,1.2546161,-1.2546161,1.2546161,-1577.135,-1953.4694)"
       id="g10149-8">
      <path
         id="path10151-7"
         d="m 1712.0577,188.6514 c -7.1795,-0.005 -14.3886,2.72004 -19.8757,8.18802 l -17.1685,17.16841 c -1.5485,1.54851 -1.5511,4.06164 0,5.61274 l 17.0364,17.03637 c 10.968,10.96799 28.9194,10.9693 39.8836,-1e-5 10.9693,-10.9693 10.902,-28.84951 -0.066,-39.81751 -5.4771,-5.47696 -12.6302,-8.18289 -19.8098,-8.18802 z"
         style="fill:#294172;fill-opacity:1;stroke:none"
         inkscape:connector-curvature="0" />
      <path
         style="fill:#294172;fill-opacity:1;stroke:none"
         d="m 1622.6216,288.38298 c -0.01,-10.22385 3.8733,-20.4896 11.6598,-28.30352 l 24.4483,-24.44822 c 2.2051,-2.20513 5.7839,-2.20876 7.9926,-3e-5 l 24.2603,24.26018 c 15.6187,15.61874 15.6205,41.18191 0,56.79511 -15.6206,15.62055 -41.0824,15.52469 -56.7012,-0.094 -7.7992,-7.79931 -11.6526,-17.98562 -11.6598,-28.20949 z"
         id="path10153-5"
         inkscape:connector-curvature="0" />
      <path
         id="path10155-2"
         d="m 1613.2612,244.88341 c 7.1795,0.005 14.3885,-2.72005 19.8757,-8.18802 l 17.1685,-17.16841 c 1.5485,-1.54851 1.5509,-4.06165 0,-5.61274 l -17.0364,-17.03637 c -10.968,-10.96799 -28.9194,-10.9693 -39.8836,1e-5 -10.9693,10.9693 -10.902,28.84951 0.066,39.81751 5.477,5.47696 12.6302,8.18288 19.8098,8.18802 z"
         style="fill:#294172;fill-opacity:1;stroke:none"
         inkscape:connector-curvature="0" />
      <path
         style="fill:#294172;fill-opacity:1;stroke:none"
         d="m 1702.6973,147.3905 c 0.01,10.22385 -3.8733,20.4896 -11.6599,28.30352 l -24.4482,24.44822 c -2.2051,2.20513 -5.7839,2.20876 -7.9926,3e-5 l -24.2603,-24.26018 c -15.6187,-15.61874 -15.6205,-41.18191 0,-56.79511 15.6206,-15.62055 41.0824,-15.52469 56.7011,0.094 7.7993,7.79931 11.6527,17.98562 11.6599,28.20949 z"
         id="path10157-4"
         inkscape:connector-curvature="0" />
    </g>
    <g
       style="opacity:0.24401915;fill:#294172;fill-opacity:1"
       inkscape:export-ydpi="90"
       inkscape:export-xdpi="90"
       inkscape:export-filename="/home/duffy/Resources/FedoraLogo.tar.gz_FILES/fudcon-logo-template.png"
       transform="matrix(1.0201776,1.0201776,-1.0201776,1.0201776,-1100.2416,-1306.4929)"
       id="g10149-8-0">
      <path
         id="path10151-7-6"
         d="m 1712.0577,188.6514 c -7.1795,-0.005 -14.3886,2.72004 -19.8757,8.18802 l -17.1685,17.16841 c -1.5485,1.54851 -1.5511,4.06164 0,5.61274 l 17.0364,17.03637 c 10.968,10.96799 28.9194,10.9693 39.8836,-1e-5 10.9693,-10.9693 10.902,-28.84951 -0.066,-39.81751 -5.4771,-5.47696 -12.6302,-8.18289 -19.8098,-8.18802 z"
         style="fill:#294172;fill-opacity:1;stroke:none"
         inkscape:connector-curvature="0" />
      <path
         style="fill:#294172;fill-opacity:1;stroke:none"
         d="m 1622.6216,288.38298 c -0.01,-10.22385 3.8733,-20.4896 11.6598,-28.30352 l 24.4483,-24.44822 c 2.2051,-2.20513 5.7839,-2.20876 7.9926,-3e-5 l 24.2603,24.26018 c 15.6187,15.61874 15.6205,41.18191 0,56.79511 -15.6206,15.62055 -41.0824,15.52469 -56.7012,-0.094 -7.7992,-7.79931 -11.6526,-17.98562 -11.6598,-28.20949 z"
         id="path10153-5-4"
         inkscape:connector-curvature="0" />
      <path
         id="path10155-2-0"
         d="m 1613.2612,244.88341 c 7.1795,0.005 14.3885,-2.72005 19.8757,-8.18802 l 17.1685,-17.16841 c 1.5485,-1.54851 1.5509,-4.06165 0,-5.61274 l -17.0364,-17.03637 c -10.968,-10.96799 -28.9194,-10.9693 -39.8836,1e-5 -10.9693,10.9693 -10.902,28.84951 0.066,39.81751 5.477,5.47696 12.6302,8.18288 19.8098,8.18802 z"
         style="fill:#294172;fill-opacity:1;stroke:none"
         inkscape:connector-curvature="0" />
      <path
         style="fill:#294172;fill-opacity:1;stroke:none"
         d="m 1702.6973,147.3905 c 0.01,10.22385 -3.8733,20.4896 -11.6599,28.30352 l -24.4482,24.44822 c -2.2051,2.20513 -5.7839,2.20876 -7.9926,3e-5 l -24.2603,-24.26018 c -15.6187,-15.61874 -15.6205,-41.18191 0,-56.79511 15.6206,-15.62055 41.0824,-15.52469 56.7011,0.094 7.7993,7.79931 11.6527,17.98562 11.6599,28.20949 z"
         id="path10157-4-9"
         inkscape:connector-curvature="0" />
    </g>
    <g
       style="opacity:0.13004485;fill:#294172;fill-opacity:1"
       inkscape:export-ydpi="90"
       inkscape:export-xdpi="90"
       inkscape:export-filename="/home/duffy/Resources/FedoraLogo.tar.gz_FILES/fudcon-logo-template.png"
       transform="matrix(0.79387717,0.79387717,-0.79387717,0.79387717,-690.04307,-711.14091)"
       id="g10149-8-0-1">
      <path
         id="path10151-7-6-3"
         d="m 1712.0577,188.6514 c -7.1795,-0.005 -14.3886,2.72004 -19.8757,8.18802 l -17.1685,17.16841 c -1.5485,1.54851 -1.5511,4.06164 0,5.61274 l 17.0364,17.03637 c 10.968,10.96799 28.9194,10.9693 39.8836,-1e-5 10.9693,-10.9693 10.902,-28.84951 -0.066,-39.81751 -5.4771,-5.47696 -12.6302,-8.18289 -19.8098,-8.18802 z"
         style="fill:#294172;fill-opacity:1;stroke:none"
         inkscape:connector-curvature="0" />
      <path
         style="fill:#294172;fill-opacity:1;stroke:none"
         d="m 1622.6216,288.38298 c -0.01,-10.22385 3.8733,-20.4896 11.6598,-28.30352 l 24.4483,-24.44822 c 2.2051,-2.20513 5.7839,-2.20876 7.9926,-3e-5 l 24.2603,24.26018 c 15.6187,15.61874 15.6205,41.18191 0,56.79511 -15.6206,15.62055 -41.0824,15.52469 -56.7012,-0.094 -7.7992,-7.79931 -11.6526,-17.98562 -11.6598,-28.20949 z"
         id="path10153-5-4-4"
         inkscape:connector-curvature="0" />
      <path
         id="path10155-2-0-5"
         d="m 1613.2612,244.88341 c 7.1795,0.005 14.3885,-2.72005 19.8757,-8.18802 l 17.1685,-17.16841 c 1.5485,-1.54851 1.5509,-4.06165 0,-5.61274 l -17.0364,-17.03637 c -10.968,-10.96799 -28.9194,-10.9693 -39.8836,1e-5 -10.9693,10.9693 -10.902,28.84951 0.066,39.81751 5.477,5.47696 12.6302,8.18288 19.8098,8.18802 z"
         style="fill:#294172;fill-opacity:1;stroke:none"
         inkscape:connector-curvature="0" />
      <path
         style="fill:#294172;fill-opacity:1;stroke:none"
         d="m 1702.6973,147.3905 c 0.01,10.22385 -3.8733,20.4896 -11.6599,28.30352 l -24.4482,24.44822 c -2.2051,2.20513 -5.7839,2.20876 -7.9926,3e-5 l -24.2603,-24.26018 c -15.6187,-15.61874 -15.6205,-41.18191 0,-56.79511 15.6206,-15.62055 41.0824,-15.52469 56.7011,0.094 7.7993,7.79931 11.6527,17.98562 11.6599,28.20949 z"
         id="path10157-4-9-8"
         inkscape:connector-curvature="0" />
    </g>
    <g
       style="opacity:0.08520179;fill:#294172;fill-opacity:1"
       inkscape:export-ydpi="90"
       inkscape:export-xdpi="90"
       inkscape:export-filename="/home/duffy/Resources/FedoraLogo.tar.gz_FILES/fudcon-logo-template.png"
       transform="matrix(0.50273061,0.50273061,-0.50273061,0.50273061,-145.33144,-78.03473)"
       id="g10149-8-0-1-3">
      <path
         id="path10151-7-6-3-6"
         d="m 1712.0577,188.6514 c -7.1795,-0.005 -14.3886,2.72004 -19.8757,8.18802 l -17.1685,17.16841 c -1.5485,1.54851 -1.5511,4.06164 0,5.61274 l 17.0364,17.03637 c 10.968,10.96799 28.9194,10.9693 39.8836,-1e-5 10.9693,-10.9693 10.902,-28.84951 -0.066,-39.81751 -5.4771,-5.47696 -12.6302,-8.18289 -19.8098,-8.18802 z"
         style="fill:#294172;fill-opacity:1;stroke:none"
         inkscape:connector-curvature="0" />
      <path
         style="fill:#294172;fill-opacity:1;stroke:none"
         d="m 1622.6216,288.38298 c -0.01,-10.22385 3.8733,-20.4896 11.6598,-28.30352 l 24.4483,-24.44822 c 2.2051,-2.20513 5.7839,-2.20876 7.9926,-3e-5 l 24.2603,24.26018 c 15.6187,15.61874 15.6205,41.18191 0,56.79511 -15.6206,15.62055 -41.0824,15.52469 -56.7012,-0.094 -7.7992,-7.79931 -11.6526,-17.98562 -11.6598,-28.20949 z"
         id="path10153-5-4-4-1"
         inkscape:connector-curvature="0" />
      <path
         id="path10155-2-0-5-8"
         d="m 1613.2612,244.88341 c 7.1795,0.005 14.3885,-2.72005 19.8757,-8.18802 l 17.1685,-17.16841 c 1.5485,-1.54851 1.5509,-4.06165 0,-5.61274 l -17.0364,-17.03637 c -10.968,-10.96799 -28.9194,-10.9693 -39.8836,1e-5 -10.9693,10.9693 -10.902,28.84951 0.066,39.81751 5.477,5.47696 12.6302,8.18288 19.8098,8.18802 z"
         style="fill:#294172;fill-opacity:1;stroke:none"
         inkscape:connector-curvature="0" />
      <path
         style="fill:#294172;fill-opacity:1;stroke:none"
         d="m 1702.6973,147.3905 c 0.01,10.22385 -3.8733,20.4896 -11.6599,28.30352 l -24.4482,24.44822 c -2.2051,2.20513 -5.7839,2.20876 -7.9926,3e-5 l -24.2603,-24.26018 c -15.6187,-15.61874 -15.6205,-41.18191 0,-56.79511 15.6206,-15.62055 41.0824,-15.52469 56.7011,0.094 7.7993,7.79931 11.6527,17.98562 11.6599,28.20949 z"
         id="path10157-4-9-8-7"
         inkscape:connector-curvature="0" />
    </g>
    <g
       style="opacity:0.23444974;fill:#294172;fill-opacity:1"
       inkscape:export-ydpi="90"
       inkscape:export-xdpi="90"
       inkscape:export-filename="/home/duffy/Resources/FedoraLogo.tar.gz_FILES/fudcon-logo-template.png"
       transform="matrix(7.0529066,7.0529066,-7.0529066,7.0529066,-9949.7983,-12921.12)"
       id="g10149-8-3">
      <path
         id="path10151-7-68"
         d="m 1712.0577,188.6514 c -7.1795,-0.005 -14.3886,2.72004 -19.8757,8.18802 l -17.1685,17.16841 c -1.5485,1.54851 -1.5511,4.06164 0,5.61274 l 17.0364,17.03637 c 10.968,10.96799 28.9194,10.9693 39.8836,-1e-5 10.9693,-10.9693 10.902,-28.84951 -0.066,-39.81751 -5.4771,-5.47696 -12.6302,-8.18289 -19.8098,-8.18802 z"
         style="fill:#294172;fill-opacity:1;stroke:none"
         inkscape:connector-curvature="0" />
      <path
         style="fill:#294172;fill-opacity:1;stroke:none"
         d="m 1622.6216,288.38298 c -0.01,-10.22385 3.8733,-20.4896 11.6598,-28.30352 l 24.4483,-24.44822 c 2.2051,-2.20513 5.7839,-2.20876 7.9926,-3e-5 l 24.2603,24.26018 c 15.6187,15.61874 15.6205,41.18191 0,56.79511 -15.6206,15.62055 -41.0824,15.52469 -56.7012,-0.094 -7.7992,-7.79931 -11.6526,-17.98562 -11.6598,-28.20949 z"
         id="path10153-5-46"
         inkscape:connector-curvature="0" />
      <path
         id="path10155-2-6"
         d="m 1613.2612,244.88341 c 7.1795,0.005 14.3885,-2.72005 19.8757,-8.18802 l 17.1685,-17.16841 c 1.5485,-1.54851 1.5509,-4.06165 0,-5.61274 l -17.0364,-17.03637 c -10.968,-10.96799 -28.9194,-10.9693 -39.8836,1e-5 -10.9693,10.9693 -10.902,28.84951 0.066,39.81751 5.477,5.47696 12.6302,8.18288 19.8098,8.18802 z"
         style="fill:#294172;fill-opacity:1;stroke:none"
         inkscape:connector-curvature="0" />
      <path
         style="fill:#294172;fill-opacity:1;stroke:none"
         d="m 1702.6973,147.3905 c 0.01,10.22385 -3.8733,20.4896 -11.6599,28.30352 l -24.4482,24.44822 c -2.2051,2.20513 -5.7839,2.20876 -7.9926,3e-5 l -24.2603,-24.26018 c -15.6187,-15.61874 -15.6205,-41.18191 0,-56.79511 15.6206,-15.62055 41.0824,-15.52469 56.7011,0.094 7.7993,7.79931 11.6527,17.98562 11.6599,28.20949 z"
         id="path10157-4-7"
         inkscape:connector-curvature="0" />
    </g>
    <text
       xml:space="preserve"
       style="font-size:24px;font-style:normal;font-variant:normal;font-weight:normal;font-stretch:normal;text-align:end;line-height:125%;letter-spacing:0px;word-spacing:0px;writing-mode:lr-tb;text-anchor:end;fill:#ffffff;fill-opacity:1;stroke:none;font-family:Comfortaa;-inkscape-font-specification:Comfortaa"
       x="731.80078"
       y="961.237"
       id="text4420"
       sodipodi:linespacing="125%"><tspan
         sodipodi:role="line"
         id="tspan4422"
         x="731.80078"
         y="961.237"
         style="font-size:22px;font-style:normal;font-variant:normal;font-weight:bold;font-stretch:expanded;text-align:end;line-height:125%;writing-mode:lr-tb;text-anchor:end;font-family:Comfortaa;-inkscape-font-specification:Comfortaa Bold Expanded">Conferencia de Desarrolladores y Usuarios de Fedora</tspan><tspan
         sodipodi:role="line"
         x="731.80078"
         y="988.737"
         id="tspan4424"
         style="font-size:22px">Mayo 26–28, 2011 — Ciudad del Saber, Panama, PANAMA</tspan></text>
    <g
       id="g4574"
       transform="matrix(0.91779794,0,0,0.91779794,69.22342,-15.911586)">
      <g
         style="fill:#294172;fill-opacity:1"
         inkscape:export-ydpi="90"
         inkscape:export-xdpi="90"
         inkscape:export-filename="/home/duffy/Resources/FedoraLogo.tar.gz_FILES/fudcon-logo-template.png"
         transform="matrix(0.54261182,0.54261182,-0.54261182,0.54261182,-375.78941,-855.31619)"
         id="g10149">
        <path
           id="path10151"
           d="m 1712.0577,188.6514 c -7.1795,-0.005 -14.3886,2.72004 -19.8757,8.18802 l -17.1685,17.16841 c -1.5485,1.54851 -1.5511,4.06164 0,5.61274 l 17.0364,17.03637 c 10.968,10.96799 28.9194,10.9693 39.8836,-1e-5 10.9693,-10.9693 10.902,-28.84951 -0.066,-39.81751 -5.4771,-5.47696 -12.6302,-8.18289 -19.8098,-8.18802 z"
           style="fill:#294172;fill-opacity:1;stroke:none"
           inkscape:connector-curvature="0" />
        <path
           style="fill:#294172;fill-opacity:1;stroke:none"
           d="m 1622.6216,288.38298 c -0.01,-10.22385 3.8733,-20.4896 11.6598,-28.30352 l 24.4483,-24.44822 c 2.2051,-2.20513 5.7839,-2.20876 7.9926,-3e-5 l 24.2603,24.26018 c 15.6187,15.61874 15.6205,41.18191 0,56.79511 -15.6206,15.62055 -41.0824,15.52469 -56.7012,-0.094 -7.7992,-7.79931 -11.6526,-17.98562 -11.6598,-28.20949 z"
           id="path10153"
           inkscape:connector-curvature="0" />
        <path
           id="path10155"
           d="m 1613.2612,244.88341 c 7.1795,0.005 14.3885,-2.72005 19.8757,-8.18802 l 17.1685,-17.16841 c 1.5485,-1.54851 1.5509,-4.06165 0,-5.61274 l -17.0364,-17.03637 c -10.968,-10.96799 -28.9194,-10.9693 -39.8836,1e-5 -10.9693,10.9693 -10.902,28.84951 0.066,39.81751 5.477,5.47696 12.6302,8.18288 19.8098,8.18802 z"
           style="fill:#294172;fill-opacity:1;stroke:none"
           inkscape:connector-curvature="0" />
        <path
           style="fill:#294172;fill-opacity:1;stroke:none"
           d="m 1702.6973,147.3905 c 0.01,10.22385 -3.8733,20.4896 -11.6599,28.30352 l -24.4482,24.44822 c -2.2051,2.20513 -5.7839,2.20876 -7.9926,3e-5 l -24.2603,-24.26018 c -15.6187,-15.61874 -15.6205,-41.18191 0,-56.79511 15.6206,-15.62055 41.0824,-15.52469 56.7011,0.094 7.7993,7.79931 11.6527,17.98562 11.6599,28.20949 z"
           id="path10157"
           inkscape:connector-curvature="0" />
      </g>
      <text
         inkscape:export-ydpi="90"
         inkscape:export-xdpi="90"
         inkscape:export-filename="/home/duffy/Resources/FedoraLogo.tar.gz_FILES/fudcon-logo-template.png"
         xml:space="preserve"
         style="font-size:80.85561371px;font-style:normal;font-weight:normal;fill:#0a57a4;fill-opacity:1;stroke:none;font-family:Bitstream Vera Sans"
         x="496.81644"
         y="187.23965"
         id="text10159"><tspan
           sodipodi:role="line"
           id="tspan10161"
           x="496.81644"
           y="187.23965"
           style="font-weight:bold;letter-spacing:-2.43262696;fill:#ffffff;fill-opacity:1;font-family:MgOpen Modata">fud</tspan></text>
      <text
         inkscape:export-ydpi="90"
         inkscape:export-xdpi="90"
         inkscape:export-filename="/home/duffy/Resources/FedoraLogo.tar.gz_FILES/fudcon-logo-template.png"
         id="text10165"
         y="187.23965"
         x="604.94031"
         style="font-size:80.85561371px;font-style:normal;font-weight:normal;fill:#0a57a4;fill-opacity:1;stroke:none;font-family:Bitstream Vera Sans"
         xml:space="preserve"><tspan
           style="letter-spacing:-2.43262696;fill:#ffffff;fill-opacity:1;font-family:MgOpen Modata"
           y="187.23965"
           x="604.94031"
           id="tspan10167"
           sodipodi:role="line"> con</tspan></text>
      <text
         inkscape:export-ydpi="90"
         inkscape:export-xdpi="90"
         inkscape:export-filename="/home/duffy/Resources/FedoraLogo.tar.gz_FILES/fudcon-logo-template.png"
         xml:space="preserve"
         style="font-size:41.17092896px;font-style:normal;font-weight:normal;fill:#072b61;fill-opacity:1;stroke:none;font-family:Bitstream Vera Sans"
         x="732.3468"
         y="233.78148"
         id="text10169"><tspan
           sodipodi:role="line"
           id="tspan10171"
           x="731.10815"
           y="233.78148"
           style="font-weight:normal;text-align:end;letter-spacing:-1.23867118;text-anchor:end;fill:#ffffff;fill-opacity:1;font-family:MgOpen Modata;-inkscape-font-specification:MgOpen Modata">PANAMA</tspan></text>
    </g>
  </g>
  <g
     inkscape:groupmode="layer"
     id="layer2"
     inkscape:label="Capa"
     style="display:none"
     sodipodi:insensitive="true">
    <g
       transform="translate(-11.25,-39.862)"
       id="g4766">
      <rect
         y="-1006.733"
         x="-1335.0176"
         height="1057.845"
         width="3422.3967"
         id="rect4756"
         style="fill:#ffffff;fill-opacity:1;fill-rule:nonzero;stroke:none" />
      <rect
         y="0"
         x="-1600.8898"
         height="1674.3519"
         width="1612.1398"
         id="rect4760"
         style="fill:#ffffff;fill-opacity:1;fill-rule:nonzero;stroke:none"
         transform="translate(0,39.862)" />
      <rect
         transform="translate(0,39.862)"
         y="1012.5"
         x="0"
         height="814.58704"
         width="2042.1244"
         id="rect4762"
         style="fill:#ffffff;fill-opacity:1;fill-rule:nonzero;stroke:none" />
      <rect
         y="39.862"
         x="787.5"
         height="1067.25"
         width="1469.5848"
         id="rect4764"
         style="fill:#ffffff;fill-opacity:1;fill-rule:nonzero;stroke:none" />
    </g>
  </g>
</svg>
