<?xml version="1.0" encoding="UTF-8" standalone="no"?>
<!-- Created with Inkscape (http://www.inkscape.org/) -->

<svg
   xmlns:dc="http://purl.org/dc/elements/1.1/"
   xmlns:cc="http://creativecommons.org/ns#"
   xmlns:rdf="http://www.w3.org/1999/02/22-rdf-syntax-ns#"
   xmlns:svg="http://www.w3.org/2000/svg"
   xmlns="http://www.w3.org/2000/svg"
   xmlns:xlink="http://www.w3.org/1999/xlink"
   xmlns:sodipodi="http://sodipodi.sourceforge.net/DTD/sodipodi-0.dtd"
   xmlns:inkscape="http://www.inkscape.org/namespaces/inkscape"
   width="787.5"
   height="1012.5"
   id="svg2"
   version="1.1"
   inkscape:version="0.48.1 r9760"
   sodipodi:docname="page09-general-schedule-right.svg"
   inkscape:export-filename="/home/ianweller/fudcon-tempe-booklet/template-left.png"
   inkscape:export-xdpi="90"
   inkscape:export-ydpi="90">
  <defs
     id="defs4">
    <linearGradient
       inkscape:collect="always"
       xlink:href="#linearGradient3913"
       id="linearGradient3613"
       gradientUnits="userSpaceOnUse"
       gradientTransform="matrix(1,0,0,0.85137615,938.42675,10.754709)"
       x1="399.32516"
       y1="134.862"
       x2="4.5543671"
       y2="134.862" />
    <linearGradient
       id="linearGradient3913">
      <stop
         style="stop-color:#79db31;stop-opacity:1;"
         offset="0"
         id="stop3915" />
      <stop
         style="stop-color:#79db31;stop-opacity:0;"
         offset="1"
         id="stop3917" />
    </linearGradient>
  </defs>
  <sodipodi:namedview
     id="base"
     pagecolor="#ffffff"
     bordercolor="#666666"
     borderopacity="1.0"
     inkscape:pageopacity="0.0"
     inkscape:pageshadow="2"
     inkscape:zoom="0.5"
     inkscape:cx="405.71959"
     inkscape:cy="501.71639"
     inkscape:document-units="in"
     inkscape:current-layer="layer1"
     showgrid="false"
     units="in"
     inkscape:window-width="607"
     inkscape:window-height="706"
     inkscape:window-x="0"
     inkscape:window-y="24"
     inkscape:window-maximized="0"
     showguides="false"
     inkscape:guide-bbox="true"
     inkscape:snap-bbox="true"
     inkscape:snap-page="false"
     inkscape:snap-nodes="true">
    <sodipodi:guide
       position="0,11.25"
       orientation="0,1"
       id="guide2985" />
    <sodipodi:guide
       position="776.25,0"
       orientation="1,0"
       id="guide2987" />
    <sodipodi:guide
       position="787.5,1001.25"
       orientation="0,1"
       id="guide2989" />
    <sodipodi:guide
       position="11.25,1012.5"
       orientation="1,0"
       id="guide2991" />
    <sodipodi:guide
       orientation="1,0"
       position="753.75,824"
       id="guide3872" />
    <sodipodi:guide
       orientation="1,0"
       position="33.75,762"
       id="guide3878" />
    <sodipodi:guide
       orientation="0,1"
       position="257,928.17"
       id="guide3884" />
    <sodipodi:guide
       orientation="0,1"
       position="297,33.75"
       id="guide3970" />
    <sodipodi:guide
       orientation="0,1"
       position="287,855"
       id="guide3972" />
    <sodipodi:guide
       orientation="0,1"
       position="35.753906,953.73"
       id="guide3017" />
    <sodipodi:guide
       orientation="0,1"
       position="311,990"
       id="guide3810" />
    <sodipodi:guide
       position="0,0"
       orientation="0,787.5"
       id="guide3812" />
    <sodipodi:guide
       position="787.5,0"
       orientation="-1012.5,0"
       id="guide3814" />
    <sodipodi:guide
       position="787.5,1012.5"
       orientation="0,-787.5"
       id="guide3816" />
    <sodipodi:guide
       position="0,1012.5"
       orientation="1012.5,0"
       id="guide3818" />
    <sodipodi:guide
       orientation="0,1"
       position="341,832.5"
       id="guide3820" />
    <sodipodi:guide
       orientation="0,1"
       position="164,792"
       id="guide5484" />
    <sodipodi:guide
       orientation="0,1"
       position="82,733.5"
       id="guide5510" />
    <sodipodi:guide
       orientation="0,1"
       position="156,675"
       id="guide5512" />
    <sodipodi:guide
       orientation="0,1"
       position="173,616.5"
       id="guide5514" />
    <sodipodi:guide
       orientation="0,1"
       position="203,558"
       id="guide5516" />
    <sodipodi:guide
       orientation="0,1"
       position="221,499.5"
       id="guide5518" />
    <sodipodi:guide
       orientation="0,1"
       position="196,441"
       id="guide5520" />
    <sodipodi:guide
       orientation="0,1"
       position="163,382.5"
       id="guide5522" />
    <sodipodi:guide
       orientation="1,0"
       position="123.75,651"
       id="guide5524" />
    <sodipodi:guide
       orientation="1,0"
       position="281.25,648.5"
       id="guide5526" />
    <sodipodi:guide
       orientation="1,0"
       position="438.75,648.5937"
       id="guide5528" />
    <sodipodi:guide
       orientation="1,0"
       position="596.25,666.62492"
       id="guide5530" />
    <sodipodi:guide
       orientation="0,1"
       position="832.97179,360"
       id="guide5542" />
    <sodipodi:guide
       orientation="0,1"
       position="-50.911688,319.5"
       id="guide5548" />
    <sodipodi:guide
       orientation="0,1"
       position="0,261"
       id="guide5550" />
    <sodipodi:guide
       orientation="0,1"
       position="68.310407,238.5"
       id="guide3092" />
    <sodipodi:guide
       orientation="0,1"
       position="409.6445,160.29"
       id="guide3840" />
    <sodipodi:guide
       orientation="0,1"
       position="392.92431,137.79"
       id="guide3842" />
  </sodipodi:namedview>
  <metadata
     id="metadata7">
    <rdf:RDF>
      <cc:Work
         rdf:about="">
        <dc:format>image/svg+xml</dc:format>
        <dc:type
           rdf:resource="http://purl.org/dc/dcmitype/StillImage" />
        <dc:title />
      </cc:Work>
    </rdf:RDF>
  </metadata>
  <g
     inkscape:groupmode="layer"
     id="layer2"
     inkscape:label="bounding"
     sodipodi:insensitive="true">
    <rect
       style="fill:#ffffff;fill-opacity:1;stroke:none"
       id="rect3010"
       width="787.5"
       height="1012.5"
       x="0"
       y="0" />
  </g>
  <g
     inkscape:label="Layer 1"
     inkscape:groupmode="layer"
     id="layer1"
     transform="translate(0,-39.862)">
    <rect
       y="710.862"
       x="33.75"
       height="58.499992"
       width="90"
       id="rect5532"
       style="fill:#dedede;fill-opacity:1;stroke:none" />
    <text
       xml:space="preserve"
       style="font-size:28px;font-style:normal;font-variant:normal;font-weight:normal;font-stretch:normal;text-align:start;line-height:125%;letter-spacing:0px;word-spacing:0px;writing-mode:lr-tb;text-anchor:start;fill:#000000;fill-opacity:1;stroke:none;font-family:Comfortaa;-inkscape-font-specification:Comfortaa"
       x="33.285156"
       y="217.53583"
       id="text3862"
       sodipodi:linespacing="125%"><tspan
         sodipodi:role="line"
         id="tspan3864"
         x="33.285156"
         y="217.53583">Viernes, Mayo 27, 2011</tspan></text>
    <rect
       style="fill:#dedede;fill-opacity:1;stroke:none"
       id="rect3359"
       width="630"
       height="58.5"
       x="123.75"
       y="238.362" />
    <rect
       style="fill:#dedede;fill-opacity:1;stroke:none"
       id="rect3361"
       width="90"
       height="350.99997"
       x="33.749996"
       y="296.862" />
    <path
       style="fill:none;stroke:#8c8c8c;stroke-width:1.25;stroke-linecap:square;stroke-linejoin:miter;stroke-miterlimit:4;stroke-opacity:1;stroke-dasharray:none"
       d="m 123.75,238.362 630,0"
       id="path3369"
       inkscape:connector-curvature="0" />
    <path
       style="fill:none;stroke:#8c8c8c;stroke-width:1.25;stroke-linecap:square;stroke-linejoin:miter;stroke-miterlimit:4;stroke-opacity:1;stroke-dasharray:none"
       d="m 753.75,238.362 0,409.5"
       id="path4939"
       inkscape:connector-curvature="0" />
    <path
       style="fill:none;stroke:#8c8c8c;stroke-width:1.25;stroke-linecap:square;stroke-linejoin:miter;stroke-miterlimit:4;stroke-opacity:1;stroke-dasharray:none"
       d="m 753.75,769.362 -720,0"
       id="path4941"
       inkscape:connector-curvature="0" />
    <path
       style="fill:none;stroke:#8c8c8c;stroke-width:1.25;stroke-linecap:square;stroke-linejoin:miter;stroke-miterlimit:4;stroke-opacity:1;stroke-dasharray:none"
       d="m 33.749996,296.862 0,351"
       id="path4943"
       inkscape:connector-curvature="0" />
    <path
       style="fill:none;stroke:#8c8c8c;stroke-width:1.25;stroke-linecap:square;stroke-linejoin:miter;stroke-miterlimit:4;stroke-opacity:1;stroke-dasharray:none"
       d="m 33.749996,296.862 720.000004,0"
       id="path4945"
       inkscape:connector-curvature="0" />
    <path
       style="fill:none;stroke:#8c8c8c;stroke-width:1.25;stroke-linecap:square;stroke-linejoin:miter;stroke-miterlimit:4;stroke-opacity:1;stroke-dasharray:none"
       d="m 123.75,238.362 0,409.5"
       id="path4947"
       inkscape:connector-curvature="0" />
    <text
       xml:space="preserve"
       style="font-size:16px;font-style:normal;font-variant:normal;font-weight:500;font-stretch:normal;text-align:start;line-height:125%;letter-spacing:0px;word-spacing:0px;writing-mode:lr-tb;text-anchor:start;fill:#000000;fill-opacity:1;stroke:none;font-family:Cantarell;-inkscape-font-specification:Cantarell Medium"
       x="56.203121"
       y="321.65887"
       id="text4967"
       sodipodi:linespacing="125%"><tspan
         sodipodi:role="line"
         x="56.203121"
         y="321.65887"
         id="tspan4975">09:00</tspan><tspan
         sodipodi:role="line"
         x="56.203121"
         y="341.65887"
         id="tspan5043">09:50</tspan></text>
    <path
       inkscape:connector-curvature="0"
       id="path4977"
       d="m 33.749996,355.362 720.000004,0"
       style="fill:none;stroke:#8c8c8c;stroke-width:1.25;stroke-linecap:square;stroke-linejoin:miter;stroke-miterlimit:4;stroke-opacity:1;stroke-dasharray:none" />
    <text
       sodipodi:linespacing="125%"
       id="text4979"
       y="380.15887"
       x="56.203121"
       style="font-size:16px;font-style:normal;font-variant:normal;font-weight:500;font-stretch:normal;text-align:start;line-height:125%;letter-spacing:0px;word-spacing:0px;writing-mode:lr-tb;text-anchor:start;fill:#000000;fill-opacity:1;stroke:none;font-family:Cantarell;-inkscape-font-specification:Cantarell Medium"
       xml:space="preserve"><tspan
         y="380.15887"
         x="56.203121"
         sodipodi:role="line"
         id="tspan5047">10:00</tspan><tspan
         y="400.15887"
         x="56.203121"
         sodipodi:role="line"
         id="tspan5488">10:50</tspan></text>
    <path
       style="fill:none;stroke:#8c8c8c;stroke-width:1.25;stroke-linecap:square;stroke-linejoin:miter;stroke-miterlimit:4;stroke-opacity:1;stroke-dasharray:none"
       d="m 33.749996,413.862 720.000004,0"
       id="path4985"
       inkscape:connector-curvature="0" />
    <text
       xml:space="preserve"
       style="font-size:16px;font-style:normal;font-variant:normal;font-weight:500;font-stretch:normal;text-align:start;line-height:125%;letter-spacing:0px;word-spacing:0px;writing-mode:lr-tb;text-anchor:start;fill:#000000;fill-opacity:1;stroke:none;font-family:Cantarell;-inkscape-font-specification:Cantarell Medium"
       x="56.203121"
       y="438.65887"
       id="text4987"
       sodipodi:linespacing="125%"><tspan
         sodipodi:role="line"
         x="56.203121"
         y="438.65887"
         id="tspan5051">11:00</tspan><tspan
         sodipodi:role="line"
         x="56.203121"
         y="458.65887"
         id="tspan5492">11:50</tspan></text>
    <path
       inkscape:connector-curvature="0"
       id="path4993"
       d="m 33.749996,472.362 720.000004,0"
       style="fill:none;stroke:#8c8c8c;stroke-width:1.25;stroke-linecap:square;stroke-linejoin:miter;stroke-miterlimit:4;stroke-opacity:1;stroke-dasharray:none" />
    <text
       sodipodi:linespacing="125%"
       id="text4995"
       y="497.15887"
       x="56.203121"
       style="font-size:16px;font-style:normal;font-variant:normal;font-weight:500;font-stretch:normal;text-align:start;line-height:125%;letter-spacing:0px;word-spacing:0px;writing-mode:lr-tb;text-anchor:start;fill:#000000;fill-opacity:1;stroke:none;font-family:Cantarell;-inkscape-font-specification:Cantarell Medium"
       xml:space="preserve"><tspan
         y="497.15887"
         x="56.203121"
         sodipodi:role="line"
         id="tspan5055">12:00</tspan><tspan
         y="517.15887"
         x="56.203121"
         sodipodi:role="line"
         id="tspan5496">12:50</tspan></text>
    <path
       style="fill:none;stroke:#8c8c8c;stroke-width:1.25;stroke-linecap:square;stroke-linejoin:miter;stroke-miterlimit:4;stroke-opacity:1;stroke-dasharray:none"
       d="m 33.749996,530.862 720.000004,0"
       id="path5001"
       inkscape:connector-curvature="0" />
    <text
       xml:space="preserve"
       style="font-size:16px;font-style:normal;font-variant:normal;font-weight:500;font-stretch:normal;text-align:start;line-height:125%;letter-spacing:0px;word-spacing:0px;writing-mode:lr-tb;text-anchor:start;fill:#000000;fill-opacity:1;stroke:none;font-family:Cantarell;-inkscape-font-specification:Cantarell Medium"
       x="56.203121"
       y="555.65887"
       id="text5003"
       sodipodi:linespacing="125%"><tspan
         sodipodi:role="line"
         x="56.203121"
         y="555.65887"
         id="tspan5059">13:00</tspan><tspan
         sodipodi:role="line"
         x="56.203121"
         y="575.65887"
         id="tspan5500">14:00</tspan></text>
    <path
       inkscape:connector-curvature="0"
       id="path5009"
       d="m 33.749996,589.362 720.000004,0"
       style="fill:none;stroke:#8c8c8c;stroke-width:1.25;stroke-linecap:square;stroke-linejoin:miter;stroke-miterlimit:4;stroke-opacity:1;stroke-dasharray:none" />
    <text
       sodipodi:linespacing="125%"
       id="text5011"
       y="614.15887"
       x="56.203121"
       style="font-size:16px;font-style:normal;font-variant:normal;font-weight:500;font-stretch:normal;text-align:start;line-height:125%;letter-spacing:0px;word-spacing:0px;writing-mode:lr-tb;text-anchor:start;fill:#000000;fill-opacity:1;stroke:none;font-family:Cantarell;-inkscape-font-specification:Cantarell Medium"
       xml:space="preserve"><tspan
         y="614.15887"
         x="56.203121"
         sodipodi:role="line"
         id="tspan5063">14:00</tspan><tspan
         y="634.15887"
         x="56.203121"
         sodipodi:role="line"
         id="tspan5504">17:00</tspan></text>
    <path
       style="fill:none;stroke:#8c8c8c;stroke-width:1.25;stroke-linecap:square;stroke-linejoin:miter;stroke-miterlimit:4;stroke-opacity:1;stroke-dasharray:none"
       d="m 33.749996,647.952 720.000004,0"
       id="path5017"
       inkscape:connector-curvature="0" />
    <path
       style="fill:none;stroke:#8c8c8c;stroke-width:1.25;stroke-linecap:square;stroke-linejoin:miter;stroke-miterlimit:4;stroke-opacity:1;stroke-dasharray:none"
       d="m 33.75,710.862 720,0"
       id="path5033"
       inkscape:connector-curvature="0" />
    <text
       xml:space="preserve"
       style="font-size:16px;font-style:normal;font-variant:normal;font-weight:500;font-stretch:normal;text-align:start;line-height:125%;letter-spacing:0px;word-spacing:0px;writing-mode:lr-tb;text-anchor:start;fill:#000000;fill-opacity:1;stroke:none;font-family:Cantarell;-inkscape-font-specification:Cantarell Medium"
       x="56.203125"
       y="735.66278"
       id="text5035"
       sodipodi:linespacing="125%"><tspan
         sodipodi:role="line"
         x="56.203125"
         y="735.66278"
         id="tspan5075">09:00</tspan><tspan
         sodipodi:role="line"
         x="56.203125"
         y="755.66278"
         id="tspan5508">18:00</tspan></text>
    <text
       sodipodi:linespacing="125%"
       id="text5077"
       y="273.13544"
       x="202.07812"
       style="font-size:16px;font-style:normal;font-variant:normal;font-weight:500;font-stretch:normal;text-align:center;line-height:125%;letter-spacing:0px;word-spacing:0px;writing-mode:lr-tb;text-anchor:middle;fill:#000000;fill-opacity:1;stroke:none;font-family:Cantarell;-inkscape-font-specification:Cantarell Medium"
       xml:space="preserve"><tspan
         id="tspan5081"
         y="273.13544"
         x="202.07812"
         sodipodi:role="line">BYAC 110</tspan></text>
    <path
       style="fill:none;stroke:#8c8c8c;stroke-width:1.25;stroke-linecap:square;stroke-linejoin:miter;stroke-miterlimit:4;stroke-opacity:1;stroke-dasharray:none"
       d="m 281.25,238.362 0,58.5"
       id="path5085"
       inkscape:connector-curvature="0" />
    <text
       xml:space="preserve"
       style="font-size:16px;font-style:normal;font-variant:normal;font-weight:500;font-stretch:normal;text-align:center;line-height:125%;letter-spacing:0px;word-spacing:0px;writing-mode:lr-tb;text-anchor:middle;fill:#000000;fill-opacity:1;stroke:none;font-family:Cantarell;-inkscape-font-specification:Cantarell Medium"
       x="359.57812"
       y="273.13544"
       id="text5087"
       sodipodi:linespacing="125%"><tspan
         sodipodi:role="line"
         x="359.57812"
         y="273.13544"
         id="tspan5089">BYAC 150</tspan></text>
    <path
       inkscape:connector-curvature="0"
       id="path5091"
       d="m 438.75,238.362 0,58.5"
       style="fill:none;stroke:#8c8c8c;stroke-width:1.25;stroke-linecap:square;stroke-linejoin:miter;stroke-miterlimit:4;stroke-opacity:1;stroke-dasharray:none" />
    <text
       sodipodi:linespacing="125%"
       id="text5093"
       y="273.13544"
       x="517.07812"
       style="font-size:16px;font-style:normal;font-variant:normal;font-weight:500;font-stretch:normal;text-align:center;line-height:125%;letter-spacing:0px;word-spacing:0px;writing-mode:lr-tb;text-anchor:middle;fill:#000000;fill-opacity:1;stroke:none;font-family:Cantarell;-inkscape-font-specification:Cantarell Medium"
       xml:space="preserve"><tspan
         id="tspan5095"
         y="273.13544"
         x="517.07812"
         sodipodi:role="line">BYAC 260</tspan></text>
    <path
       style="fill:none;stroke:#8c8c8c;stroke-width:1.25;stroke-linecap:square;stroke-linejoin:miter;stroke-miterlimit:4;stroke-opacity:1;stroke-dasharray:none"
       d="m 596.25,238.362 0,58.5"
       id="path5097"
       inkscape:connector-curvature="0" />
    <text
       xml:space="preserve"
       style="font-size:16px;font-style:normal;font-variant:normal;font-weight:500;font-stretch:normal;text-align:center;line-height:125%;letter-spacing:0px;word-spacing:0px;writing-mode:lr-tb;text-anchor:middle;fill:#000000;fill-opacity:1;stroke:none;font-family:Cantarell;-inkscape-font-specification:Cantarell Medium"
       x="674.57812"
       y="273.13544"
       id="text5099"
       sodipodi:linespacing="125%"><tspan
         sodipodi:role="line"
         x="674.57812"
         y="273.13544"
         id="tspan5101">BYAC 270</tspan></text>
    <path
       inkscape:connector-curvature="0"
       id="path5105"
       d="m 281.25,296.862 0,175.5"
       style="fill:none;stroke:#8c8c8c;stroke-width:1.25;stroke-linecap:square;stroke-linejoin:miter;stroke-miterlimit:4;stroke-opacity:1;stroke-dasharray:none" />
    <path
       style="fill:none;stroke:#8c8c8c;stroke-width:1.25;stroke-linecap:square;stroke-linejoin:miter;stroke-miterlimit:4;stroke-opacity:1;stroke-dasharray:none"
       d="m 438.75,296.862 0,175.5"
       id="path5107"
       inkscape:connector-curvature="0" />
    <path
       inkscape:connector-curvature="0"
       id="path5109"
       d="m 596.25,296.862 0,175.5"
       style="fill:none;stroke:#8c8c8c;stroke-width:1.25;stroke-linecap:square;stroke-linejoin:miter;stroke-miterlimit:4;stroke-opacity:1;stroke-dasharray:none" />
    <text
       xml:space="preserve"
       style="font-size:16px;font-style:normal;font-variant:normal;font-weight:500;font-stretch:normal;text-align:center;line-height:125%;letter-spacing:0px;word-spacing:0px;writing-mode:lr-tb;text-anchor:middle;fill:#000000;fill-opacity:1;stroke:none;font-family:Cantarell;-inkscape-font-specification:Cantarell Medium"
       x="438.20312"
       y="506.59863"
       id="text5125"
       sodipodi:linespacing="125%"><tspan
         sodipodi:role="line"
         x="438.20312"
         y="506.59863"
         id="tspan5127">Almuerzo</tspan></text>
    <text
       sodipodi:linespacing="125%"
       id="text5133"
       y="745.93622"
       x="438.20312"
       style="font-size:16px;font-style:normal;font-variant:normal;font-weight:500;font-stretch:normal;text-align:center;line-height:125%;letter-spacing:0px;word-spacing:0px;writing-mode:lr-tb;text-anchor:middle;fill:#000000;fill-opacity:1;stroke:none;font-family:Cantarell;-inkscape-font-specification:Cantarell Medium"
       xml:space="preserve"><tspan
         id="tspan5135"
         y="745.93622"
         x="438.20312"
         sodipodi:role="line"><tspan
   style="font-weight:bold;-inkscape-font-specification:Cantarell Bold"
   id="tspan3088">At the Memorial Union:</tspan> Hackfests</tspan></text>
    <text
       sodipodi:linespacing="125%"
       id="text5534"
       y="565.99561"
       x="438.20312"
       style="font-size:16px;font-style:normal;font-variant:normal;font-weight:500;font-stretch:normal;text-align:center;line-height:125%;letter-spacing:0px;word-spacing:0px;writing-mode:lr-tb;text-anchor:middle;fill:#000000;fill-opacity:1;stroke:none;font-family:Cantarell;-inkscape-font-specification:Cantarell Medium"
       xml:space="preserve"><tspan
         id="tspan5536"
         y="565.99561"
         x="438.20312"
         sodipodi:role="line"><tspan
   style="font-weight:bold;-inkscape-font-specification:Cantarell Bold"
   id="tspan3090">At TBA:</tspan> Lightning talks</tspan></text>
    <text
       xml:space="preserve"
       style="font-size:16px;font-style:normal;font-variant:normal;font-weight:500;font-stretch:normal;text-align:center;line-height:125%;letter-spacing:0px;word-spacing:0px;writing-mode:lr-tb;text-anchor:middle;fill:#000000;fill-opacity:1;stroke:none;font-family:Cantarell;-inkscape-font-specification:Cantarell Medium"
       x="438.20312"
       y="625.39258"
       id="text5538"
       sodipodi:linespacing="125%"><tspan
         sodipodi:role="line"
         x="438.20312"
         y="625.39258"
         id="tspan5540">Hackfests</tspan></text>
    <text
       sodipodi:linespacing="125%"
       id="text5544"
       y="690.03583"
       x="33.285156"
       style="font-size:28px;font-style:normal;font-variant:normal;font-weight:normal;font-stretch:normal;text-align:start;line-height:125%;letter-spacing:0px;word-spacing:0px;writing-mode:lr-tb;text-anchor:start;fill:#000000;fill-opacity:1;stroke:none;font-family:Comfortaa;-inkscape-font-specification:Comfortaa"
       xml:space="preserve"><tspan
         y="690.03583"
         x="33.285156"
         id="tspan5546"
         sodipodi:role="line">Sábado, Mayo 28, 2011</tspan></text>
    <path
       inkscape:connector-curvature="0"
       id="path5552"
       d="m 123.75,710.86199 0,58.5"
       style="fill:none;stroke:#8c8c8c;stroke-width:1.25;stroke-linecap:square;stroke-linejoin:miter;stroke-miterlimit:4;stroke-opacity:1;stroke-dasharray:none" />
    <path
       style="fill:none;stroke:#8c8c8c;stroke-width:1.25;stroke-linecap:square;stroke-linejoin:miter;stroke-miterlimit:4;stroke-opacity:1;stroke-dasharray:none"
       d="m 33.75,710.862 0,58.5"
       id="path5554"
       inkscape:connector-curvature="0" />
    <path
       inkscape:connector-curvature="0"
       id="path5556"
       d="m 753.75,710.862 0,58.5"
       style="fill:none;stroke:#8c8c8c;stroke-width:1.25;stroke-linecap:square;stroke-linejoin:miter;stroke-miterlimit:4;stroke-opacity:1;stroke-dasharray:none" />
    <g
       id="g3844"
       transform="translate(0,-22)">
      <text
         sodipodi:linespacing="125%"
         id="text3335"
         y="833.65887"
         x="33.75"
         style="font-size:28px;font-style:normal;font-variant:normal;font-weight:normal;font-stretch:normal;text-align:start;line-height:125%;letter-spacing:0px;word-spacing:0px;writing-mode:lr-tb;text-anchor:start;fill:#000000;fill-opacity:1;stroke:none;font-family:Comfortaa;-inkscape-font-specification:Comfortaa"
         xml:space="preserve"><tspan
           y="833.65887"
           x="33.75"
           id="tspan3337"
           sodipodi:role="line">Alimentación en la conferencia</tspan></text>
      <text
         sodipodi:linespacing="125%"
         id="text3339"
         y="867.81403"
         x="32.734375"
         style="font-size:16px;font-style:normal;font-variant:normal;font-weight:500;font-stretch:normal;text-align:start;line-height:125%;letter-spacing:0px;word-spacing:0px;writing-mode:lr-tb;text-anchor:start;fill:#000000;fill-opacity:1;stroke:none;font-family:Cantarell;-inkscape-font-specification:Cantarell Medium"
         xml:space="preserve"><tspan
           id="tspan3822"
           y="867.81403"
           x="32.734375"
           sodipodi:role="line"
           style="font-weight:500;-inkscape-font-specification:Cantarell Medium">On Saturday, we are having lunch at the BYAC building at noon and dinner at FUDPub. Breakfast</tspan><tspan
           y="887.81403"
           x="32.734375"
           sodipodi:role="line"
           style="font-weight:500;-inkscape-font-specification:Cantarell Medium"
           id="tspan3106">will be provided Sunday at the BYAC building at 8:30 a.m.</tspan></text>
    </g>
    <g
       id="g3851"
       transform="translate(0,-24.816672)">
      <text
         xml:space="preserve"
         style="font-size:28px;font-style:normal;font-variant:normal;font-weight:normal;font-stretch:normal;text-align:start;line-height:125%;letter-spacing:0px;word-spacing:0px;writing-mode:lr-tb;text-anchor:start;fill:#000000;fill-opacity:1;stroke:none;font-family:Comfortaa;-inkscape-font-specification:Comfortaa"
         x="33.75"
         y="937.00781"
         id="text3828"
         sodipodi:linespacing="125%"><tspan
           sodipodi:role="line"
           id="tspan3830"
           x="33.75"
           y="937.00781">Charlas relámpago</tspan></text>
      <text
         xml:space="preserve"
         style="font-size:16px;font-style:normal;font-variant:normal;font-weight:500;font-stretch:normal;text-align:start;line-height:125%;letter-spacing:0px;word-spacing:0px;writing-mode:lr-tb;text-anchor:start;fill:#000000;fill-opacity:1;stroke:none;font-family:Cantarell;-inkscape-font-specification:Cantarell Medium"
         x="32.734375"
         y="971.16296"
         id="text3832"
         sodipodi:linespacing="125%"><tspan
           style="font-weight:500;-inkscape-font-specification:Cantarell Medium"
           sodipodi:role="line"
           x="32.734375"
           y="971.16296"
           id="tspan3108">A lightning talk is a very short presentation that lasts only a few minutes. The length for lightning</tspan><tspan
           style="font-weight:500;-inkscape-font-specification:Cantarell Medium"
           sodipodi:role="line"
           x="32.734375"
           y="991.16296"
           id="tspan3132">talks at FUDCon Tempe is five minutes. Full details are provided on the wiki at <tspan
   style="font-size:16px;font-style:normal;font-variant:normal;font-weight:normal;font-stretch:normal;text-align:start;line-height:125%;writing-mode:lr-tb;text-anchor:start;fill:#3c6eb4;font-family:Liberation Mono;-inkscape-font-specification:Liberation Mono"
   id="tspan3142">ur1.ca/2sxer</tspan></tspan><tspan
           style="font-weight:500;-inkscape-font-specification:Cantarell Medium"
           sodipodi:role="line"
           x="32.734375"
           y="1012.6411"
           id="tspan3146">and in Saturday’s general session.</tspan></text>
    </g>
    <g
       transform="translate(5.21875e-5,0)"
       style="display:inline"
       id="g3746">
      <g
         id="g3626">
        <g
           id="g3569"
           transform="translate(-938.42676,4.8828133e-7)">
          <rect
             y="72.361992"
             x="938.42676"
             height="106.42202"
             width="787.5"
             id="rect3876-7"
             style="fill:url(#linearGradient3613);fill-opacity:1;stroke:none" />
          <g
             transform="matrix(-1,0,0,-1,2676.1793,252.85932)"
             id="g3502">
            <g
               id="g10149-7"
               transform="matrix(0.72189439,0.34020621,-0.34020621,0.72189439,-105.05615,-592.97309)"
               inkscape:export-filename="/home/duffy/Resources/FedoraLogo.tar.gz_FILES/fudcon-logo-template.png"
               inkscape:export-xdpi="90"
               inkscape:export-ydpi="90"
               style="opacity:0.15695065;fill:#ffffff;fill-opacity:1">
              <path
                 inkscape:connector-curvature="0"
                 style="fill:#ffffff;fill-opacity:1;stroke:none"
                 d="m 1712.0577,188.6514 c -7.1795,-0.005 -14.3886,2.72004 -19.8757,8.18802 l -17.1685,17.16841 c -1.5485,1.54851 -1.5511,4.06164 0,5.61274 l 17.0364,17.03637 c 10.968,10.96799 28.9194,10.9693 39.8836,-1e-5 10.9693,-10.9693 10.902,-28.84951 -0.066,-39.81751 -5.4771,-5.47696 -12.6302,-8.18289 -19.8098,-8.18802 z"
                 id="path10151-8" />
              <path
                 inkscape:connector-curvature="0"
                 id="path10153-6"
                 d="m 1622.6216,288.38298 c -0.01,-10.22385 3.8733,-20.4896 11.6598,-28.30352 l 24.4483,-24.44822 c 2.2051,-2.20513 5.7839,-2.20876 7.9926,-3e-5 l 24.2603,24.26018 c 15.6187,15.61874 15.6205,41.18191 0,56.79511 -15.6206,15.62055 -41.0824,15.52469 -56.7012,-0.094 -7.7992,-7.79931 -11.6526,-17.98562 -11.6598,-28.20949 z"
                 style="fill:#ffffff;fill-opacity:1;stroke:none" />
              <path
                 inkscape:connector-curvature="0"
                 style="fill:#ffffff;fill-opacity:1;stroke:none"
                 d="m 1613.2612,244.88341 c 7.1795,0.005 14.3885,-2.72005 19.8757,-8.18802 l 17.1685,-17.16841 c 1.5485,-1.54851 1.5509,-4.06165 0,-5.61274 l -17.0364,-17.03637 c -10.968,-10.96799 -28.9194,-10.9693 -39.8836,1e-5 -10.9693,10.9693 -10.902,28.84951 0.066,39.81751 5.477,5.47696 12.6302,8.18288 19.8098,8.18802 z"
                 id="path10155-8" />
              <path
                 inkscape:connector-curvature="0"
                 id="path10157-8"
                 d="m 1702.6973,147.3905 c 0.01,10.22385 -3.8733,20.4896 -11.6599,28.30352 l -24.4482,24.44822 c -2.2051,2.20513 -5.7839,2.20876 -7.9926,3e-5 l -24.2603,-24.26018 c -15.6187,-15.61874 -15.6205,-41.18191 0,-56.79511 15.6206,-15.62055 41.0824,-15.52469 56.7011,0.094 7.7993,7.79931 11.6527,17.98562 11.6599,28.20949 z"
                 style="fill:#ffffff;fill-opacity:1;stroke:none" />
            </g>
            <g
               id="g10149-7-7"
               transform="matrix(-0.17009374,0.47039044,-0.47039044,-0.17009374,1496.7563,-605.71298)"
               inkscape:export-filename="/home/duffy/Resources/FedoraLogo.tar.gz_FILES/fudcon-logo-template.png"
               inkscape:export-xdpi="90"
               inkscape:export-ydpi="90"
               style="opacity:0.12107622;fill:#ffffff;fill-opacity:1">
              <path
                 inkscape:connector-curvature="0"
                 style="fill:#ffffff;fill-opacity:1;stroke:none"
                 d="m 1712.0577,188.6514 c -7.1795,-0.005 -14.3886,2.72004 -19.8757,8.18802 l -17.1685,17.16841 c -1.5485,1.54851 -1.5511,4.06164 0,5.61274 l 17.0364,17.03637 c 10.968,10.96799 28.9194,10.9693 39.8836,-1e-5 10.9693,-10.9693 10.902,-28.84951 -0.066,-39.81751 -5.4771,-5.47696 -12.6302,-8.18289 -19.8098,-8.18802 z"
                 id="path10151-8-7" />
              <path
                 inkscape:connector-curvature="0"
                 id="path10153-6-1"
                 d="m 1622.6216,288.38298 c -0.01,-10.22385 3.8733,-20.4896 11.6598,-28.30352 l 24.4483,-24.44822 c 2.2051,-2.20513 5.7839,-2.20876 7.9926,-3e-5 l 24.2603,24.26018 c 15.6187,15.61874 15.6205,41.18191 0,56.79511 -15.6206,15.62055 -41.0824,15.52469 -56.7012,-0.094 -7.7992,-7.79931 -11.6526,-17.98562 -11.6598,-28.20949 z"
                 style="fill:#ffffff;fill-opacity:1;stroke:none" />
              <path
                 inkscape:connector-curvature="0"
                 style="fill:#ffffff;fill-opacity:1;stroke:none"
                 d="m 1613.2612,244.88341 c 7.1795,0.005 14.3885,-2.72005 19.8757,-8.18802 l 17.1685,-17.16841 c 1.5485,-1.54851 1.5509,-4.06165 0,-5.61274 l -17.0364,-17.03637 c -10.968,-10.96799 -28.9194,-10.9693 -39.8836,1e-5 -10.9693,10.9693 -10.902,28.84951 0.066,39.81751 5.477,5.47696 12.6302,8.18288 19.8098,8.18802 z"
                 id="path10155-8-1" />
              <path
                 inkscape:connector-curvature="0"
                 id="path10157-8-5"
                 d="m 1702.6973,147.3905 c 0.01,10.22385 -3.8733,20.4896 -11.6599,28.30352 l -24.4482,24.44822 c -2.2051,2.20513 -5.7839,2.20876 -7.9926,3e-5 l -24.2603,-24.26018 c -15.6187,-15.61874 -15.6205,-41.18191 0,-56.79511 15.6206,-15.62055 41.0824,-15.52469 56.7011,0.094 7.7993,7.79931 11.6527,17.98562 11.6599,28.20949 z"
                 style="fill:#ffffff;fill-opacity:1;stroke:none" />
            </g>
            <g
               id="g10149-7-7-9"
               transform="matrix(0.18557564,0.22022249,-0.22022249,0.18557564,916.43792,-263.70651)"
               inkscape:export-filename="/home/duffy/Resources/FedoraLogo.tar.gz_FILES/fudcon-logo-template.png"
               inkscape:export-xdpi="90"
               inkscape:export-ydpi="90"
               style="opacity:0.103139;fill:#ffffff;fill-opacity:1">
              <path
                 inkscape:connector-curvature="0"
                 style="fill:#ffffff;fill-opacity:1;stroke:none"
                 d="m 1712.0577,188.6514 c -7.1795,-0.005 -14.3886,2.72004 -19.8757,8.18802 l -17.1685,17.16841 c -1.5485,1.54851 -1.5511,4.06164 0,5.61274 l 17.0364,17.03637 c 10.968,10.96799 28.9194,10.9693 39.8836,-1e-5 10.9693,-10.9693 10.902,-28.84951 -0.066,-39.81751 -5.4771,-5.47696 -12.6302,-8.18289 -19.8098,-8.18802 z"
                 id="path10151-8-7-7" />
              <path
                 inkscape:connector-curvature="0"
                 id="path10153-6-1-7"
                 d="m 1622.6216,288.38298 c -0.01,-10.22385 3.8733,-20.4896 11.6598,-28.30352 l 24.4483,-24.44822 c 2.2051,-2.20513 5.7839,-2.20876 7.9926,-3e-5 l 24.2603,24.26018 c 15.6187,15.61874 15.6205,41.18191 0,56.79511 -15.6206,15.62055 -41.0824,15.52469 -56.7012,-0.094 -7.7992,-7.79931 -11.6526,-17.98562 -11.6598,-28.20949 z"
                 style="fill:#ffffff;fill-opacity:1;stroke:none" />
              <path
                 inkscape:connector-curvature="0"
                 style="fill:#ffffff;fill-opacity:1;stroke:none"
                 d="m 1613.2612,244.88341 c 7.1795,0.005 14.3885,-2.72005 19.8757,-8.18802 l 17.1685,-17.16841 c 1.5485,-1.54851 1.5509,-4.06165 0,-5.61274 l -17.0364,-17.03637 c -10.968,-10.96799 -28.9194,-10.9693 -39.8836,1e-5 -10.9693,10.9693 -10.902,28.84951 0.066,39.81751 5.477,5.47696 12.6302,8.18288 19.8098,8.18802 z"
                 id="path10155-8-1-6" />
              <path
                 inkscape:connector-curvature="0"
                 id="path10157-8-5-7"
                 d="m 1702.6973,147.3905 c 0.01,10.22385 -3.8733,20.4896 -11.6599,28.30352 l -24.4482,24.44822 c -2.2051,2.20513 -5.7839,2.20876 -7.9926,3e-5 l -24.2603,-24.26018 c -15.6187,-15.61874 -15.6205,-41.18191 0,-56.79511 15.6206,-15.62055 41.0824,-15.52469 56.7011,0.094 7.7993,7.79931 11.6527,17.98562 11.6599,28.20949 z"
                 style="fill:#ffffff;fill-opacity:1;stroke:none" />
            </g>
            <g
               id="g10149-7-7-9-3"
               transform="matrix(-0.0809773,0.22394092,-0.22394092,-0.0809773,1405.1724,-213.56263)"
               inkscape:export-filename="/home/duffy/Resources/FedoraLogo.tar.gz_FILES/fudcon-logo-template.png"
               inkscape:export-xdpi="90"
               inkscape:export-ydpi="90"
               style="opacity:0.07623321;fill:#ffffff;fill-opacity:1">
              <path
                 inkscape:connector-curvature="0"
                 style="fill:#ffffff;fill-opacity:1;stroke:none"
                 d="m 1712.0577,188.6514 c -7.1795,-0.005 -14.3886,2.72004 -19.8757,8.18802 l -17.1685,17.16841 c -1.5485,1.54851 -1.5511,4.06164 0,5.61274 l 17.0364,17.03637 c 10.968,10.96799 28.9194,10.9693 39.8836,-1e-5 10.9693,-10.9693 10.902,-28.84951 -0.066,-39.81751 -5.4771,-5.47696 -12.6302,-8.18289 -19.8098,-8.18802 z"
                 id="path10151-8-7-7-1" />
              <path
                 inkscape:connector-curvature="0"
                 id="path10153-6-1-7-7"
                 d="m 1622.6216,288.38298 c -0.01,-10.22385 3.8733,-20.4896 11.6598,-28.30352 l 24.4483,-24.44822 c 2.2051,-2.20513 5.7839,-2.20876 7.9926,-3e-5 l 24.2603,24.26018 c 15.6187,15.61874 15.6205,41.18191 0,56.79511 -15.6206,15.62055 -41.0824,15.52469 -56.7012,-0.094 -7.7992,-7.79931 -11.6526,-17.98562 -11.6598,-28.20949 z"
                 style="fill:#ffffff;fill-opacity:1;stroke:none" />
              <path
                 inkscape:connector-curvature="0"
                 style="fill:#ffffff;fill-opacity:1;stroke:none"
                 d="m 1613.2612,244.88341 c 7.1795,0.005 14.3885,-2.72005 19.8757,-8.18802 l 17.1685,-17.16841 c 1.5485,-1.54851 1.5509,-4.06165 0,-5.61274 l -17.0364,-17.03637 c -10.968,-10.96799 -28.9194,-10.9693 -39.8836,1e-5 -10.9693,10.9693 -10.902,28.84951 0.066,39.81751 5.477,5.47696 12.6302,8.18288 19.8098,8.18802 z"
                 id="path10155-8-1-6-5" />
              <path
                 inkscape:connector-curvature="0"
                 id="path10157-8-5-7-9"
                 d="m 1702.6973,147.3905 c 0.01,10.22385 -3.8733,20.4896 -11.6599,28.30352 l -24.4482,24.44822 c -2.2051,2.20513 -5.7839,2.20876 -7.9926,3e-5 l -24.2603,-24.26018 c -15.6187,-15.61874 -15.6205,-41.18191 0,-56.79511 15.6206,-15.62055 41.0824,-15.52469 56.7011,0.094 7.7993,7.79931 11.6527,17.98562 11.6599,28.20949 z"
                 style="fill:#ffffff;fill-opacity:1;stroke:none" />
            </g>
            <g
               id="g10149-7-7-9-3-9"
               transform="matrix(0.02663737,0.23663751,-0.23663751,0.02663737,1286.5639,-252.64739)"
               inkscape:export-filename="/home/duffy/Resources/FedoraLogo.tar.gz_FILES/fudcon-logo-template.png"
               inkscape:export-xdpi="90"
               inkscape:export-ydpi="90"
               style="opacity:0.07623321;fill:#ffffff;fill-opacity:1">
              <path
                 inkscape:connector-curvature="0"
                 style="fill:#ffffff;fill-opacity:1;stroke:none"
                 d="m 1712.0577,188.6514 c -7.1795,-0.005 -14.3886,2.72004 -19.8757,8.18802 l -17.1685,17.16841 c -1.5485,1.54851 -1.5511,4.06164 0,5.61274 l 17.0364,17.03637 c 10.968,10.96799 28.9194,10.9693 39.8836,-1e-5 10.9693,-10.9693 10.902,-28.84951 -0.066,-39.81751 -5.4771,-5.47696 -12.6302,-8.18289 -19.8098,-8.18802 z"
                 id="path10151-8-7-7-1-6" />
              <path
                 inkscape:connector-curvature="0"
                 id="path10153-6-1-7-7-4"
                 d="m 1622.6216,288.38298 c -0.01,-10.22385 3.8733,-20.4896 11.6598,-28.30352 l 24.4483,-24.44822 c 2.2051,-2.20513 5.7839,-2.20876 7.9926,-3e-5 l 24.2603,24.26018 c 15.6187,15.61874 15.6205,41.18191 0,56.79511 -15.6206,15.62055 -41.0824,15.52469 -56.7012,-0.094 -7.7992,-7.79931 -11.6526,-17.98562 -11.6598,-28.20949 z"
                 style="fill:#ffffff;fill-opacity:1;stroke:none" />
              <path
                 inkscape:connector-curvature="0"
                 style="fill:#ffffff;fill-opacity:1;stroke:none"
                 d="m 1613.2612,244.88341 c 7.1795,0.005 14.3885,-2.72005 19.8757,-8.18802 l 17.1685,-17.16841 c 1.5485,-1.54851 1.5509,-4.06165 0,-5.61274 l -17.0364,-17.03637 c -10.968,-10.96799 -28.9194,-10.9693 -39.8836,1e-5 -10.9693,10.9693 -10.902,28.84951 0.066,39.81751 5.477,5.47696 12.6302,8.18288 19.8098,8.18802 z"
                 id="path10155-8-1-6-5-3" />
              <path
                 inkscape:connector-curvature="0"
                 id="path10157-8-5-7-9-3"
                 d="m 1702.6973,147.3905 c 0.01,10.22385 -3.8733,20.4896 -11.6599,28.30352 l -24.4482,24.44822 c -2.2051,2.20513 -5.7839,2.20876 -7.9926,3e-5 l -24.2603,-24.26018 c -15.6187,-15.61874 -15.6205,-41.18191 0,-56.79511 15.6206,-15.62055 41.0824,-15.52469 56.7011,0.094 7.7993,7.79931 11.6527,17.98562 11.6599,28.20949 z"
                 style="fill:#ffffff;fill-opacity:1;stroke:none" />
            </g>
          </g>
          <rect
             y="39.862"
             x="938.42676"
             height="48.260708"
             width="787.50006"
             id="rect2988-8"
             style="fill:#3c6eb4;fill-opacity:1;stroke:none" />
          <g
             transform="matrix(0.895747,0,0,0.895747,533.6772,2.0751487)"
             id="g3921">
            <text
               sodipodi:linespacing="125%"
               id="text3864-3"
               y="75.783913"
               x="772.328"
               style="font-size:16px;font-style:normal;font-variant:normal;font-weight:normal;font-stretch:normal;text-align:end;line-height:125%;letter-spacing:0px;word-spacing:0px;writing-mode:lr-tb;text-anchor:end;fill:#ffffff;fill-opacity:1;stroke:none;font-family:Comfortaa;-inkscape-font-specification:Comfortaa"
               xml:space="preserve"><tspan
                 y="75.783913"
                 x="772.328"
                 id="tspan3866-1"
                 sodipodi:role="line"
                 style="font-style:normal;font-variant:normal;font-weight:normal;font-stretch:normal;font-family:MgOpen Modata;-inkscape-font-specification:MgOpen Modata">PANAMA — <tspan
   style="font-style:normal;font-variant:normal;font-weight:normal;font-stretch:normal;font-family:Comfortaa;-inkscape-font-specification:Comfortaa"
   id="tspan3143">Mayo 26–28, 2011</tspan></tspan></text>
            <g
               id="g4574"
               transform="matrix(0.27401424,0,0,0.27401424,367.07316,24.787672)">
              <g
                 style="fill:#294172;fill-opacity:1"
                 inkscape:export-ydpi="90"
                 inkscape:export-xdpi="90"
                 inkscape:export-filename="/home/duffy/Resources/FedoraLogo.tar.gz_FILES/fudcon-logo-template.png"
                 transform="matrix(0.54261182,0.54261182,-0.54261182,0.54261182,-375.78941,-855.31619)"
                 id="g10149">
                <path
                   id="path10151"
                   d="m 1712.0577,188.6514 c -7.1795,-0.005 -14.3886,2.72004 -19.8757,8.18802 l -17.1685,17.16841 c -1.5485,1.54851 -1.5511,4.06164 0,5.61274 l 17.0364,17.03637 c 10.968,10.96799 28.9194,10.9693 39.8836,-1e-5 10.9693,-10.9693 10.902,-28.84951 -0.066,-39.81751 -5.4771,-5.47696 -12.6302,-8.18289 -19.8098,-8.18802 z"
                   style="fill:#294172;fill-opacity:1;stroke:none"
                   inkscape:connector-curvature="0" />
                <path
                   style="fill:#294172;fill-opacity:1;stroke:none"
                   d="m 1622.6216,288.38298 c -0.01,-10.22385 3.8733,-20.4896 11.6598,-28.30352 l 24.4483,-24.44822 c 2.2051,-2.20513 5.7839,-2.20876 7.9926,-3e-5 l 24.2603,24.26018 c 15.6187,15.61874 15.6205,41.18191 0,56.79511 -15.6206,15.62055 -41.0824,15.52469 -56.7012,-0.094 -7.7992,-7.79931 -11.6526,-17.98562 -11.6598,-28.20949 z"
                   id="path10153"
                   inkscape:connector-curvature="0" />
                <path
                   id="path10155"
                   d="m 1613.2612,244.88341 c 7.1795,0.005 14.3885,-2.72005 19.8757,-8.18802 l 17.1685,-17.16841 c 1.5485,-1.54851 1.5509,-4.06165 0,-5.61274 l -17.0364,-17.03637 c -10.968,-10.96799 -28.9194,-10.9693 -39.8836,1e-5 -10.9693,10.9693 -10.902,28.84951 0.066,39.81751 5.477,5.47696 12.6302,8.18288 19.8098,8.18802 z"
                   style="fill:#294172;fill-opacity:1;stroke:none"
                   inkscape:connector-curvature="0" />
                <path
                   style="fill:#294172;fill-opacity:1;stroke:none"
                   d="m 1702.6973,147.3905 c 0.01,10.22385 -3.8733,20.4896 -11.6599,28.30352 l -24.4482,24.44822 c -2.2051,2.20513 -5.7839,2.20876 -7.9926,3e-5 l -24.2603,-24.26018 c -15.6187,-15.61874 -15.6205,-41.18191 0,-56.79511 15.6206,-15.62055 41.0824,-15.52469 56.7011,0.094 7.7993,7.79931 11.6527,17.98562 11.6599,28.20949 z"
                   id="path10157"
                   inkscape:connector-curvature="0" />
              </g>
              <text
                 inkscape:export-ydpi="90"
                 inkscape:export-xdpi="90"
                 inkscape:export-filename="/home/duffy/Resources/FedoraLogo.tar.gz_FILES/fudcon-logo-template.png"
                 xml:space="preserve"
                 style="font-size:80.85561371px;font-style:normal;font-weight:normal;fill:#0a57a4;fill-opacity:1;stroke:none;font-family:Bitstream Vera Sans"
                 x="496.81644"
                 y="187.23965"
                 id="text10159"><tspan
                   sodipodi:role="line"
                   id="tspan10161"
                   x="496.81644"
                   y="187.23965"
                   style="font-weight:bold;letter-spacing:-2.43262696;fill:#ffffff;fill-opacity:1;font-family:MgOpen Modata">fud</tspan></text>
              <text
                 inkscape:export-ydpi="90"
                 inkscape:export-xdpi="90"
                 inkscape:export-filename="/home/duffy/Resources/FedoraLogo.tar.gz_FILES/fudcon-logo-template.png"
                 id="text10165"
                 y="187.23965"
                 x="604.94031"
                 style="font-size:80.85561371px;font-style:normal;font-weight:normal;fill:#0a57a4;fill-opacity:1;stroke:none;font-family:Bitstream Vera Sans"
                 xml:space="preserve"><tspan
                   style="letter-spacing:-2.43262696;fill:#ffffff;fill-opacity:1;font-family:MgOpen Modata"
                   y="187.23965"
                   x="604.94031"
                   id="tspan10167"
                   sodipodi:role="line"> con</tspan></text>
            </g>
          </g>
        </g>
      </g>
      <g
         id="g3799">
        <rect
           style="fill:#3c6eb4;fill-opacity:1;stroke:none;display:inline"
           id="rect2988-4"
           width="787.50006"
           height="34.327221"
           x="938.42676"
           y="1018.0348"
           transform="translate(-938.42681,-6.46e-4)" />
        <g
           id="g3098"
           transform="matrix(0.7207836,0,0,0.7207836,1659.3503,956.00872)">
          <g
             id="g3496"
             transform="translate(-1301.9536,-8.7783461e-4)">
            <path
               inkscape:connector-curvature="0"
               d="m 33.75,100.42314 c 0,-13.128343 10.642037,-23.771142 23.769925,-23.771142 13.121784,0 23.759637,10.634033 23.769145,23.754392 l 8.35e-4,-8.2e-4 0,18.39492 -8.35e-4,8.2e-4 c -0.0076,2.979 -2.423019,5.39069 -5.403832,5.39069 -0.0076,0 -0.01711,-5.5e-4 -0.02548,-5.5e-4 l -0.0014,5.5e-4 -18.347438,0 0,0 C 44.386851,124.186 33.750135,113.54768 33.750135,100.42314 l -1.33e-4,0 z"
               id="path3471-6"
               style="fill:#294172;fill-opacity:1" />
            <text
               xml:space="preserve"
               style="font-size:30.42560196px;font-style:normal;font-variant:normal;font-weight:bold;font-stretch:expanded;text-align:center;line-height:125%;letter-spacing:0px;word-spacing:0px;writing-mode:lr-tb;text-anchor:middle;fill:#ffffff;fill-opacity:1;stroke:none;font-family:Comfortaa;-inkscape-font-specification:Comfortaa Bold Expanded"
               x="57.757656"
               y="111.00707"
               id="text3860-8"
               sodipodi:linespacing="125%"><tspan
                 sodipodi:role="line"
                 id="tspan3862-8"
                 x="57.757656"
                 y="111.00707"
                 style="text-align:center;text-anchor:middle">9</tspan></text>
          </g>
        </g>
      </g>
    </g>
  </g>
</svg>
